<?xml version="1.0" encoding="UTF-8" standalone="no"?>
<!-- Created with Vectornator for iOS (http://vectornator.io/) -->

<svg
   xmlns:vectornator="http://vectornator.io"
   xmlns:dc="http://purl.org/dc/elements/1.1/"
   xmlns:cc="http://creativecommons.org/ns#"
   xmlns:rdf="http://www.w3.org/1999/02/22-rdf-syntax-ns#"
   xmlns:svg="http://www.w3.org/2000/svg"
   xmlns="http://www.w3.org/2000/svg"
   xmlns:sodipodi="http://sodipodi.sourceforge.net/DTD/sodipodi-0.dtd"
   xmlns:inkscape="http://www.inkscape.org/namespaces/inkscape"
   style="clip-rule:evenodd;fill-rule:evenodd;stroke-linecap:round;stroke-linejoin:round"
   xml:space="preserve"
   version="1.1"
   viewBox="0 0 343.53247 257.90425"
   id="svg79"
   sodipodi:docname="22b-direktneben22a.svg"
   inkscape:version="0.92.3 (2405546, 2018-03-11)"
   width="343.53247"
   height="257.90424"><sodipodi:namedview
   pagecolor="#ffffff"
   bordercolor="#666666"
   borderopacity="1"
   objecttolerance="10"
   gridtolerance="10"
   guidetolerance="10"
   inkscape:pageopacity="0"
   inkscape:pageshadow="2"
   inkscape:window-width="1920"
   inkscape:window-height="1015"
   id="namedview81"
   showgrid="false"
   inkscape:object-paths="true"
   inkscape:zoom="1.807248"
   inkscape:cx="176.19578"
   inkscape:cy="162.4076"
   inkscape:window-x="0"
   inkscape:window-y="0"
   inkscape:window-maximized="1"
   inkscape:current-layer="svg79"
   fit-margin-top="10"
   fit-margin-left="10"
   fit-margin-bottom="10"
   fit-margin-right="10" />
<metadata
   id="metadata2">
<vectornator:setting
   key="DisplayWhiteBackground"
   value="0" />
<vectornator:setting
   key="RulersVisible"
   value="1" />
<vectornator:setting
   key="GridSpacing"
   value="36" />
<vectornator:setting
   key="Units"
   value="Millimeters" />
<vectornator:setting
   key="DynamicGuides"
   value="0" />
<vectornator:setting
   key="SnapToPoints"
   value="0" />
<vectornator:setting
   key="SnapToGrid"
   value="0" />
<vectornator:setting
   key="SnapToGuides"
   value="1" />
<vectornator:setting
   key="ShowGrid"
   value="1" />
<vectornator:setting
   key="SnapToEdges"
   value="0" />
<rdf:RDF><cc:Work
     rdf:about=""><dc:format>image/svg+xml</dc:format><dc:type
       rdf:resource="http://purl.org/dc/dcmitype/StillImage" /><dc:title></dc:title></cc:Work></rdf:RDF></metadata>
<defs
   id="defs4">




































</defs>
<path
   style="opacity:1;fill:none;stroke:#000000;stroke-width:2;stroke-linecap:round;stroke-linejoin:round;stroke-miterlimit:4;stroke-dasharray:none"
   inkscape:connector-curvature="0"
   id="path6"
   d="m 11.014242,133.09394 321.503998,1.645" /><path
   style="opacity:1;fill:none;stroke:#000000;stroke-width:2;stroke-linecap:round;stroke-linejoin:round;stroke-miterlimit:4;stroke-dasharray:none"
   inkscape:connector-curvature="0"
   id="path12"
   d="m 66.855482,139.7712 c -5.83444,0 -8.03127,12.75645 -2.78399,13.92148 3.59889,0.79941 7.27834,-6.10866 6.12415,-9.187 -0.23858,-0.63829 -1.40671,-3.07834 -1.94894,-3.62058 -0.26957,-0.26957 -1.45474,-0.1069 -1.11236,-0.27731 2.11626,-1.05968 4.20154,-0.0263 6.12415,-1.94895" /><path
   style="opacity:1;fill:none;stroke:#000000;stroke-width:2;stroke-linecap:round;stroke-linejoin:round;stroke-miterlimit:4;stroke-dasharray:none"
   inkscape:connector-curvature="0"
   id="path14"
   d="m 157.27224,130.78294 c -1.317,1.976 -2.479,3.987 -3.774,5.931" /><path
   style="opacity:1;fill:none;stroke:#000000;stroke-width:2;stroke-linecap:round;stroke-linejoin:round;stroke-miterlimit:4;stroke-dasharray:none"
   inkscape:connector-curvature="0"
   id="path16"
   d="m 153.67824,132.22094 c 0.828,0 3.706,2.808 4.492,3.594" /><path
   style="opacity:1;fill:none;stroke:#000000;stroke-width:2;stroke-linecap:round;stroke-linejoin:round;stroke-miterlimit:4;stroke-dasharray:none"
   inkscape:connector-curvature="0"
   id="path18"
   d="m 159.8322,143.84079 c 2.14234,0 4.38894,-2.82625 5.80021,-4.23752 0.5995,-0.59951 0.75714,-2.27639 1.56145,-2.00829 0.91726,0.30534 0.15018,1.94499 0,2.89949 -0.66405,4.20524 -1.11586,8.45268 -1.11586,12.71502" /><path
   style="opacity:1;fill:none;stroke:#000000;stroke-width:2;stroke-linecap:round;stroke-linejoin:round;stroke-miterlimit:4;stroke-dasharray:none"
   inkscape:connector-curvature="0"
   id="path20"
   d="m 222.32824,132.04094 c 2.232,1.786 4.871,2.48 6.65,4.852" /><path
   style="opacity:1;fill:none;stroke:#000000;stroke-width:2;stroke-linecap:round;stroke-linejoin:round;stroke-miterlimit:4;stroke-dasharray:none"
   inkscape:connector-curvature="0"
   id="path22"
   d="m 223.22724,138.51094 c -1.219,0.61 -0.028,0.068 1.438,-1.797 1.646,-2.096 3.238,-4.396 4.672,-6.65" /><path
   style="opacity:1;fill:none;stroke:#000000;stroke-width:2;stroke-linecap:round;stroke-linejoin:round;stroke-miterlimit:4;stroke-dasharray:none"
   inkscape:connector-curvature="0"
   id="path24"
   d="m 231.13424,138.86994 c 1.037,-1.036 5.685,-2.519 4.673,0.719 -0.74,2.369 -10.635,12.475 -2.157,10.244 1.297,-0.341 2.345,-1.021 3.595,-1.438" /><path
   style="opacity:1;fill:none;stroke:#000000;stroke-width:2;stroke-linecap:round;stroke-linejoin:round;stroke-miterlimit:4;stroke-dasharray:none"
   inkscape:connector-curvature="0"
   id="path32"
   d="m 92.538242,50.837945 c 12.779998,-14.909 36.300998,-29.684 51.519998,-39.83" /><path
   style="opacity:1;fill:none;stroke:#000000;stroke-width:2;stroke-linecap:round;stroke-linejoin:round;stroke-miterlimit:4;stroke-dasharray:none"
   inkscape:connector-curvature="0"
   id="path34"
   d="M 91.673242,101.49094 C 102.42724,87.152945 122.77624,75.560945 135.83224,66.855945" /><path
   style="opacity:1;fill:none;stroke:#000000;stroke-width:2;stroke-linecap:round;stroke-linejoin:round;stroke-miterlimit:4;stroke-dasharray:none"
   inkscape:connector-curvature="0"
   id="path36"
   d="m 117.21624,124.86994 c -1.504,-3.009 3.154,-5.319 5.195,-7.36 2.626,-2.626 17.617,-13.588 19.049,-16.452" /><path
   style="opacity:1;fill:none;stroke:#000000;stroke-width:2;stroke-linecap:round;stroke-linejoin:round;stroke-miterlimit:4;stroke-dasharray:none"
   inkscape:connector-curvature="0"
   id="path38"
   d="m 88.209242,158.20594 c 2.357,-5.893 6.827,-9.532 11.689,-13.421" /><path
   style="opacity:1;fill:none;stroke:#000000;stroke-width:2;stroke-linecap:round;stroke-linejoin:round;stroke-miterlimit:4;stroke-dasharray:none"
   inkscape:connector-curvature="0"
   id="path40"
   d="m 92.971242,195.00494 c 0,-3.531 16.591998,-13.712 17.317998,-14.287 11.633,-9.21 22.205,-19.621 32.903,-29.872" /><path
   style="opacity:1;fill:none;stroke:#000000;stroke-width:2;stroke-linecap:round;stroke-linejoin:round;stroke-miterlimit:4;stroke-dasharray:none"
   inkscape:connector-curvature="0"
   id="path42"
   d="m 95.136242,242.62794 c -0.577,0.288 -1.275,1.322 -1.732,0.866 -0.456,-0.457 0.385,-1.301 0.866,-1.732 15.010998,-13.442 29.994998,-26.434 46.323998,-38.098" /><path
   style="opacity:1;fill:none;stroke:#d00000;stroke-width:2;stroke-linecap:round;stroke-linejoin:round;stroke-miterlimit:4;stroke-dasharray:none"
   inkscape:connector-curvature="0"
   id="path48"
   d="m 105.09424,27.485515 c 0,16.605 2.164,33.164 2.164,49.788" /><path
   style="opacity:1;fill:none;stroke:#d00000;stroke-width:2;stroke-linecap:round;stroke-linejoin:round;stroke-miterlimit:4;stroke-dasharray:none"
   inkscape:connector-curvature="0"
   id="path50"
   d="m 98.167242,39.607515 c -0.344,0.687 4.221998,-8.945 5.194998,-11.256 0.677,-1.607 0.932,-5.995 2.165,-4.762 2.996,2.997 2.673,7.767 6.494,10.823" /><path
   style="opacity:1;fill:none;stroke:#d00000;stroke-width:2;stroke-linecap:round;stroke-linejoin:round;stroke-miterlimit:4;stroke-dasharray:none"
   inkscape:connector-curvature="0"
   id="path52"
   d="m 90.653362,88.891055 c 3.273,1.091 5.743,5.606 8.659,7.793" /><path
   style="opacity:1;fill:none;stroke:#d00000;stroke-width:2;stroke-linecap:round;stroke-linejoin:round;stroke-miterlimit:4;stroke-dasharray:none"
   inkscape:connector-curvature="0"
   id="path54"
   d="m 102.92924,85.498515 c -2.982998,8.948 -5.940998,18.016995 -7.792998,27.274995" /><path
   style="opacity:1;fill:none;stroke:#d00000;stroke-width:2;stroke-linecap:round;stroke-linejoin:round;stroke-miterlimit:4;stroke-dasharray:none"
   inkscape:connector-curvature="0"
   id="path56"
   d="m 103.36224,99.785515 c 5.731,-2.865 11.554,-5.344 17.317,-8.225" /><path
   style="opacity:1;fill:none;stroke:#d00000;stroke-width:2;stroke-linecap:round;stroke-linejoin:round;stroke-miterlimit:4;stroke-dasharray:none"
   inkscape:connector-curvature="0"
   id="path58"
   d="m 114.61824,87.663515 c 1.067,2.133 13.09,-0.858 7.793,5.195 -0.609,0.696 -1.177,1.426 -1.732,2.165 -0.783,1.045 -0.795,1.158 -1.299,2.165" /><path
   style="opacity:1;fill:none;stroke:#d00000;stroke-width:2;stroke-linecap:round;stroke-linejoin:round;stroke-miterlimit:4;stroke-dasharray:none"
   inkscape:connector-curvature="0"
   id="path60"
   d="m 142.32624,88.096515 c -7.153,4.982 -5.203,10.43 -15.586,9.958 -0.983,-0.045 2.595,-11.836 6.061,-9.525 3.704,2.469 2.071,13.660995 9.958,11.688995 4.374,-1.092995 5.669,-16.370995 -0.433,-12.121995 z" /><path
   style="opacity:1;fill:none;stroke:#d00000;stroke-width:2;stroke-linecap:round;stroke-linejoin:round;stroke-miterlimit:4;stroke-dasharray:none"
   inkscape:connector-curvature="0"
   id="path62"
   d="m 107.25824,194.51585 c -1.594,14.347 0.433,29.24 0.433,43.726" /><path
   style="opacity:1;fill:none;stroke:#d00000;stroke-width:2;stroke-linecap:round;stroke-linejoin:round;stroke-miterlimit:4;stroke-dasharray:none"
   inkscape:connector-curvature="0"
   id="path64"
   d="m 99.898242,230.01685 c 4.977998,2.488 5.948998,17.757 11.256998,8.658 0.524,-0.899 1.169,-1.722 1.731,-2.597 0.737,-1.146 1.348,-2.375 2.165,-3.464 1.597,-2.129 3.492,-4.017 5.195,-6.061" /><path
   style="opacity:1;fill:none;stroke:#d00000;stroke-width:2;stroke-linecap:round;stroke-linejoin:round;stroke-miterlimit:4;stroke-dasharray:none"
   inkscape:connector-curvature="0"
   id="path66"
   d="m 88.642242,172.86885 c -0.046,0 3.95,9.128 6.494,10.824" /><path
   style="opacity:1;fill:none;stroke:#d00000;stroke-width:2;stroke-linecap:round;stroke-linejoin:round;stroke-miterlimit:4;stroke-dasharray:none"
   inkscape:connector-curvature="0"
   id="path68"
   d="m 101.19724,167.67385 c -2.509998,7.53 -7.359998,21.428 -7.359998,29.873" /><path
   style="opacity:1;fill:none;stroke:#d00000;stroke-width:2;stroke-linecap:round;stroke-linejoin:round;stroke-miterlimit:4;stroke-dasharray:none"
   inkscape:connector-curvature="0"
   id="path70"
   d="m 102.92924,182.82685 c -5.697998,0 8.984,-0.639 11.256,-0.866 1.301,-0.13 4.70308,1.07954 4.38608,-0.18846 -0.338,-1.35 -2.95608,-3.57754 -3.95308,-4.57354"
   sodipodi:nodetypes="cccc" /><path
   style="opacity:1;fill:none;stroke:#d00000;stroke-width:2;stroke-linecap:round;stroke-linejoin:round;stroke-miterlimit:4;stroke-dasharray:none"
   inkscape:connector-curvature="0"
   id="path72"
   d="m 118.28,182.56654 c -1.97518,1.27783 -3.15538,3.54703 -4.762,4.762 v 0"
   sodipodi:nodetypes="ccc" /><path
   style="opacity:1;fill:none;stroke:#d00000;stroke-width:2;stroke-linecap:round;stroke-linejoin:round;stroke-miterlimit:4;stroke-dasharray:none"
   inkscape:connector-curvature="0"
   id="path74"
   d="m 122.84424,183.69285 h 1.732 l 4.329,-0.866 h 0.866 1.299 v 0" /><path
   style="opacity:1;fill:none;stroke:#d00000;stroke-width:2;stroke-linecap:round;stroke-linejoin:round;stroke-miterlimit:4;stroke-dasharray:none"
   inkscape:connector-curvature="0"
   id="path76"
   d="m 143.62524,178.06385 c -2.311,3.108 -4.982,9.453 -9.525,9.958 -2.76,0.307 0.751,-7.923 1.732,-8.659 2.995,-2.246 4.188,11.833 9.957,9.525 2.51,-1.004 3.252,-8.395 1.299,-9.958 -0.976,-0.78 -2.731,-1.851 -3.463,-0.866 z" />
<path
   id="path8-3"
   style="clip-rule:evenodd;opacity:1;fill:none;fill-rule:evenodd;stroke:#000000;stroke-width:2;stroke-linecap:round;stroke-linejoin:round;stroke-miterlimit:4;stroke-dasharray:none"
   d="M 82.140242,20.025735 V 133.45786 m 0,0 v 113.43213"
   inkscape:connector-curvature="0" /><path
   inkscape:connector-curvature="0"
   id="path8-3-6"
   style="clip-rule:evenodd;opacity:1;fill:none;fill-rule:evenodd;stroke:#000000;stroke-width:2;stroke-linecap:round;stroke-linejoin:round;stroke-miterlimit:4;stroke-dasharray:none"
   d="M 155.5651,20.025735 V 133.45786 m 0,0 v 113.43213" /><path
   inkscape:connector-curvature="0"
   id="path8-3-7"
   style="clip-rule:evenodd;opacity:1;fill:none;fill-rule:evenodd;stroke:#000000;stroke-width:2;stroke-linecap:round;stroke-linejoin:round;stroke-miterlimit:4;stroke-dasharray:none"
   d="M 226.45148,20.025735 V 133.45786 m 0,0 v 113.43213" /><path
   style="clip-rule:evenodd;opacity:1;fill:none;fill-rule:evenodd;stroke:#000000;stroke-width:2;stroke-linecap:round;stroke-linejoin:round;stroke-miterlimit:4;stroke-dasharray:none"
   inkscape:connector-curvature="0"
   id="path20-5"
   d="m 78.356232,131.02469 c 2.232,1.786 4.871,2.48 6.65,4.852" /><path
   style="clip-rule:evenodd;opacity:1;fill:none;fill-rule:evenodd;stroke:#000000;stroke-width:2;stroke-linecap:round;stroke-linejoin:round;stroke-miterlimit:4;stroke-dasharray:none"
   inkscape:connector-curvature="0"
   id="path22-3"
   d="m 79.255232,137.49469 c -1.219,0.61 -0.028,0.068 1.438,-1.797 1.646,-2.096 3.238,-4.396 4.672,-6.65" /></svg>