<?xml version="1.0" encoding="UTF-8" standalone="no"?>
<!-- Created with Vectornator for iOS (http://vectornator.io/) -->

<svg
   xmlns:vectornator="http://vectornator.io"
   xmlns:dc="http://purl.org/dc/elements/1.1/"
   xmlns:cc="http://creativecommons.org/ns#"
   xmlns:rdf="http://www.w3.org/1999/02/22-rdf-syntax-ns#"
   xmlns:svg="http://www.w3.org/2000/svg"
   xmlns="http://www.w3.org/2000/svg"
   xmlns:sodipodi="http://sodipodi.sourceforge.net/DTD/sodipodi-0.dtd"
   xmlns:inkscape="http://www.inkscape.org/namespaces/inkscape"
   style="clip-rule:evenodd;fill-rule:evenodd;stroke-linecap:round;stroke-linejoin:round"
   xml:space="preserve"
   version="1.1"
   viewBox="0 0 764.13361 376.51933"
   id="svg207"
   sodipodi:docname="25b-k14theorem.svg"
   width="764.13361"
   height="376.51932"
   inkscape:version="0.92.3 (2405546, 2018-03-11)"><sodipodi:namedview
   pagecolor="#ffffff"
   bordercolor="#666666"
   borderopacity="1"
   objecttolerance="10"
   gridtolerance="10"
   guidetolerance="10"
   inkscape:pageopacity="0"
   inkscape:pageshadow="2"
   inkscape:window-width="1256"
   inkscape:window-height="1015"
   id="namedview209"
   showgrid="false"
   inkscape:snap-object-midpoints="true"
   fit-margin-top="10"
   fit-margin-left="10"
   fit-margin-bottom="10"
   fit-margin-right="10"
   inkscape:zoom="0.96841703"
   inkscape:cx="382.0668"
   inkscape:cy="188.25966"
   inkscape:window-x="0"
   inkscape:window-y="0"
   inkscape:window-maximized="0"
   inkscape:current-layer="svg207" />
<metadata
   id="metadata2">
<vectornator:setting
   key="DisplayWhiteBackground"
   value="0" />
<vectornator:setting
   key="RulersVisible"
   value="1" />
<vectornator:setting
   key="GridSpacing"
   value="36" />
<vectornator:setting
   key="Units"
   value="Millimeters" />
<vectornator:setting
   key="DynamicGuides"
   value="0" />
<vectornator:setting
   key="SnapToPoints"
   value="0" />
<vectornator:setting
   key="SnapToGrid"
   value="0" />
<vectornator:setting
   key="SnapToGuides"
   value="1" />
<vectornator:setting
   key="ShowGrid"
   value="1" />
<vectornator:setting
   key="SnapToEdges"
   value="0" />
<rdf:RDF><cc:Work
     rdf:about=""><dc:format>image/svg+xml</dc:format><dc:type
       rdf:resource="http://purl.org/dc/dcmitype/StillImage" /><dc:title></dc:title></cc:Work></rdf:RDF></metadata>
<defs
   id="defs4">




































































































</defs>
<circle
   style="opacity:1;fill:none;fill-opacity:1;stroke:#000000;stroke-width:2;stroke-linecap:round;stroke-linejoin:round;stroke-miterlimit:4;stroke-dasharray:none;stroke-dashoffset:0;stroke-opacity:1;paint-order:stroke markers fill"
   id="path1116"
   cx="212.83907"
   cy="113.11554"
   r="32.585007" /><path
   style="opacity:1;fill:none;stroke:#000000;stroke-width:2;stroke-linecap:round;stroke-linejoin:round;stroke-miterlimit:4;stroke-dasharray:none"
   inkscape:connector-curvature="0"
   id="path6"
   d="m 13.085938,365.50922 c -5.0549375,-5.055 4.37474,-15.826 8.12771,-19.382 19.412,-18.39 45.7557,-25.93 70.0236,-35.637 24.699102,-9.88 50.843102,-20.324 77.526102,-23.133 47.033,-4.951 96.654,6.362 143.173,-3.751 19.425,-4.223 42.443,-16.423 58.145,-28.76 10.099,-7.935 17.82,-17.678 25.008,-28.134 5.656,-8.227 9.92,-13.961 11.879,-23.758 1.341,-6.701 3.231,-13.704 2.501,-20.632 -4.796,-45.564 -69.472,-55.268 -93.781,-85.6541 -14.552,-18.19 -12.376,-37.8617 -10.092,-60.6938 0.42,-4.2042 4.40143,-19.21323 4.40143,-23.407"
   sodipodi:nodetypes="cccccccccccc" /><path
   style="opacity:1;fill:none;stroke:#000000;stroke-width:2;stroke-linecap:round;stroke-linejoin:round;stroke-miterlimit:4;stroke-dasharray:none"
   inkscape:connector-curvature="0"
   id="path8"
   d="m 12.490861,252.99279 c 7.27876,3.639 19.108087,3.13343 26.853887,3.72943 24.5791,1.891 47.5549,2.96 71.899602,-3.126 16.588,-4.147 35.121,-13.752 48.766,-23.758 11.344,-8.319 15.888,-25.483 25.009,-36.262 9.907,-11.709 36.762,-25.523 53.143,-21.883 6.571,1.46 15.668,8.875 20.006,13.755 2.577,2.899 7.006,5.883 8.753,9.378 10.242,20.483 -3.95,49.139 -25.633,55.644 -28.498,8.549 -53.476,7.303 -82.528,9.378 -8.512,0.608 -16.2,4.433 -24.384,6.252 -17.975,3.995 -36.646802,7.587 -52.517202,17.506 -18.4788,11.549 -34.1218,25.621 -50.6421,39.388 -4.6984,3.916 -14.352076,13.0593 -20.202806,13.0593"
   sodipodi:nodetypes="cccccccccccccc" /><path
   style="opacity:1;fill:none;stroke:#000000;stroke-width:2;stroke-linecap:round;stroke-linejoin:round;stroke-miterlimit:4;stroke-dasharray:none"
   inkscape:connector-curvature="0"
   id="path10"
   d="m 13.238436,222.33522 c 8.56943,3.428 23.315612,2.561 32.358512,3.126 9.4133,0.589 18.6557,2.271 28.1344,1.876 29.330502,-1.222 80.617002,-16.504 75.025002,-55.644 -0.678,-4.748 -5.982,-7.001 -9.378,-9.378 -8.527,-5.969 -18.055,-11.806 -27.509,-16.255 -9.2711,-4.363 -19.217002,-6.011 -28.759802,-9.379 -22.2392,-7.849 -46.6419,-22.402 -58.1446,-43.7644 -4.1769,-7.757 -10.62859,-15.2969 -10.62859,-24.3832"
   sodipodi:nodetypes="ccccccscc" /><path
   style="opacity:1;fill:none;stroke:#000000;stroke-width:2;stroke-linecap:round;stroke-linejoin:round;stroke-miterlimit:4;stroke-dasharray:none"
   inkscape:connector-curvature="0"
   id="path12"
   d="m 13.955858,40.420894 c 3.377439,2.815988 6.80318,2.99 9.37818,4.3765 7.4185,3.9946 15.31191,8.954026 22.26291,13.732826 21.1267,14.5247 26.2795,30.6398 52.5177,36.2623 7.089902,1.5193 13.580702,3.2053 20.631702,0 6.126,-2.7845 7.5,-7.488 8.753,-13.7547 3.411,-17.0552 -13.003,-29.0922 -25.6335,-37.5126 -4.027902,-2.6853 -7.803202,-4.6719 -10.628602,-8.753 -5.1301,-7.4101 -5.286058,-12.136609 -5.286058,-20.714879"
   sodipodi:nodetypes="ccccccccc" /><path
   style="opacity:1;fill:none;stroke:#000000;stroke-width:2;stroke-linecap:round;stroke-linejoin:round;stroke-miterlimit:4;stroke-dasharray:none"
   inkscape:connector-curvature="0"
   id="path16"
   d="m 121.24735,14.1403 c -1.412,5.64899 11.016,27.41092 16.256,30.63532 4.726,2.9087 13.782,1.6905 16.255,-3.7513 2.122,-4.6672 1.25,-10.0527 1.25,-15.005 0,-6.00677 0.77983,-7.183761 -2.61317,-12.273091"
   sodipodi:nodetypes="cccsc" /><path
   style="opacity:1;fill:none;stroke:#000000;stroke-width:2;stroke-linecap:round;stroke-linejoin:round;stroke-miterlimit:4;stroke-dasharray:none"
   inkscape:connector-curvature="0"
   id="path18"
   d="m 174.01975,14.051381 c -0.92503,3.979955 -0.14071,5.938015 0.3706,17.594839 0.305,5.6387 1.046,14.8434 8.128,15.6303 14.822,1.6469 9.378,-24.8775 9.378,-33.13622"
   sodipodi:nodetypes="ccsc" /><path
   style="opacity:1;fill:none;stroke:#000000;stroke-width:2;stroke-linecap:round;stroke-linejoin:round;stroke-miterlimit:4;stroke-dasharray:none"
   inkscape:connector-curvature="0"
   id="path20"
   d="m 209.40235,14.1403 c -4.176,8.35172 -2.998,44.92942 15.63,32.51092 6.126,-4.0842 8.753,-28.36597 8.753,-35.636978" /><path
   style="opacity:1;fill:none;stroke:#000000;stroke-width:2;stroke-linecap:round;stroke-linejoin:round;stroke-miterlimit:4;stroke-dasharray:none"
   inkscape:connector-curvature="0"
   id="path22"
   d="m 248.19441,12.175751 c -3.052,4.57869 -4.75506,22.981369 -3.15506,28.848569 1.196,4.387 5.974,7.3066 10.003,4.3765 9.728,-7.0748 11.0776,-23.632678 16.0006,-33.479887"
   sodipodi:nodetypes="cccc" /><path
   style="opacity:1;fill:none;stroke:#000000;stroke-width:2;stroke-linecap:round;stroke-linejoin:round;stroke-miterlimit:4;stroke-dasharray:none"
   inkscape:connector-curvature="0"
   id="path24"
   d="m 283.83141,13.085418 c -0.737,-1.4741 -10.83506,28.564202 -1.90506,28.564202 8.193,0 14.3106,-22.303446 18.5016,-28.590856"
   sodipodi:nodetypes="csc" /><path
   style="opacity:1;fill:none;stroke:#000000;stroke-width:2;stroke-linecap:round;stroke-linejoin:round;stroke-miterlimit:4;stroke-dasharray:none"
   inkscape:connector-curvature="0"
   id="path30"
   d="m 187.83835,99.19582 c 4.628,-3.857 0.987,-1.2595 11.916,-4.5087 8.651,-2.5719 17.732,-4.253 26.729,-5.1528" /><path
   style="opacity:1;fill:none;stroke:#000000;stroke-width:2;stroke-linecap:round;stroke-linejoin:round;stroke-miterlimit:4;stroke-dasharray:none"
   inkscape:connector-curvature="0"
   id="path32"
   d="m 186.87235,112.72222 c 15.85,0 31.985,-7.1002 47.663,-9.3398" /><path
   style="opacity:1;fill:none;stroke:#000000;stroke-width:2;stroke-linecap:round;stroke-linejoin:round;stroke-miterlimit:4;stroke-dasharray:none"
   inkscape:connector-curvature="0"
   id="path34"
   d="m 191.05835,130.11222 c -0.644,0 1.31,0.166 1.933,0 16.637,-4.437 27.732,-9.196 43.476,-10.627" /><path
   style="opacity:1;fill:none;stroke:#000000;stroke-width:2;stroke-linecap:round;stroke-linejoin:round;stroke-miterlimit:4;stroke-dasharray:none"
   inkscape:connector-curvature="0"
   id="path36"
   d="m 205.91479,140.01594 c -1.402,0.701 5.872,-2.306 7.407,-2.577 5.926,-1.046 12.057,-1.61 18.034,-1.61" /><path
   style="opacity:1;fill:none;stroke:#000000;stroke-width:2;stroke-linecap:round;stroke-linejoin:round;stroke-miterlimit:4;stroke-dasharray:none"
   inkscape:connector-curvature="0"
   id="path38"
   d="m 36.885548,66.01502 c -2.1776,1.0889 -0.9272,0.2979 -3.2704,4.724 -2.6671,5.0378 -6.1774,10.7994 -6.1774,16.7155" /><path
   style="opacity:1;fill:none;stroke:#000000;stroke-width:2;stroke-linecap:round;stroke-linejoin:round;stroke-miterlimit:4;stroke-dasharray:none"
   inkscape:connector-curvature="0"
   id="path40"
   d="m 63.048948,87.09112 c -5.6065,3.7377 -11.2647,17.3345 -11.2647,23.6201" /><path
   style="opacity:1;fill:none;stroke:#000000;stroke-width:2;stroke-linecap:round;stroke-linejoin:round;stroke-miterlimit:4;stroke-dasharray:none"
   inkscape:connector-curvature="0"
   id="path42"
   d="m 100.84055,108.16722 c 0.2762,-0.8286 1.8083,-2.9785 1.4535,-2.1803 -3.327002,7.4853 -13.081702,17.4113 -13.081702,25.8003" /><path
   style="opacity:1;fill:none;stroke:#000000;stroke-width:2;stroke-linecap:round;stroke-linejoin:round;stroke-miterlimit:4;stroke-dasharray:none"
   inkscape:connector-curvature="0"
   id="path44"
   d="m 108.10835,20.59252 c 0,-1.74128 -7.6276,11.2541 -8.357902,13.4451" /><path
   style="opacity:1;fill:none;stroke:#000000;stroke-width:2;stroke-linecap:round;stroke-linejoin:round;stroke-miterlimit:4;stroke-dasharray:none"
   inkscape:connector-curvature="0"
   id="path46"
   d="m 134.99835,52.57002 c -3.259,1.0865 -4.289,5.2069 -5.451,7.9943" /><path
   style="opacity:1;fill:none;stroke:#000000;stroke-width:2;stroke-linecap:round;stroke-linejoin:round;stroke-miterlimit:4;stroke-dasharray:none"
   inkscape:connector-curvature="0"
   id="path48"
   d="m 168.06635,20.95592 c -2.312,0 -6.516,8.2398 -7.995,10.9014" /><path
   style="opacity:1;fill:none;stroke:#000000;stroke-width:2;stroke-linecap:round;stroke-linejoin:round;stroke-miterlimit:4;stroke-dasharray:none"
   inkscape:connector-curvature="0"
   id="path50"
   d="m 165.15935,51.47982 c -1.278,-2.5544 -6.085,6.3966 -6.178,6.5409 -2.566,3.9825 -5.072,8.0042 -7.631,11.9915 -11.97,18.6506 -28.122,36.3798 -37.791,56.324 -0.723,1.49 -6.7411,15.262 -3.634,15.262" /><path
   style="opacity:1;fill:none;stroke:#000000;stroke-width:2;stroke-linecap:round;stroke-linejoin:round;stroke-miterlimit:4;stroke-dasharray:none"
   inkscape:connector-curvature="0"
   id="path52"
   d="m 200.04335,48.93622 c -5.21,6.9462 -8.705,14.937 -13.445,22.1662 -8.382,12.7824 -16.981,25.421 -25.437,38.1549 -6.668,10.0429 -12.563,20.0279 -17.805,30.8869 -2.907,6.021 -5.451,10.745 -5.451,17.443" /><path
   style="opacity:1;fill:none;stroke:#000000;stroke-width:2;stroke-linecap:round;stroke-linejoin:round;stroke-miterlimit:4;stroke-dasharray:none"
   inkscape:connector-curvature="0"
   id="path54"
   d="m 202.58735,16.23193 c -3.191,1.06367 -5.455,6.18639 -6.904,9.08449" /><path
   style="opacity:1;fill:none;stroke:#000000;stroke-width:2;stroke-linecap:round;stroke-linejoin:round;stroke-miterlimit:4;stroke-dasharray:none"
   inkscape:connector-curvature="0"
   id="path56"
   d="m 239.28835,50.38972 c -3.614,0 -5.866,4.6303 -7.631,7.2676 -9.809,14.6576 -19.65,29.294 -29.434,43.969 -13.876,20.8149 -33.043,45.7129 -41.062,69.7689" /><path
   style="opacity:1;fill:none;stroke:#000000;stroke-width:2;stroke-linecap:round;stroke-linejoin:round;stroke-miterlimit:4;stroke-dasharray:none"
   inkscape:connector-curvature="0"
   id="path58"
   d="m 271.99235,45.30242 c 0,-0.2157 -7.879,10.3607 -10.174,13.445 -10.57,14.2034 -22.327,27.6294 -33.431,41.4254 -24.41,30.3274 -40.68,58.9974 -58.504,93.0254 -6.243,11.917 -14.278,23.884 -19.26,36.338" /><path
   style="opacity:1;fill:none;stroke:#000000;stroke-width:2;stroke-linecap:round;stroke-linejoin:round;stroke-miterlimit:4;stroke-dasharray:none"
   inkscape:connector-curvature="0"
   id="path60"
   d="m 143.35635,205.19022 c 0.291,-0.876 1.532,-3.354 1.09,-2.544 -5.57,10.212 1.087,-1.57 -7.268,12.355 -4.69,7.818 -11.628,15.138 -11.628,24.71" /><path
   style="opacity:1;fill:none;stroke:#000000;stroke-width:2;stroke-linecap:round;stroke-linejoin:round;stroke-miterlimit:4;stroke-dasharray:none"
   inkscape:connector-curvature="0"
   id="path62"
   d="m 115.37535,226.62922 c 0,-0.606 -1.132,-1.604 -1.453,-1.09 -3.382,5.411 -8.6652,15.122 -11.6283,22.53" /><path
   style="opacity:1;fill:none;stroke:#000000;stroke-width:2;stroke-linecap:round;stroke-linejoin:round;stroke-miterlimit:4;stroke-dasharray:none"
   inkscape:connector-curvature="0"
   id="path64"
   d="m 89.939148,235.35022 c 0,-2.721 -0.8736,-1.317 -5.0873,5.814 -2.0291,3.434 -5.8141,7.859 -5.8141,11.992" /><path
   style="opacity:1;fill:none;stroke:#000000;stroke-width:2;stroke-linecap:round;stroke-linejoin:round;stroke-miterlimit:4;stroke-dasharray:none"
   inkscape:connector-curvature="0"
   id="path66"
   d="m 66.319448,234.26022 c -3.4764,3.476 -6.9772,11.247 -9.0845,15.989" /><path
   style="opacity:1;fill:none;stroke:#000000;stroke-width:2;stroke-linecap:round;stroke-linejoin:round;stroke-miterlimit:4;stroke-dasharray:none"
   inkscape:connector-curvature="0"
   id="path68"
   d="m 44.153248,234.62322 c 0,-0.484 0.2816,-1.847 0,-1.453 -2.5752,3.605 -7.631,11.102 -7.631,15.625" /><path
   style="opacity:1;fill:none;stroke:#000000;stroke-width:2;stroke-linecap:round;stroke-linejoin:round;stroke-miterlimit:4;stroke-dasharray:none"
   inkscape:connector-curvature="0"
   id="path70"
   d="m 21.986948,231.71622 c 0,-2.869 0.1084,-1.158 -2.907,5.088 -2.47052,5.117 -1.83357,3.337 -2.90704,7.631" /><path
   style="opacity:1;fill:none;stroke:#000000;stroke-width:2;stroke-linecap:round;stroke-linejoin:round;stroke-miterlimit:4;stroke-dasharray:none"
   inkscape:connector-curvature="0"
   id="path72"
   d="m 242.55935,15.50517 c 3.163,-6.326538 -5.012,7.47925 -6.178,9.81125" /><path
   style="opacity:1;fill:none;stroke:#000000;stroke-width:2;stroke-linecap:round;stroke-linejoin:round;stroke-miterlimit:4;stroke-dasharray:none"
   inkscape:connector-curvature="0"
   id="path74"
   d="m 277.80735,18.77559 c -4.534,4.53373 -7.372,9.42903 -10.538,14.89863" /><path
   style="opacity:1;fill:none;stroke:#000000;stroke-width:2;stroke-linecap:round;stroke-linejoin:round;stroke-miterlimit:4;stroke-dasharray:none"
   inkscape:connector-curvature="0"
   id="path76"
   d="m 297.06635,49.29952 c -8.682,8.6818 -15.212,19.8523 -22.53,29.7972 -12.182,16.555 -24.28,33.2535 -35.975,50.1465 -6.732,9.724 -13.241,19.578 -18.532,30.161 -1.683,3.365 -3.295,6.889 -5.087,10.174 -0.063,0.115 -3.938,5.058 -1.817,3.997" /><path
   style="opacity:1;fill:none;stroke:#000000;stroke-width:2;stroke-linecap:round;stroke-linejoin:round;stroke-miterlimit:4;stroke-dasharray:none"
   inkscape:connector-curvature="0"
   id="path78"
   d="m 299.60935,89.27142 c -5.338,5.338 -9.723,13.3674 -13.808,19.2592 -9.001,12.9826 -18.521,25.6056 -26.527,39.2446 -2.841,4.841 -9.811,14.142 -9.811,20.35" /><path
   style="opacity:1;fill:none;stroke:#000000;stroke-width:2;stroke-linecap:round;stroke-linejoin:round;stroke-miterlimit:4;stroke-dasharray:none"
   inkscape:connector-curvature="0"
   id="path80"
   d="m 315.96235,115.43522 c 3.349,-10.0476 -7.266,9.808 -7.268,9.811 -9.713,13.491 -21.114,26.054 -30.161,39.972 -2.718,4.182 -5.036,8.62 -7.267,13.081 -0.708,1.415 -2.926,4.724 -0.364,4.724" /><path
   style="opacity:1;fill:none;stroke:#000000;stroke-width:2;stroke-linecap:round;stroke-linejoin:round;stroke-miterlimit:4;stroke-dasharray:none"
   inkscape:connector-curvature="0"
   id="path82"
   d="m 245.10235,281.13622 c 1.761,-5.281 7.537,-13.023 10.538,-17.806 7.273,-11.59 14.758,-23.018 22.167,-34.521 15.359,-23.848 29.086,-48.197 47.239,-70.132 6.732,-8.134 13.626,-17.578 22.166,-23.983" /><path
   style="opacity:1;fill:none;stroke:#000000;stroke-width:2;stroke-linecap:round;stroke-linejoin:round;stroke-miterlimit:4;stroke-dasharray:none"
   inkscape:connector-curvature="0"
   id="path84"
   d="m 374.46635,148.50222 c -8.976,6.412 -19.161,23.843 -25.073,31.614 -17.38,22.842 -38.756,43.004 -53.781,67.589 -4.463,7.303 -8.884,14.705 -13.082,22.166 -0.739,1.315 -3.74,5.579 -1.816,6.541" /><path
   style="opacity:1;fill:none;stroke:#000000;stroke-width:2;stroke-linecap:round;stroke-linejoin:round;stroke-miterlimit:4;stroke-dasharray:none"
   inkscape:connector-curvature="0"
   id="path86"
   d="m 396.26935,205.19022 c -7.436,8.675 -13.916,18.455 -20.713,27.617 -3.605,4.859 -10.279,12.199 -13.082,17.805" /><path
   style="opacity:1;fill:none;stroke:#000000;stroke-width:2;stroke-linecap:round;stroke-linejoin:round;stroke-miterlimit:4;stroke-dasharray:none"
   inkscape:connector-curvature="0"
   id="path88"
   d="m 231.65735,258.60722 c -6.796,3.398 -11.19,12.569 -14.535,19.259" /><path
   style="opacity:1;fill:none;stroke:#000000;stroke-width:2;stroke-linecap:round;stroke-linejoin:round;stroke-miterlimit:4;stroke-dasharray:none"
   inkscape:connector-curvature="0"
   id="path90"
   d="m 203.67735,265.14722 c -5.136,5.137 -10.349,12.603 -12.355,19.623" /><path
   style="opacity:1;fill:none;stroke:#000000;stroke-width:2;stroke-linecap:round;stroke-linejoin:round;stroke-miterlimit:4;stroke-dasharray:none"
   inkscape:connector-curvature="0"
   id="path92"
   d="m 180.42135,264.42122 c 0,-2.502 -3.135,2.338 -3.271,2.543 -2.846,4.322 -5.572,8.721 -8.358,13.082" /><path
   style="opacity:1;fill:none;stroke:#000000;stroke-width:2;stroke-linecap:round;stroke-linejoin:round;stroke-miterlimit:4;stroke-dasharray:none"
   inkscape:connector-curvature="0"
   id="path94"
   d="m 157.89135,265.14722 c -7.023,0 -10.426,13.584 -13.445,19.623" /><path
   style="opacity:1;fill:none;stroke:#000000;stroke-width:2;stroke-linecap:round;stroke-linejoin:round;stroke-miterlimit:4;stroke-dasharray:none"
   inkscape:connector-curvature="0"
   id="path96"
   d="m 126.27735,274.59522 c 0.533,-1.067 2.199,-4.202 1.453,-3.27 -4.336,5.42 -12.824,15.325 -14.535,22.166" /><path
   style="opacity:1;fill:none;stroke:#000000;stroke-width:2;stroke-linecap:round;stroke-linejoin:round;stroke-miterlimit:4;stroke-dasharray:none"
   inkscape:connector-curvature="0"
   id="path98"
   d="m 101.20395,280.77322 c -3.438402,3.438 -12.611502,19.708 -13.445102,24.71" /><path
   style="opacity:1;fill:none;stroke:#000000;stroke-width:2;stroke-linecap:round;stroke-linejoin:round;stroke-miterlimit:4;stroke-dasharray:none"
   inkscape:connector-curvature="0"
   id="path100"
   d="m 73.223648,296.39822 c 0,-3.304 0.1214,-1.831 -3.9972,6.178 -1.6242,3.158 -4.7239,9.653 -4.7239,13.445" /><path
   style="opacity:1;fill:none;stroke:#000000;stroke-width:2;stroke-linecap:round;stroke-linejoin:round;stroke-miterlimit:4;stroke-dasharray:none"
   inkscape:connector-curvature="0"
   id="path102"
   d="m 48.877148,315.29422 c 0,-5.291 -4.9728,7.058 -5.4507,9.448" /><path
   style="opacity:1;fill:none;stroke:#000000;stroke-width:2;stroke-linecap:round;stroke-linejoin:round;stroke-miterlimit:4;stroke-dasharray:none"
   inkscape:connector-curvature="0"
   id="path104"
   d="m 23.077148,334.91622 c 0,-0.736 0.3634,-2.917 0.3634,-2.18 0,4.207 -3.9509,8.606 -5.4507,12.355" /><path
   style="opacity:1;fill:none;stroke:#000000;stroke-width:2;stroke-linecap:round;stroke-linejoin:round;stroke-miterlimit:4;stroke-dasharray:none"
   inkscape:connector-curvature="0"
   id="path106"
   d="m 544.38235,180.72722 c 0,-47.874 38.056,-86.6829 85,-86.6829 46.945,0 85,38.8089 85,86.6829 0,47.874 -38.055,86.683 -85,86.683 -46.944,0 -85,-38.809 -85,-86.683 z" /><path
   style="opacity:1;fill:none;stroke:#000000;stroke-width:2;stroke-linecap:round;stroke-linejoin:round;stroke-miterlimit:4;stroke-dasharray:none"
   inkscape:connector-curvature="0"
   id="path108"
   d="m 696.57335,219.87022 c 6.309,1.971 12.869,2.22 19.318,3.622" /><path
   style="opacity:1;fill:none;stroke:#000000;stroke-width:2;stroke-linecap:round;stroke-linejoin:round;stroke-miterlimit:4;stroke-dasharray:none"
   inkscape:connector-curvature="0"
   id="path110"
   d="m 722.93435,215.04022 c -0.441,-0.882 -0.201,-0.552 -0.201,1.208 0,1.341 0.049,2.683 0,4.024 -0.085,2.35 -0.172,4.703 -0.402,7.043 -0.489,4.953 -1.41,8.863 -2.214,13.684 -0.112,0.673 -1.092,4.944 -0.201,5.835 0.855,0.856 5.413,-1.149 5.634,-1.207 7.56,-1.989 15.396,-1.811 23.142,-1.811" /><path
   style="opacity:1;fill:none;stroke:#000000;stroke-width:2;stroke-linecap:round;stroke-linejoin:round;stroke-miterlimit:4;stroke-dasharray:none"
   inkscape:connector-curvature="0"
   id="path112"
   d="m 723.33735,214.83922 c -1.129,0 -1.169,0.032 2.012,-0.604 0.788,-0.157 7.036,-1.164 7.647,-1.207 6.767,-0.484 13.38,0.201 20.123,0.201" /><path
   style="opacity:1;fill:none;stroke:#000000;stroke-width:2;stroke-linecap:round;stroke-linejoin:round;stroke-miterlimit:4;stroke-dasharray:none"
   inkscape:connector-curvature="0"
   id="path114"
   d="m 728.56935,216.04622 c 0,7.079 -0.989,16.082 -1.61,22.739 -0.186,1.996 -1.608,4.835 -0.805,6.842 0.175,0.437 0.905,0.501 0.604,-0.403" /><path
   style="opacity:1;fill:none;stroke:#000000;stroke-width:2;stroke-linecap:round;stroke-linejoin:round;stroke-miterlimit:4;stroke-dasharray:none"
   inkscape:connector-curvature="0"
   id="path116"
   d="m 721.92835,232.34622 c 0.926,-0.926 3.218,-1.026 4.427,-1.208 5.726,-0.858 12.111,-2.438 17.91,-1.609" /><path
   style="opacity:1;fill:none;stroke:#000000;stroke-width:2;stroke-linecap:round;stroke-linejoin:round;stroke-miterlimit:4;stroke-dasharray:none"
   inkscape:connector-curvature="0"
   id="path118"
   d="m 430.90735,154.41122 c -3.639,1.212 7.568,-1.279 11.31,-2.121 11.705,-2.634 -18.299,2.912 18.732,-4.241 15.916,-3.075 31.647,-3.841 47.713,-5.302" /><path
   style="opacity:1;fill:none;stroke:#000000;stroke-width:2;stroke-linecap:round;stroke-linejoin:round;stroke-miterlimit:4;stroke-dasharray:none"
   inkscape:connector-curvature="0"
   id="path120"
   d="m 504.77435,136.03222 c -4.683,-2.341 12.256,1.049 11.31,3.888 -1.154,3.461 -7.437,6.376 -9.896,8.836" /><path
   style="opacity:1;fill:none;stroke:#000000;stroke-width:2;stroke-linecap:round;stroke-linejoin:round;stroke-miterlimit:4;stroke-dasharray:none"
   inkscape:connector-curvature="0"
   id="path122"
   d="m 460.94935,142.04022 c 0,0.472 0,1.885 0,1.414 0,-6.868 -0.924,-13.635 -1.414,-20.499 -0.086,-1.198 -1.439,-8.324 0.353,-8.836 3.019,-0.862 6.092,-3.832 9.19,-1.767" /><path
   style="opacity:1;fill:none;stroke:#000000;stroke-width:2;stroke-linecap:round;stroke-linejoin:round;stroke-miterlimit:4;stroke-dasharray:none"
   inkscape:connector-curvature="0"
   id="path124"
   d="m 454.94035,130.37722 c -3.135,1.568 10.309,-5.321 12.37,-6.008" /><path
   style="opacity:1;fill:none;stroke:#000000;stroke-width:2;stroke-linecap:round;stroke-linejoin:round;stroke-miterlimit:4;stroke-dasharray:none"
   inkscape:connector-curvature="0"
   id="path126"
   d="m 435.14835,162.53922 c 0,-5.802 0.238,7.677 0.353,8.836 0.095,0.945 0.275,1.881 0.354,2.828 0.059,0.714 -0.153,2.627 0.353,2.12 0.696,-0.696 0.429,-4.85 1.061,-6.008 1.744,-3.198 6.681,-2.269 6.008,1.767 -0.406,2.435 -7.422,9.622 -7.422,4.595" /><path
   style="opacity:1;fill:none;stroke:#000000;stroke-width:2;stroke-linecap:round;stroke-linejoin:round;stroke-miterlimit:4;stroke-dasharray:none"
   inkscape:connector-curvature="0"
   id="path128"
   d="m 447.51835,169.60822 v 1.414 3.888 0.706 0" /><path
   style="opacity:1;fill:none;stroke:#000000;stroke-width:2;stroke-linecap:round;stroke-linejoin:round;stroke-miterlimit:4;stroke-dasharray:none"
   inkscape:connector-curvature="0"
   id="path130"
   d="m 447.87235,163.24622 -0.354,0.707 v 0.707 l 0.707,-0.707 0.353,-1.06 v -0.707 l -0.706,0.353 -0.354,1.061 v 0" /><path
   style="opacity:1;fill:none;stroke:#000000;stroke-width:2;stroke-linecap:round;stroke-linejoin:round;stroke-miterlimit:4;stroke-dasharray:none"
   inkscape:connector-curvature="0"
   id="path132"
   d="m 453.52735,158.29822 c 0,-1.067 0.353,2.114 0.353,3.181 0,3.403 -0.386,6.287 -1.414,9.543 -0.404,1.281 -2.01,4.837 -1.06,3.888 0.601,-0.601 0.954,-1.406 1.414,-2.121 0.601,-0.935 0.981,-2.042 1.767,-2.827 4.807,-4.808 3.061,4.534 5.301,5.654" /><path
   style="opacity:1;fill:none;stroke:#000000;stroke-width:2;stroke-linecap:round;stroke-linejoin:round;stroke-miterlimit:4;stroke-dasharray:none"
   inkscape:connector-curvature="0"
   id="path134"
   d="m 468.37135,167.31122 c -3.194,-2.576 -6.899,3.282 -5.655,6.185 2.108,4.919 9.377,-3.184 5.655,-6.185 z" /><path
   style="opacity:1;fill:none;stroke:#000000;stroke-width:2;stroke-linecap:round;stroke-linejoin:round;stroke-miterlimit:4;stroke-dasharray:none"
   inkscape:connector-curvature="0"
   id="path136"
   d="m 476.50035,155.47122 c -0.849,2.545 -6.734,20.676 1.767,14.137 0.792,-0.609 1.413,-1.414 2.12,-2.121" /><path
   style="opacity:1;fill:none;stroke:#000000;stroke-width:2;stroke-linecap:round;stroke-linejoin:round;stroke-miterlimit:4;stroke-dasharray:none"
   inkscape:connector-curvature="0"
   id="path138"
   d="m 487.63335,161.83322 c -2.782,0 -7.168,7.595 -4.065,8.482 3.6,1.028 8.236,-8.482 4.065,-8.482 z" /><path
   style="opacity:1;fill:none;stroke:#000000;stroke-width:2;stroke-linecap:round;stroke-linejoin:round;stroke-miterlimit:4;stroke-dasharray:none"
   inkscape:connector-curvature="0"
   id="path140"
   d="m 493.81835,160.41922 c -0.73,1.459 -0.496,0.796 -0.707,3.534 -0.064,0.831 -0.943,3.063 -0.354,2.474 0.653,-0.652 3.282,-6.64 4.595,-5.655 1.229,0.922 -1.811,5.081 -0.353,4.595 1.854,-0.618 7.515,-10.833 6.715,-2.828 -0.446,4.459 -0.354,-0.582 -0.354,3.181" /><path
   style="opacity:1;fill:none;stroke:#000000;stroke-width:2;stroke-linecap:round;stroke-linejoin:round;stroke-miterlimit:4;stroke-dasharray:none"
   inkscape:connector-curvature="0"
   id="path142"
   d="m 509.01535,166.07422 c -0.235,0 -0.471,0 -0.707,0" /><path
   style="opacity:1;fill:none;stroke:#000000;stroke-width:2;stroke-linecap:round;stroke-linejoin:round;stroke-miterlimit:4;stroke-dasharray:none"
   inkscape:connector-curvature="0"
   id="path144"
   d="m 428.07935,241.35522 c 23.509,2.137 48.401,-0.41 71.04,-7.069 6.747,-1.984 13.968,-6.398 20.853,-7.775" /><path
   style="opacity:1;fill:none;stroke:#000000;stroke-width:2;stroke-linecap:round;stroke-linejoin:round;stroke-miterlimit:4;stroke-dasharray:none"
   inkscape:connector-curvature="0"
   id="path146"
   d="m 437.62235,253.01822 c -2.97,-0.848 -5.689,-1.525 -8.482,-3.181 -1.364,-0.808 -2.382,-2.092 -3.535,-3.181 -1.02,-0.964 -6.318,-4.176 -7.068,-5.301 -0.419,-0.628 1.058,-1.156 1.767,-1.414 3.427,-1.246 6.349,-1.892 9.543,-3.888 3.752,-2.345 7.389,-5.644 11.663,-7.068" /><path
   style="opacity:1;fill:none;stroke:#000000;stroke-width:2;stroke-linecap:round;stroke-linejoin:round;stroke-miterlimit:4;stroke-dasharray:none"
   inkscape:connector-curvature="0"
   id="path148"
   d="m 465.19035,278.11222 c -1.113,-5.565 -0.89,-12.581 -1.061,-18.379 -0.031,-1.057 -0.778,-9.045 0.354,-11.31 2.11,-4.221 8.718,0.236 10.603,2.121" /><path
   style="opacity:1;fill:none;stroke:#000000;stroke-width:2;stroke-linecap:round;stroke-linejoin:round;stroke-miterlimit:4;stroke-dasharray:none"
   inkscape:connector-curvature="0"
   id="path150"
   d="m 458.12135,264.32822 c 3.956,0 9.073,-0.295 12.724,-2.121" /><path
   style="opacity:1;fill:none;stroke:#000000;stroke-width:2;stroke-linecap:round;stroke-linejoin:round;stroke-miterlimit:4;stroke-dasharray:none"
   inkscape:connector-curvature="0"
   id="path152"
   d="m 480.74135,248.07022 0.353,-0.707 2.474,-0.707 h 1.414 v 0" /><path
   style="opacity:1;fill:none;stroke:#000000;stroke-width:2;stroke-linecap:round;stroke-linejoin:round;stroke-miterlimit:4;stroke-dasharray:none"
   inkscape:connector-curvature="0"
   id="path154"
   d="m 489.57735,246.30322 c 2.673,-1.337 3.885,-4.452 6.008,-6.362 0.533,-0.479 0.353,1.404 0.353,2.121 0,0.942 0,1.885 0,2.827 0,2.322 -0.706,4.414 -0.706,6.715" /><path
   style="opacity:1;fill:none;stroke:#000000;stroke-width:2;stroke-linecap:round;stroke-linejoin:round;stroke-miterlimit:4;stroke-dasharray:none"
   inkscape:connector-curvature="0"
   id="path156"
   d="m 320.26135,273.89922 c 0,-4.513 4.165,-10.309 6.386,-13.78 5.606,-8.759 12.472,-17.514 19.83,-24.871" /><path
   style="opacity:1;fill:none;stroke:#000000;stroke-width:2;stroke-linecap:round;stroke-linejoin:round;stroke-miterlimit:4;stroke-dasharray:none"
   inkscape:connector-curvature="0"
   id="path158"
   d="m 374.70935,191.89122 c -0.776,-3.881 -0.695,-1.172 4.033,-6.722 2.679,-3.145 5.499,-6.173 8.066,-9.41 2.299,-2.899 4.212,-7.988 7.731,-9.747" /><path
   style="opacity:1;fill:none;stroke:#000000;stroke-width:2;stroke-linecap:round;stroke-linejoin:round;stroke-miterlimit:4;stroke-dasharray:none"
   inkscape:connector-curvature="0"
   id="path160"
   d="m 367.56435,203.42722 c -10.13,-6.753 -18.037,2.39 -21.986,11.604 -1.395,3.254 -2.998,7.628 -1.018,10.993 3.255,5.535 10.442,4.322 15.268,2.036 1.621,-0.767 5.068,-3.782 4.072,-6.107 -0.676,-1.578 -3.265,-1.832 -4.683,-1.832 -0.884,0 -3.531,-0.204 -2.646,-0.204 1.778,0 3.164,-0.322 4.886,-0.814 0.807,-0.231 2.239,-1.425 2.443,-0.611 0.94,3.76 -3.006,9.083 2.036,11.604" /><path
   style="opacity:1;fill:none;stroke:#d00000;stroke-width:2;stroke-linecap:round;stroke-linejoin:round;stroke-miterlimit:4;stroke-dasharray:none"
   inkscape:connector-curvature="0"
   id="path162"
   d="m 317.16735,158.37522 c -3.689,3.049 -7.745,-1.517 -9.703,-4.454 -2.425,-3.637 0.369,-9.311 0,-13.36 -0.353,-3.886 -3.417,-6.917 -6.044,-9.544 -2.574,-2.574 -6.166,-3.291 -9.543,-4.135 -9.425,-2.357 -25.633,-4.153 -30.221,7.316 -4.551,11.378 10.525,11.484 15.27,17.178 7.218,8.662 2.669,20.231 13.36,27.358 2.225,1.483 5.057,1.654 7.635,2.227 2.329,0.517 5.227,1.118 7.635,0.636 6.92,-1.384 15.925,-7.436 17.178,-14.951 0.417,-2.504 -1.441,-11.682 -5.567,-8.271 z" /><path
   style="opacity:1;fill:none;stroke:#d00000;stroke-width:2;stroke-linecap:round;stroke-linejoin:round;stroke-miterlimit:4;stroke-dasharray:none"
   inkscape:connector-curvature="0"
   id="path166"
   d="m 163.67835,12.04328 c -2.267,1.13339 0.069,10.60244 0.318,12.40634 1.876,13.6045 5.757,28.826 11.452,41.3547 4.863,10.6983 10.262,21.8485 19.405,29.5844 12.511,10.5863 31.315,13.2952 46.762,16.8595 8.9,2.054 17.569,6.95 25.449,11.453 2.85,1.628 6.092,2.057 8.907,3.817 5.506,3.441 12.232,7.286 15.27,13.361 0.717,1.434 2.74379,12.06244 3.16079,12.06244"
   sodipodi:nodetypes="ccccccccc" /><path
   style="opacity:1;fill:none;stroke:#d00000;stroke-width:2;stroke-linecap:round;stroke-linejoin:round;stroke-miterlimit:4;stroke-dasharray:none"
   inkscape:connector-curvature="0"
   id="path168"
   d="m 109.59835,16.17874 c 7.52,15.03958 16.972,28.89408 25.131,43.58138 10.854,19.5363 19.665,38.4965 37.22,53.1251 4.665,3.888 10.323,4.749 15.269,7.634 7.483,4.365 14.124,6.261 22.586,7.953 13.469,2.694 25.754,9.807 39.446,12.089 8.3884,1.95353 22.18732,-3.41784 28.63,2.544 3.17176,3.40002 13.32775,10.73355 16.52179,9.83644"
   sodipodi:nodetypes="cccccccc" /><path
   style="opacity:1;fill:none;stroke:#d00000;stroke-width:2;stroke-linecap:round;stroke-linejoin:round;stroke-miterlimit:4;stroke-dasharray:none"
   inkscape:connector-curvature="0"
   id="path170"
   d="m 294.40214,152.94166 c 2.708,-1.354 5.81521,2.00356 7.65521,3.84256 6.05,6.051 9.696,12.737 13.36,20.678 6.99,15.143 9.169,34.423 10.816,50.898 0.607,6.064 2.831,11.8 3.499,17.814 0.633,5.695 2.149,14.821 5.09,19.723 0.9,1.5 1.29,4.303 2.863,5.09"
   sodipodi:nodetypes="ccccccc" /><path
   style="opacity:1;fill:none;stroke:#d00000;stroke-width:2;stroke-linecap:round;stroke-linejoin:round;stroke-miterlimit:4;stroke-dasharray:none"
   inkscape:connector-curvature="0"
   id="path172"
   d="m 611.67035,179.84322 c 0,-10.575 9.095,-19.148 20.314,-19.148 11.219,0 20.314,8.573 20.314,19.148 0,10.575 -9.095,19.148 -20.314,19.148 -11.219,0 -20.314,-8.573 -20.314,-19.148 z" /><path
   style="opacity:1;fill:none;stroke:#d00000;stroke-width:2;stroke-linecap:round;stroke-linejoin:round;stroke-miterlimit:4;stroke-dasharray:none"
   inkscape:connector-curvature="0"
   id="path174"
   d="m 631.73835,180.75822 c -0.772,-4.487 -3.926,3.05 -1.535,3.947 2.461,0.923 2.794,-5.039 2.193,-6.14 -0.895,-1.641 -3.089,2.461 -1.974,3.947 0.916,1.221 2.116,-1.69 1.755,-2.412 -0.808,-1.616 0.433,5.727 -0.439,0.658 z" /><path
   style="opacity:1;fill:none;stroke:#d00000;stroke-width:2;stroke-linecap:round;stroke-linejoin:round;stroke-miterlimit:4;stroke-dasharray:none"
   inkscape:connector-curvature="0"
   id="path176"
   d="m 654.98875,181.00901 c -4.03583,-1.00927 -6.08612,2.50479 -6.95956,6.12422 -1.49932,6.20927 -2.22676,18.70399 7.51689,17.81785 9.05429,-0.82265 9.31835,-13.01395 6.40224,-19.20926 -0.27295,-0.58271 -4.95752,-6.53173 -5.56689,-6.12548 -0.55732,0.37197 1.01055,1.23017 1.66943,1.11338 3.38711,-0.59668 6.96845,-2.92627 10.02294,-4.45351" /><path
   style="opacity:1;fill:none;stroke:#d00000;stroke-width:2;stroke-linecap:round;stroke-linejoin:round;stroke-miterlimit:4;stroke-dasharray:none"
   inkscape:connector-curvature="0"
   id="path178"
   d="m 628.22935,97.20702 c 0,11.5378 1.826,23.8492 0.658,35.5252 -1.59,15.905 -7.555,33.732 1.974,48.026" /><path
   style="opacity:1;fill:none;stroke:#d00000;stroke-width:2;stroke-linecap:round;stroke-linejoin:round;stroke-miterlimit:4;stroke-dasharray:none"
   inkscape:connector-curvature="0"
   id="path180"
   d="m 561.78335,131.63622 c -1.662,1.663 2.947,2.431 4.605,3.509 6.377,4.144 13.242,6.954 19.079,12.061 8.323,7.282 13.563,17.511 21.272,25.219 5.444,5.444 17.904,10.526 25.657,10.526" /><path
   style="opacity:1;fill:none;stroke:#d00000;stroke-width:2;stroke-linecap:round;stroke-linejoin:round;stroke-miterlimit:4;stroke-dasharray:none"
   inkscape:connector-curvature="0"
   id="path182"
   d="m 631.95735,184.48622 c 2.725,3.405 3.691,8.002 5.044,12.061 5.276,15.829 5.038,32.693 10.088,48.683 1.464,4.638 2.555,9.373 4.605,13.816 0.677,1.466 1.641,4.569 3.508,3.947" /><path
   style="opacity:1;fill:none;stroke:#d00000;stroke-width:2;stroke-linecap:round;stroke-linejoin:round;stroke-miterlimit:4;stroke-dasharray:none"
   inkscape:connector-curvature="0"
   id="path184"
   d="m 614.24735,182.45422 c 3.71,-6.89 9.227,-13.051 15.732,-17.389" /><path
   style="opacity:1;fill:none;stroke:#d00000;stroke-width:2;stroke-linecap:round;stroke-linejoin:round;stroke-miterlimit:4;stroke-dasharray:none"
   inkscape:connector-curvature="0"
   id="path186"
   d="m 621.69935,193.01222 c -0.823,-1.646 -0.583,-0.893 1.656,-4.347 4.703,-7.256 10.771,-13.53 17.389,-19.045" /><path
   style="opacity:1;fill:none;stroke:#d00000;stroke-width:2;stroke-linecap:round;stroke-linejoin:round;stroke-miterlimit:4;stroke-dasharray:none"
   inkscape:connector-curvature="0"
   id="path188"
   d="m 632.67135,196.94522 c -1.464,0.732 1.295,-3.038 2.277,-4.347 1.177,-1.569 2.478,-3.041 3.726,-4.554 3.227,-3.912 6.145,-8.215 9.73,-11.8" /><path
   style="opacity:1;fill:none;stroke:#d00000;stroke-width:2;stroke-linecap:round;stroke-linejoin:round;stroke-miterlimit:4;stroke-dasharray:none"
   inkscape:connector-curvature="0"
   id="path190"
   d="m 265.39235,141.95622 c 4.993,-5.617 10.646,-13.027 17.95,-15.462" /><path
   style="opacity:1;fill:none;stroke:#d00000;stroke-width:2;stroke-linecap:round;stroke-linejoin:round;stroke-miterlimit:4;stroke-dasharray:none"
   inkscape:connector-curvature="0"
   id="path192"
   d="m 279.07635,146.93222 c -1.668,0.834 -2.28,1.645 2.489,-2.488 1.587,-1.376 3.252,-2.665 4.798,-4.088 3.143,-2.891 5.888,-6.483 9.597,-8.708" /><path
   style="opacity:1;fill:none;stroke:#d00000;stroke-width:2;stroke-linecap:round;stroke-linejoin:round;stroke-miterlimit:4;stroke-dasharray:none"
   inkscape:connector-curvature="0"
   id="path194"
   d="m 289.20735,165.23722 c -4.694,1.565 11.247,-11.603 14.217,-14.573" /><path
   style="opacity:1;fill:none;stroke:#d00000;stroke-width:2;stroke-linecap:round;stroke-linejoin:round;stroke-miterlimit:4;stroke-dasharray:none"
   inkscape:connector-curvature="0"
   id="path196"
   d="m 297.38235,176.07822 c 5.268,-4.515 10.64,-8.884 15.817,-13.507" /><path
   style="opacity:1;fill:none;stroke:#2bd000;stroke-width:2;stroke-linecap:round;stroke-linejoin:round;stroke-miterlimit:4;stroke-dasharray:none"
   inkscape:connector-curvature="0"
   id="path198"
   d="m 230.97435,104.79062 c -6.631,0 8.225,-5.3813 10.665,-6.6655 8.131,-4.2799 17.168,-7.3688 25.995,-9.9982 25.942,-7.7274 52.863,-10.038 79.652,-12.6644 34.59,-3.3912 68.913,-4.1597 103.648,-3.3327 29.573,0.7041 59.97,3.593 88.318,12.6644 15.965,5.1089 30.159,12.9133 44.992,20.3297 4.335,2.1674 7.962,5.8143 12.331,7.9983" /><path
   style="opacity:1;fill:none;stroke:#2bd000;stroke-width:2;stroke-linecap:round;stroke-linejoin:round;stroke-miterlimit:4;stroke-dasharray:none"
   inkscape:connector-curvature="0"
   id="path200"
   d="m 588.90935,115.45522 c -5.562,-2.781 8.491,6.227 11.332,4.333 1.444,-0.963 0.696,-4.764 0.333,-5.999 -1.252,-4.2559 -2.999,-8.1117 -2.999,-12.6646" /><path
   style="opacity:1;fill:none;stroke:#2bd000;stroke-width:2;stroke-linecap:round;stroke-linejoin:round;stroke-miterlimit:4;stroke-dasharray:none"
   inkscape:connector-curvature="0"
   id="path202"
   d="m 453.43435,60.29862 c -5.029,-0.5134 -9.952,7.4986 -3.5,7.4986 3.978,0 9.751,-6.8604 3.5,-7.4986 z" /><path
   style="opacity:1;fill:none;stroke:#2bd000;stroke-width:2;stroke-linecap:round;stroke-linejoin:round;stroke-miterlimit:4;stroke-dasharray:none"
   inkscape:connector-curvature="0"
   id="path204"
   d="m 441.93635,35.13642 c 1.287,-5.1469 13.052,-7.223 15.664,-1.9996 2.405,4.8097 -6.255,10.945 -8.665,13.9975 -2.892,3.663 -4.858,6.6729 1.333,6.9987 1.22,0.0643 2.444,0 3.666,0 1.888,0 3.777,0 5.665,0" />
<circle
   style="opacity:1;fill:#000000;fill-opacity:1;stroke:none;stroke-width:2.31999993;stroke-linecap:round;stroke-linejoin:round;stroke-miterlimit:4;stroke-dasharray:none;stroke-dashoffset:0;stroke-opacity:1;paint-order:stroke markers fill"
   id="path1118"
   cx="212.83907"
   cy="113.11554"
   r="2.9165595" /><circle
   style="clip-rule:evenodd;opacity:1;fill:#d00000;fill-opacity:1;fill-rule:evenodd;stroke:none;stroke-width:2.31999993;stroke-linecap:round;stroke-linejoin:round;stroke-miterlimit:4;stroke-dasharray:none;stroke-dashoffset:0;stroke-opacity:1;paint-order:stroke markers fill"
   id="path1118-3"
   cx="294.40213"
   cy="152.94167"
   r="2.9165595" /></svg>