<?xml version="1.0" encoding="UTF-8" standalone="no"?>
<svg
   xmlns:dc="http://purl.org/dc/elements/1.1/"
   xmlns:cc="http://creativecommons.org/ns#"
   xmlns:rdf="http://www.w3.org/1999/02/22-rdf-syntax-ns#"
   xmlns:svg="http://www.w3.org/2000/svg"
   xmlns="http://www.w3.org/2000/svg"
   xmlns:sodipodi="http://sodipodi.sourceforge.net/DTD/sodipodi-0.dtd"
   xmlns:inkscape="http://www.inkscape.org/namespaces/inkscape"
   width="480.89948"
   height="149.11485"
   version="1.1"
   id="svg38"
   sodipodi:docname="A4-sin-durch-x.svg"
   inkscape:version="0.92.3 (2405546, 2018-03-11)">
  <metadata
     id="metadata44">
    <rdf:RDF>
      <cc:Work
         rdf:about="">
        <dc:format>image/svg+xml</dc:format>
        <dc:type
           rdf:resource="http://purl.org/dc/dcmitype/StillImage" />
        <dc:title></dc:title>
      </cc:Work>
    </rdf:RDF>
  </metadata>
  <defs
     id="defs42" />
  <sodipodi:namedview
     pagecolor="#ffffff"
     bordercolor="#666666"
     borderopacity="1"
     objecttolerance="10"
     gridtolerance="10"
     guidetolerance="10"
     inkscape:pageopacity="0"
     inkscape:pageshadow="2"
     inkscape:window-width="1600"
     inkscape:window-height="833"
     id="namedview40"
     showgrid="false"
     fit-margin-top="5"
     fit-margin-left="5"
     fit-margin-bottom="5"
     fit-margin-right="5"
     inkscape:zoom="1.7383042"
     inkscape:cx="271.99236"
     inkscape:cy="62.964324"
     inkscape:window-x="0"
     inkscape:window-y="0"
     inkscape:window-maximized="1"
     inkscape:current-layer="svg38"
     inkscape:object-paths="true"
     inkscape:snap-global="true" />
  <path
     style="fill:none;stroke:#000000;stroke-width:2;stroke-linecap:round;stroke-linejoin:round;stroke-miterlimit:4;stroke-dasharray:none;stroke-opacity:1"
     d="M 54.689714,113.72055 H 426.43752"
     id="path831"
     inkscape:connector-curvature="0" />
  <path
     style="fill:none;stroke:#000000;stroke-width:2;stroke-linecap:round;stroke-linejoin:round;stroke-miterlimit:4;stroke-dasharray:none;stroke-opacity:1"
     d="M 240.44973,6.0142425 V 143.10061"
     id="path844"
     inkscape:connector-curvature="0"
     sodipodi:nodetypes="cc" />
  <path
     style="fill:none;stroke:#000000;stroke-width:2;stroke-linecap:round;stroke-linejoin:round;stroke-miterlimit:4;stroke-dasharray:none;stroke-opacity:1"
     d="m 227.6694,25.356723 c 6.50847,-6.71186 10.50982,-19.1595415 12.78033,-19.3424805 2.27051,-0.182939 11.82983,13.4441805 11.01628,16.0882505"
     id="path4549"
     inkscape:connector-curvature="0" />
  <path
     style="fill:none;stroke:#000000;stroke-width:2;stroke-linecap:round;stroke-linejoin:round;stroke-miterlimit:4;stroke-dasharray:none;stroke-opacity:1"
     d="m 407.49127,100.97093 c 6.71186,6.50847 19.15954,10.50982 19.34248,12.78033 0.18294,2.27051 -13.44418,11.82983 -16.08825,11.01628"
     id="path4549-3"
     inkscape:connector-curvature="0" />
  <path
     style="fill:none;stroke:#000000;stroke-width:2;stroke-linecap:butt;stroke-linejoin:miter;stroke-miterlimit:4;stroke-dasharray:none;stroke-opacity:1"
     d="m 308.34144,26.906013 c -12.61017,0.20339 -13.42373,6.10169 -6.91526,8.74576 6.50848,2.64407 7.52543,4.0678 7.32204,6.50847 -0.20339,2.44068 -9.55933,6.50848 -12.61017,0.20339"
     id="path4566"
     inkscape:connector-curvature="0" />
  <path
     style="fill:none;stroke:#000000;stroke-width:2;stroke-linecap:butt;stroke-linejoin:miter;stroke-miterlimit:4;stroke-dasharray:none;stroke-opacity:1"
     d="m 316.47703,28.126353 c -0.61017,2.0339 -1.22034,16.88135 -1.01695,18.10169"
     id="path4568"
     inkscape:connector-curvature="0" />
  <path
     style="fill:none;stroke:#000000;stroke-width:2;stroke-linecap:butt;stroke-linejoin:miter;stroke-miterlimit:4;stroke-dasharray:none;stroke-opacity:1"
     d="m 317.90076,15.719573 c -1.62712,0 -5.49153,5.8983 -1.62712,5.8983 3.86441,0 3.25424,-5.8983 1.62712,-5.8983 z"
     id="path4570"
     inkscape:connector-curvature="0" />
  <path
     style="fill:none;stroke:#000000;stroke-width:2;stroke-linecap:butt;stroke-linejoin:miter;stroke-miterlimit:4;stroke-dasharray:none;stroke-opacity:1"
     d="m 322.78211,28.329743 c 0.81356,3.8644 2.23729,17.08474 0.61017,16.88135 -1.62712,-0.20339 2.23729,-18.10169 8.74577,-17.49152 6.50847,0.61017 3.8644,13.83051 4.27118,15.45762"
     id="path4572"
     inkscape:connector-curvature="0" />
  <path
     style="fill:none;stroke:#000000;stroke-width:2;stroke-linecap:butt;stroke-linejoin:miter;stroke-miterlimit:4;stroke-dasharray:none;stroke-opacity:1"
     d="m 348.20584,16.736523 c -5.8983,4.06779 -8.33898,20.33898 -2.84746,26.23728"
     id="path4576"
     inkscape:connector-curvature="0" />
  <path
     style="fill:none;stroke:#000000;stroke-width:2;stroke-linecap:butt;stroke-linejoin:miter;stroke-miterlimit:4;stroke-dasharray:none;stroke-opacity:1"
     d="m 349.42618,29.956863 c 3.25424,1.8305 10.98305,11.38983 10.98305,11.38983"
     id="path4578"
     inkscape:connector-curvature="0" />
  <path
     style="fill:none;stroke:#000000;stroke-width:2;stroke-linecap:butt;stroke-linejoin:miter;stroke-miterlimit:4;stroke-dasharray:none;stroke-opacity:1"
     d="m 349.22279,41.143303 c 1.01695,-2.23729 11.79661,-11.79661 11.79661,-11.79661"
     id="path4580"
     inkscape:connector-curvature="0" />
  <path
     style="fill:none;stroke:#000000;stroke-width:2;stroke-linecap:butt;stroke-linejoin:miter;stroke-miterlimit:4;stroke-dasharray:none;stroke-opacity:1"
     d="m 361.83296,15.516183 c 6.10169,4.88135 7.72881,21.15254 3.25424,26.0339"
     id="path4582"
     inkscape:connector-curvature="0" />
  <path
     style="fill:none;stroke:#000000;stroke-width:2;stroke-linecap:butt;stroke-linejoin:miter;stroke-miterlimit:4;stroke-dasharray:none;stroke-opacity:1"
     d="m 290.03635,50.295843 c 12.40678,-0.20339 65.08475,-5.89831 81.35593,-5.89831"
     id="path4584"
     inkscape:connector-curvature="0" />
  <path
     style="fill:none;stroke:#000000;stroke-width:2;stroke-linecap:butt;stroke-linejoin:miter;stroke-miterlimit:4;stroke-dasharray:none;stroke-opacity:1"
     d="m 319.32449,54.973803 c 5.28813,2.44068 17.08474,13.62712 18.30508,14.84746"
     id="path4586"
     inkscape:connector-curvature="0" />
  <path
     style="fill:none;stroke:#000000;stroke-width:2;stroke-linecap:butt;stroke-linejoin:miter;stroke-miterlimit:4;stroke-dasharray:none;stroke-opacity:1"
     d="m 321.76516,70.838213 c 1.42373,-3.86441 12.20339,-17.8983 14.64407,-18.30508"
     id="path4588"
     inkscape:connector-curvature="0" />
  <path
     id="path4591-6"
     style="fill:none;stroke:#0093ac;stroke-width:2;stroke-linecap:butt;stroke-linejoin:miter;stroke-miterlimit:4;stroke-dasharray:none;stroke-opacity:1"
     d="m 475.562,117.19639 c -15.24474,-5.4651 -20.4222,-9.49201 -32.50294,-9.49201 -12.08074,0 -33.94112,13.23128 -46.88477,13.23128 -12.94365,0 -17.4527,-5.02453 -22.02897,-7.46521 -4.57627,-2.44068 -13.01695,-9.45763 -22.27119,-9.66102 -9.25424,-0.20339 -16.67796,5.18644 -24.1017,11.79661 -7.42372,6.61017 -14.13559,15.25424 -23.08474,15.15254 -8.94915,-0.10169 -17.49153,-8.03389 -32.54237,-44.847447 -15.05085,-36.81356 -24.74711,-50.64407 -31.69559,-50.64407 M 5.3374615,117.19639 c 15.2447425,-5.4651 20.4222025,-9.49201 32.5029415,-9.49201 12.080739,0 33.941125,13.23128 46.884774,13.23128 12.943649,0 17.452693,-5.02453 22.028963,-7.46521 4.57627,-2.44068 13.01695,-9.45763 22.27119,-9.66102 9.25424,-0.20339 16.67797,5.18644 24.1017,11.79661 7.42372,6.61017 14.13559,15.25424 23.08474,15.15254 8.94915,-0.10169 17.49153,-8.03389 32.54237,-44.847447 15.05085,-36.81356 24.74711,-50.64407 31.69559,-50.64407"
     inkscape:connector-curvature="0" />
</svg>
