<?xml version="1.0" encoding="UTF-8" standalone="no"?>
<!-- Created with Inkscape (http://www.inkscape.org/) -->

<svg
   xmlns:dc="http://purl.org/dc/elements/1.1/"
   xmlns:cc="http://creativecommons.org/ns#"
   xmlns:rdf="http://www.w3.org/1999/02/22-rdf-syntax-ns#"
   xmlns:svg="http://www.w3.org/2000/svg"
   xmlns="http://www.w3.org/2000/svg"
   xmlns:sodipodi="http://sodipodi.sourceforge.net/DTD/sodipodi-0.dtd"
   xmlns:inkscape="http://www.inkscape.org/namespaces/inkscape"
   width="133.74725mm"
   height="39.534859mm"
   viewBox="0 0 133.74725 39.534859"
   version="1.1"
   id="svg8"
   inkscape:version="0.92.3 (2405546, 2018-03-11)"
   sodipodi:docname="bewkreiskettenkreuzung.svg">
  <defs
     id="defs2">
    <clipPath
       clipPathUnits="userSpaceOnUse"
       id="clipPath964">
      <rect
         style="opacity:1;fill:#fe00ff;fill-opacity:1;stroke:#6f00ff;stroke-width:0.40523973;stroke-linecap:round;stroke-linejoin:round;stroke-miterlimit:4;stroke-dasharray:none;stroke-dashoffset:0;stroke-opacity:1;paint-order:stroke markers fill"
         id="rect966"
         width="134.27605"
         height="40.598286"
         x="134.21239"
         y="78.436127" />
    </clipPath>
    <clipPath
       clipPathUnits="userSpaceOnUse"
       id="clipPath968">
      <rect
         style="opacity:1;fill:#fe00ff;fill-opacity:1;stroke:#6f00ff;stroke-width:0.40000001;stroke-linecap:round;stroke-linejoin:round;stroke-miterlimit:4;stroke-dasharray:none;stroke-dashoffset:0;stroke-opacity:1;paint-order:stroke markers fill"
         id="rect970"
         width="134.27605"
         height="39.555202"
         x="134.21239"
         y="85.537514" />
    </clipPath>
  </defs>
  <sodipodi:namedview
     id="base"
     pagecolor="#ffffff"
     bordercolor="#666666"
     borderopacity="1.0"
     inkscape:pageopacity="0.0"
     inkscape:pageshadow="2"
     inkscape:zoom="1"
     inkscape:cx="211.69138"
     inkscape:cy="59.521599"
     inkscape:document-units="mm"
     inkscape:current-layer="text964"
     showgrid="false"
     fit-margin-top="3"
     fit-margin-right="3"
     fit-margin-bottom="3"
     fit-margin-left="3"
     inkscape:window-width="1920"
     inkscape:window-height="1015"
     inkscape:window-x="0"
     inkscape:window-y="0"
     inkscape:window-maximized="1" />
  <metadata
     id="metadata5">
    <rdf:RDF>
      <cc:Work
         rdf:about="">
        <dc:format>image/svg+xml</dc:format>
        <dc:type
           rdf:resource="http://purl.org/dc/dcmitype/StillImage" />
        <dc:title />
      </cc:Work>
    </rdf:RDF>
  </metadata>
  <g
     inkscape:label="Layer 1"
     inkscape:groupmode="layer"
     id="layer1"
     style="opacity:1"
     transform="translate(-46.275477,-139.10469)">
    <g
       transform="translate(-88.069201,53.679115)"
       id="g2450"
       clip-path="url(#clipPath968)">
      <path
         sodipodi:nodetypes="cc"
         inkscape:connector-curvature="0"
         id="path888-5"
         d="M -136.09469,1.702951 H 675.53076"
         style="display:inline;fill:none;fill-opacity:1;stroke:#ebebeb;stroke-width:1;stroke-linecap:round;stroke-linejoin:round;stroke-miterlimit:4;stroke-dasharray:none;stroke-opacity:1" />
      <path
         sodipodi:nodetypes="cc"
         inkscape:connector-curvature="0"
         id="path888-3-9"
         d="M -135.06491,24.850458 H 676.56058"
         style="display:inline;fill:none;fill-opacity:1;stroke:#ebebeb;stroke-width:1;stroke-linecap:round;stroke-linejoin:round;stroke-miterlimit:4;stroke-dasharray:none;stroke-opacity:1" />
      <path
         sodipodi:nodetypes="cc"
         inkscape:connector-curvature="0"
         id="path888-3-1-2"
         d="m -134.03514,47.997965 h 811.6255"
         style="display:inline;fill:none;fill-opacity:1;stroke:#ebebeb;stroke-width:1;stroke-linecap:round;stroke-linejoin:round;stroke-miterlimit:4;stroke-dasharray:none;stroke-opacity:1" />
      <path
         sodipodi:nodetypes="cc"
         inkscape:connector-curvature="0"
         id="path888-2-2"
         d="M -138.15426,-44.592067 H 673.47119"
         style="display:inline;fill:none;fill-opacity:1;stroke:#ebebeb;stroke-width:1;stroke-linecap:round;stroke-linejoin:round;stroke-miterlimit:4;stroke-dasharray:none;stroke-opacity:1" />
      <path
         sodipodi:nodetypes="cc"
         inkscape:connector-curvature="0"
         id="path888-3-7-8"
         d="M -137.12448,-21.444556 H 674.50101"
         style="display:inline;fill:none;fill-opacity:1;stroke:#ebebeb;stroke-width:1;stroke-linecap:round;stroke-linejoin:round;stroke-miterlimit:4;stroke-dasharray:none;stroke-opacity:1" />
      <path
         sodipodi:nodetypes="cc"
         inkscape:connector-curvature="0"
         id="path888-9-9"
         d="M -131.97557,94.292972 H 679.64988"
         style="display:inline;fill:none;fill-opacity:1;stroke:#ebebeb;stroke-width:1;stroke-linecap:round;stroke-linejoin:round;stroke-miterlimit:4;stroke-dasharray:none;stroke-opacity:1" />
      <path
         sodipodi:nodetypes="cc"
         inkscape:connector-curvature="0"
         id="path888-3-3-7"
         d="M -130.94578,117.44048 H 680.67969"
         style="display:inline;fill:none;fill-opacity:1;stroke:#ebebeb;stroke-width:1;stroke-linecap:round;stroke-linejoin:round;stroke-miterlimit:4;stroke-dasharray:none;stroke-opacity:1" />
      <path
         sodipodi:nodetypes="cc"
         inkscape:connector-curvature="0"
         id="path888-3-1-6-36"
         d="M -129.91601,140.58799 H 681.70952"
         style="display:inline;fill:none;fill-opacity:1;stroke:#ebebeb;stroke-width:1;stroke-linecap:round;stroke-linejoin:round;stroke-miterlimit:4;stroke-dasharray:none;stroke-opacity:1" />
      <path
         sodipodi:nodetypes="cc"
         inkscape:connector-curvature="0"
         id="path888-3-7-6-1"
         d="M -133.00534,71.145472 H 678.62017"
         style="display:inline;fill:none;fill-opacity:1;stroke:#ebebeb;stroke-width:1;stroke-linecap:round;stroke-linejoin:round;stroke-miterlimit:4;stroke-dasharray:none;stroke-opacity:1" />
      <path
         sodipodi:nodetypes="cc"
         inkscape:connector-curvature="0"
         id="path888-26-2"
         d="M -127.85644,186.883 H 683.76904"
         style="display:inline;fill:none;fill-opacity:1;stroke:#ebebeb;stroke-width:1;stroke-linecap:round;stroke-linejoin:round;stroke-miterlimit:4;stroke-dasharray:none;stroke-opacity:1" />
      <path
         sodipodi:nodetypes="cc"
         inkscape:connector-curvature="0"
         id="path888-3-18-9"
         d="M -126.82666,210.03051 H 684.79888"
         style="display:inline;fill:none;fill-opacity:1;stroke:#ebebeb;stroke-width:1;stroke-linecap:round;stroke-linejoin:round;stroke-miterlimit:4;stroke-dasharray:none;stroke-opacity:1" />
      <path
         sodipodi:nodetypes="cc"
         inkscape:connector-curvature="0"
         id="path888-3-1-7-3"
         d="M -125.79688,233.178 H 685.82866"
         style="display:inline;fill:none;fill-opacity:1;stroke:#ebebeb;stroke-width:1;stroke-linecap:round;stroke-linejoin:round;stroke-miterlimit:4;stroke-dasharray:none;stroke-opacity:1" />
      <path
         sodipodi:nodetypes="cc"
         inkscape:connector-curvature="0"
         id="path888-3-7-2-1"
         d="M -128.88623,163.73549 H 682.73931"
         style="display:inline;fill:none;fill-opacity:1;stroke:#ebebeb;stroke-width:1;stroke-linecap:round;stroke-linejoin:round;stroke-miterlimit:4;stroke-dasharray:none;stroke-opacity:1" />
      <path
         sodipodi:nodetypes="cc"
         inkscape:connector-curvature="0"
         id="path888-9-0-9"
         d="M -123.73731,279.47302 H 687.88818"
         style="display:inline;fill:none;fill-opacity:1;stroke:#ebebeb;stroke-width:1;stroke-linecap:round;stroke-linejoin:round;stroke-miterlimit:4;stroke-dasharray:none;stroke-opacity:1" />
      <path
         sodipodi:nodetypes="cc"
         inkscape:connector-curvature="0"
         id="path888-3-3-2-4"
         d="M -122.70754,302.62055 H 688.918"
         style="display:inline;fill:none;fill-opacity:1;stroke:#ebebeb;stroke-width:1;stroke-linecap:round;stroke-linejoin:round;stroke-miterlimit:4;stroke-dasharray:none;stroke-opacity:1" />
      <path
         sodipodi:nodetypes="cc"
         inkscape:connector-curvature="0"
         id="path888-3-1-6-3-7"
         d="M -121.67774,325.76804 H 689.94778"
         style="display:inline;fill:none;fill-opacity:1;stroke:#ebebeb;stroke-width:1;stroke-linecap:round;stroke-linejoin:round;stroke-miterlimit:4;stroke-dasharray:none;stroke-opacity:1" />
      <path
         sodipodi:nodetypes="cc"
         inkscape:connector-curvature="0"
         id="path888-3-7-6-7-8"
         d="M -124.76709,256.32553 H 686.85843"
         style="display:inline;fill:none;fill-opacity:1;stroke:#ebebeb;stroke-width:1;stroke-linecap:round;stroke-linejoin:round;stroke-miterlimit:4;stroke-dasharray:none;stroke-opacity:1" />
    </g>
    <g
       id="g2354"
       transform="matrix(1,0,0,0.97430725,-88.069201,62.795745)"
       clip-path="url(#clipPath964)">
      <path
         sodipodi:nodetypes="cc"
         inkscape:connector-curvature="0"
         id="path888"
         d="M -41.839886,353.71825 V -85.647713"
         style="display:inline;fill:none;fill-opacity:1;stroke:#ebebeb;stroke-width:1;stroke-linecap:round;stroke-linejoin:round;stroke-miterlimit:4;stroke-dasharray:none;stroke-opacity:1" />
      <path
         sodipodi:nodetypes="cc"
         inkscape:connector-curvature="0"
         id="path888-3"
         d="M -18.692379,353.16079 V -86.205198"
         style="display:inline;fill:none;fill-opacity:1;stroke:#ebebeb;stroke-width:1;stroke-linecap:round;stroke-linejoin:round;stroke-miterlimit:4;stroke-dasharray:none;stroke-opacity:1" />
      <path
         sodipodi:nodetypes="cc"
         inkscape:connector-curvature="0"
         id="path888-3-1"
         d="M 4.455127,352.60333 V -86.762665"
         style="display:inline;fill:none;fill-opacity:1;stroke:#ebebeb;stroke-width:1;stroke-linecap:round;stroke-linejoin:round;stroke-miterlimit:4;stroke-dasharray:none;stroke-opacity:1" />
      <path
         sodipodi:nodetypes="cc"
         inkscape:connector-curvature="0"
         id="path888-2"
         d="M -88.1349,354.83318 V -84.532791"
         style="display:inline;fill:none;fill-opacity:1;stroke:#ebebeb;stroke-width:1;stroke-linecap:round;stroke-linejoin:round;stroke-miterlimit:4;stroke-dasharray:none;stroke-opacity:1" />
      <path
         sodipodi:nodetypes="cc"
         inkscape:connector-curvature="0"
         id="path888-3-7"
         d="M -64.987393,354.27572 V -85.090277"
         style="display:inline;fill:none;fill-opacity:1;stroke:#ebebeb;stroke-width:1;stroke-linecap:round;stroke-linejoin:round;stroke-miterlimit:4;stroke-dasharray:none;stroke-opacity:1" />
      <path
         sodipodi:nodetypes="cc"
         inkscape:connector-curvature="0"
         id="path888-9"
         d="M 50.750137,351.4884 V -87.877571"
         style="display:inline;fill:none;fill-opacity:1;stroke:#ebebeb;stroke-width:1;stroke-linecap:round;stroke-linejoin:round;stroke-miterlimit:4;stroke-dasharray:none;stroke-opacity:1" />
      <path
         sodipodi:nodetypes="cc"
         inkscape:connector-curvature="0"
         id="path888-3-3"
         d="M 73.897647,350.93094 V -88.435056"
         style="display:inline;fill:none;fill-opacity:1;stroke:#ebebeb;stroke-width:1;stroke-linecap:round;stroke-linejoin:round;stroke-miterlimit:4;stroke-dasharray:none;stroke-opacity:1" />
      <path
         sodipodi:nodetypes="cc"
         inkscape:connector-curvature="0"
         id="path888-3-1-6"
         d="M 97.045157,350.37348 V -88.992524"
         style="display:inline;fill:none;fill-opacity:1;stroke:#ebebeb;stroke-width:1;stroke-linecap:round;stroke-linejoin:round;stroke-miterlimit:4;stroke-dasharray:none;stroke-opacity:1" />
      <path
         sodipodi:nodetypes="cc"
         inkscape:connector-curvature="0"
         id="path888-3-7-6"
         d="M 27.602637,352.04586 V -87.320135"
         style="display:inline;fill:none;fill-opacity:1;stroke:#ebebeb;stroke-width:1;stroke-linecap:round;stroke-linejoin:round;stroke-miterlimit:4;stroke-dasharray:none;stroke-opacity:1" />
      <path
         sodipodi:nodetypes="cc"
         inkscape:connector-curvature="0"
         id="path888-26"
         d="M 143.34017,349.25855 V -90.107425"
         style="display:inline;fill:none;fill-opacity:1;stroke:#ebebeb;stroke-width:1;stroke-linecap:round;stroke-linejoin:round;stroke-miterlimit:4;stroke-dasharray:none;stroke-opacity:1" />
      <path
         sodipodi:nodetypes="cc"
         inkscape:connector-curvature="0"
         id="path888-3-18"
         d="M 166.48768,348.70109 V -90.664911"
         style="display:inline;fill:none;fill-opacity:1;stroke:#ebebeb;stroke-width:1;stroke-linecap:round;stroke-linejoin:round;stroke-miterlimit:4;stroke-dasharray:none;stroke-opacity:1" />
      <path
         sodipodi:nodetypes="cc"
         inkscape:connector-curvature="0"
         id="path888-3-1-7"
         d="M 189.63517,348.14362 V -91.222378"
         style="display:inline;fill:none;fill-opacity:1;stroke:#ebebeb;stroke-width:1;stroke-linecap:round;stroke-linejoin:round;stroke-miterlimit:4;stroke-dasharray:none;stroke-opacity:1" />
      <path
         sodipodi:nodetypes="cc"
         inkscape:connector-curvature="0"
         id="path888-3-7-2"
         d="M 120.19266,349.81601 V -89.549989"
         style="display:inline;fill:none;fill-opacity:1;stroke:#ebebeb;stroke-width:1;stroke-linecap:round;stroke-linejoin:round;stroke-miterlimit:4;stroke-dasharray:none;stroke-opacity:1" />
      <path
         sodipodi:nodetypes="cc"
         inkscape:connector-curvature="0"
         id="path888-9-0"
         d="M 235.93019,347.0287 V -92.337284"
         style="display:inline;fill:none;fill-opacity:1;stroke:#ebebeb;stroke-width:1;stroke-linecap:round;stroke-linejoin:round;stroke-miterlimit:4;stroke-dasharray:none;stroke-opacity:1" />
      <path
         sodipodi:nodetypes="cc"
         inkscape:connector-curvature="0"
         id="path888-3-3-2"
         d="M 259.07772,346.47123 V -92.894769"
         style="display:inline;fill:none;fill-opacity:1;stroke:#ebebeb;stroke-width:1;stroke-linecap:round;stroke-linejoin:round;stroke-miterlimit:4;stroke-dasharray:none;stroke-opacity:1" />
      <path
         sodipodi:nodetypes="cc"
         inkscape:connector-curvature="0"
         id="path888-3-1-6-3"
         d="M 282.22521,345.91377 V -93.452236"
         style="display:inline;fill:none;fill-opacity:1;stroke:#ebebeb;stroke-width:1;stroke-linecap:round;stroke-linejoin:round;stroke-miterlimit:4;stroke-dasharray:none;stroke-opacity:1" />
      <path
         sodipodi:nodetypes="cc"
         inkscape:connector-curvature="0"
         id="path888-3-7-6-7"
         d="M 212.7827,347.58616 V -91.779848"
         style="display:inline;fill:none;fill-opacity:1;stroke:#ebebeb;stroke-width:1;stroke-linecap:round;stroke-linejoin:round;stroke-miterlimit:4;stroke-dasharray:none;stroke-opacity:1" />
      <path
         sodipodi:nodetypes="cc"
         inkscape:connector-curvature="0"
         id="path888-93"
         d="M 328.52022,344.79885 V -94.56712"
         style="display:inline;fill:none;fill-opacity:1;stroke:#ebebeb;stroke-width:1;stroke-linecap:round;stroke-linejoin:round;stroke-miterlimit:4;stroke-dasharray:none;stroke-opacity:1" />
      <path
         sodipodi:nodetypes="cc"
         inkscape:connector-curvature="0"
         id="path888-3-74"
         d="M 351.66772,344.24138 V -95.124605"
         style="display:inline;fill:none;fill-opacity:1;stroke:#ebebeb;stroke-width:1;stroke-linecap:round;stroke-linejoin:round;stroke-miterlimit:4;stroke-dasharray:none;stroke-opacity:1" />
      <path
         sodipodi:nodetypes="cc"
         inkscape:connector-curvature="0"
         id="path888-3-1-5"
         d="M 374.81523,343.68392 V -95.682072"
         style="display:inline;fill:none;fill-opacity:1;stroke:#ebebeb;stroke-width:1;stroke-linecap:round;stroke-linejoin:round;stroke-miterlimit:4;stroke-dasharray:none;stroke-opacity:1" />
      <path
         sodipodi:nodetypes="cc"
         inkscape:connector-curvature="0"
         id="path888-3-7-4"
         d="M 305.37271,345.35631 V -94.009684"
         style="display:inline;fill:none;fill-opacity:1;stroke:#ebebeb;stroke-width:1;stroke-linecap:round;stroke-linejoin:round;stroke-miterlimit:4;stroke-dasharray:none;stroke-opacity:1" />
      <path
         sodipodi:nodetypes="cc"
         inkscape:connector-curvature="0"
         id="path888-9-7"
         d="M 421.11024,342.56899 V -96.796978"
         style="display:inline;fill:none;fill-opacity:1;stroke:#ebebeb;stroke-width:1;stroke-linecap:round;stroke-linejoin:round;stroke-miterlimit:4;stroke-dasharray:none;stroke-opacity:1" />
      <path
         sodipodi:nodetypes="cc"
         inkscape:connector-curvature="0"
         id="path888-3-3-4"
         d="M 444.25775,342.01153 V -97.354463"
         style="display:inline;fill:none;fill-opacity:1;stroke:#ebebeb;stroke-width:1;stroke-linecap:round;stroke-linejoin:round;stroke-miterlimit:4;stroke-dasharray:none;stroke-opacity:1" />
      <path
         sodipodi:nodetypes="cc"
         inkscape:connector-curvature="0"
         id="path888-3-1-6-4"
         d="M 467.40526,341.45407 V -97.911931"
         style="display:inline;fill:none;fill-opacity:1;stroke:#ebebeb;stroke-width:1;stroke-linecap:round;stroke-linejoin:round;stroke-miterlimit:4;stroke-dasharray:none;stroke-opacity:1" />
      <path
         sodipodi:nodetypes="cc"
         inkscape:connector-curvature="0"
         id="path888-3-7-6-3"
         d="M 397.96274,343.12646 V -96.239542"
         style="display:inline;fill:none;fill-opacity:1;stroke:#ebebeb;stroke-width:1;stroke-linecap:round;stroke-linejoin:round;stroke-miterlimit:4;stroke-dasharray:none;stroke-opacity:1" />
      <path
         sodipodi:nodetypes="cc"
         inkscape:connector-curvature="0"
         id="path888-26-0"
         d="M 513.70027,340.33914 V -99.026832"
         style="display:inline;fill:none;fill-opacity:1;stroke:#ebebeb;stroke-width:1;stroke-linecap:round;stroke-linejoin:round;stroke-miterlimit:4;stroke-dasharray:none;stroke-opacity:1" />
      <path
         sodipodi:nodetypes="cc"
         inkscape:connector-curvature="0"
         id="path888-3-18-7"
         d="M 536.84778,339.78168 V -99.584318"
         style="display:inline;fill:none;fill-opacity:1;stroke:#ebebeb;stroke-width:1;stroke-linecap:round;stroke-linejoin:round;stroke-miterlimit:4;stroke-dasharray:none;stroke-opacity:1" />
      <path
         sodipodi:nodetypes="cc"
         inkscape:connector-curvature="0"
         id="path888-3-1-7-8"
         d="m 559.99527,339.22422 v -439.366"
         style="display:inline;fill:none;fill-opacity:1;stroke:#ebebeb;stroke-width:1;stroke-linecap:round;stroke-linejoin:round;stroke-miterlimit:4;stroke-dasharray:none;stroke-opacity:1" />
      <path
         sodipodi:nodetypes="cc"
         inkscape:connector-curvature="0"
         id="path888-3-7-2-6"
         d="M 490.55276,340.89661 V -98.469396"
         style="display:inline;fill:none;fill-opacity:1;stroke:#ebebeb;stroke-width:1;stroke-linecap:round;stroke-linejoin:round;stroke-miterlimit:4;stroke-dasharray:none;stroke-opacity:1" />
      <path
         sodipodi:nodetypes="cc"
         inkscape:connector-curvature="0"
         id="path888-9-0-8"
         d="M 606.29029,338.10929 V -101.25669"
         style="display:inline;fill:none;fill-opacity:1;stroke:#ebebeb;stroke-width:1;stroke-linecap:round;stroke-linejoin:round;stroke-miterlimit:4;stroke-dasharray:none;stroke-opacity:1" />
      <path
         sodipodi:nodetypes="cc"
         inkscape:connector-curvature="0"
         id="path888-3-3-2-8"
         d="M 629.43782,337.55183 V -101.81418"
         style="display:inline;fill:none;fill-opacity:1;stroke:#ebebeb;stroke-width:1;stroke-linecap:round;stroke-linejoin:round;stroke-miterlimit:4;stroke-dasharray:none;stroke-opacity:1" />
      <path
         sodipodi:nodetypes="cc"
         inkscape:connector-curvature="0"
         id="path888-3-1-6-3-4"
         d="m 652.58531,336.99436 v -439.366"
         style="display:inline;fill:none;fill-opacity:1;stroke:#ebebeb;stroke-width:1;stroke-linecap:round;stroke-linejoin:round;stroke-miterlimit:4;stroke-dasharray:none;stroke-opacity:1" />
      <path
         sodipodi:nodetypes="cc"
         inkscape:connector-curvature="0"
         id="path888-3-7-6-7-3"
         d="m 583.1428,338.66675 v -439.366"
         style="display:inline;fill:none;fill-opacity:1;stroke:#ebebeb;stroke-width:1;stroke-linecap:round;stroke-linejoin:round;stroke-miterlimit:4;stroke-dasharray:none;stroke-opacity:1" />
    </g>
  </g>
  <g
     inkscape:groupmode="layer"
     id="layer2"
     inkscape:label="Layer 2"
     transform="translate(-46.275477,-139.10469)">
    <circle
       style="opacity:1;fill:none;fill-opacity:0.70588235;stroke:#00d290;stroke-width:0.40000001;stroke-linecap:round;stroke-linejoin:round;stroke-miterlimit:4;stroke-dasharray:none;stroke-dashoffset:0;stroke-opacity:1;paint-order:markers stroke fill"
       id="path897"
       cx="69.763649"
       cy="152.62343"
       r="8.4189901" />
    <circle
       style="opacity:1;fill:none;fill-opacity:0.70588235;stroke:#00d290;stroke-width:0.40000001;stroke-linecap:round;stroke-linejoin:round;stroke-miterlimit:4;stroke-dasharray:none;stroke-dashoffset:0;stroke-opacity:1;paint-order:markers stroke fill"
       id="path897-3"
       cx="78.764328"
       cy="159.34952"
       r="8.4189901" />
    <path
       style="fill:none;stroke:#000000;stroke-width:0.40000001;stroke-linecap:round;stroke-linejoin:round;stroke-miterlimit:4;stroke-dasharray:none;stroke-opacity:1"
       d="m 49.478271,144.82341 0.334086,0.0668"
       id="path827"
       inkscape:connector-curvature="0" />
    <path
       style="fill:none;stroke:#000000;stroke-width:0.40000001;stroke-linecap:round;stroke-linejoin:round;stroke-miterlimit:4;stroke-dasharray:none;stroke-opacity:1"
       d="m 50.51394,145.1575 0.902036,0.0668"
       id="path829"
       inkscape:connector-curvature="0" />
    <path
       style="fill:none;stroke:#000000;stroke-width:0.40000001;stroke-linecap:round;stroke-linejoin:round;stroke-miterlimit:4;stroke-dasharray:none;stroke-opacity:1"
       d="m 52.384827,145.39136 c 1.637025,0.10022 2.80633,0.26727 4.443357,2.20497 1.637025,1.93771 3.80859,3.0736 6.414468,3.37428 2.605876,0.30068 4.543581,0.0334 8.552625,2.43883 4.009043,2.40543 4.309721,2.97338 8.819893,3.37428 4.510175,0.40091 7.316504,1.67044 8.652851,4.87767 1.336347,3.20724 1.469983,6.08038 -1.403165,8.92012 -2.873147,2.83974 -5.278572,5.34539 -11.058276,4.77744 -5.779704,-0.56794 -10.657371,-4.34313 -12.194172,-8.15172 -1.5368,-3.80859 -0.53454,-11.62622 4.476763,-13.22984 5.011304,-1.60361 4.476766,-1.20271 7.383322,-1.20271 2.906557,0 4.710626,0.50113 9.087163,-1.1359 4.376539,-1.63702 7.249686,-5.11153 21.381564,-4.6104"
       id="path831"
       inkscape:connector-curvature="0" />
    <path
       style="fill:none;stroke:#000000;stroke-width:0.40000001;stroke-linecap:round;stroke-linejoin:round;stroke-miterlimit:4;stroke-dasharray:none;stroke-opacity:1"
       d="m 107.94348,147.02838 c 0,0 1.83748,0.0334 2.10475,-0.13363"
       id="path833"
       inkscape:connector-curvature="0" />
    <path
       style="fill:none;stroke:#000000;stroke-width:0.40000001;stroke-linecap:round;stroke-linejoin:round;stroke-miterlimit:4;stroke-dasharray:none;stroke-opacity:1"
       d="m 111.05049,146.76111 0.63476,-0.26727"
       id="path835"
       inkscape:connector-curvature="0" />
    <path
       style="fill:none;stroke:#000000;stroke-width:0.40000001;stroke-linecap:round;stroke-linejoin:round;stroke-miterlimit:4;stroke-dasharray:none;stroke-opacity:1"
       d="m 122.97494,152.4926 0.46772,-0.23386"
       id="path837"
       inkscape:connector-curvature="0" />
    <path
       style="fill:none;stroke:#000000;stroke-width:0.40000001;stroke-linecap:round;stroke-linejoin:round;stroke-miterlimit:4;stroke-dasharray:none;stroke-opacity:1"
       d="m 124.17766,152.22534 c 0,0 0.63476,-0.30068 1.50339,-0.16705"
       id="path839"
       inkscape:connector-curvature="0" />
    <path
       style="fill:none;stroke:#000000;stroke-width:0.40000001;stroke-linecap:round;stroke-linejoin:round;stroke-miterlimit:4;stroke-dasharray:none;stroke-opacity:1"
       d="m 126.48285,152.0917 c 0,0 1.06908,-0.30068 3.97564,2.07134 2.90656,2.37202 5.11153,4.10927 6.41447,4.14268 1.30294,0.0334 1.63702,0.10022 4.51017,1.43657 2.87315,1.33635 6.1472,2.90656 11.96031,2.47224"
       id="path841"
       inkscape:connector-curvature="0" />
    <path
       style="fill:none;stroke:#000000;stroke-width:0.40000001;stroke-linecap:round;stroke-linejoin:round;stroke-miterlimit:4;stroke-dasharray:none;stroke-opacity:1"
       d="m 154.21207,162.11431 c 0,0 0.90203,-0.0334 1.03567,-0.10023"
       id="path843"
       inkscape:connector-curvature="0" />
    <path
       style="fill:none;stroke:#000000;stroke-width:0.40000001;stroke-linecap:round;stroke-linejoin:round;stroke-miterlimit:4;stroke-dasharray:none;stroke-opacity:1"
       d="m 155.91591,161.88045 0.50113,-0.10023"
       id="path845"
       inkscape:connector-curvature="0" />
    <path
       style="fill:none;stroke:#6f00ff;stroke-width:0.40000001;stroke-linecap:round;stroke-linejoin:round;stroke-miterlimit:4;stroke-dasharray:none;stroke-opacity:1"
       d="m 76.92351,155.26363 0.06682,2.43883"
       id="path847"
       inkscape:connector-curvature="0" />
    <path
       style="fill:none;stroke:#6f00ff;stroke-width:0.40000001;stroke-linecap:round;stroke-linejoin:round;stroke-miterlimit:4;stroke-dasharray:none;stroke-opacity:1"
       d="m 75.587163,159.33949 c 0.133633,0.68487 1.052372,1.48668 1.018964,2.3219 -0.03341,0.83522 -0.484426,1.28624 -0.885331,1.18601 -0.400904,-0.10023 -0.551243,-0.63477 -0.400904,-1.23612 0.150341,-0.60136 2.204974,-1.1526 2.455539,-1.62032"
       id="path849"
       inkscape:connector-curvature="0" />
    <path
       style="fill:none;stroke:#6f00ff;stroke-width:0.40000001;stroke-linecap:round;stroke-linejoin:round;stroke-miterlimit:4;stroke-dasharray:none;stroke-opacity:1"
       d="m 78.8111,159.4063 c -0.701582,0.66818 -1.018963,3.39099 -0.300677,3.97564"
       id="path851"
       inkscape:connector-curvature="0" />
    <path
       style="fill:none;stroke:#6f00ff;stroke-width:0.40000001;stroke-linecap:round;stroke-linejoin:round;stroke-miterlimit:4;stroke-dasharray:none;stroke-opacity:1"
       d="m 79.178596,160.12459 c 0.601358,-0.53454 2.672697,0.0167 3.006783,-0.48443"
       id="path853"
       inkscape:connector-curvature="0" />
    <path
       style="fill:none;stroke:#6f00ff;stroke-width:0.40000001;stroke-linecap:round;stroke-linejoin:round;stroke-miterlimit:4;stroke-dasharray:none;stroke-opacity:1"
       d="m 80.464831,160.02436 c 0,0 -0.534538,3.0569 0.718288,2.73951"
       id="path855"
       inkscape:connector-curvature="0"
       sodipodi:nodetypes="cc" />
    <path
       style="fill:none;stroke:#6f00ff;stroke-width:0.40000001;stroke-linecap:round;stroke-linejoin:round;stroke-miterlimit:4;stroke-dasharray:none;stroke-opacity:1"
       d="m 81.968223,161.66139 c -0.08352,1.28624 0.567946,2.17157 0.434313,2.57247 -0.133636,0.40091 -0.41761,1.18601 -1.119193,0.80181"
       id="path857"
       inkscape:connector-curvature="0" />
    <path
       style="fill:none;stroke:#6f00ff;stroke-width:0.40000001;stroke-linecap:round;stroke-linejoin:round;stroke-miterlimit:4;stroke-dasharray:none;stroke-opacity:1"
       d="m 82.101858,160.77606 c -0.250565,0.18375 -0.08352,0.46772 0.133633,0.40091"
       id="path859"
       inkscape:connector-curvature="0" />
    <path
       style="fill:none;stroke:#6f00ff;stroke-width:0.40000001;stroke-linecap:round;stroke-linejoin:round;stroke-miterlimit:4;stroke-dasharray:none;stroke-opacity:1"
       d="m 83.137527,159.59005 c 0.517835,0.86863 1.419868,1.73725 0.517835,3.842"
       id="path861"
       inkscape:connector-curvature="0" />
    <path
       style="fill:none;stroke:#cf0000;stroke-width:0.40000001;stroke-linecap:round;stroke-linejoin:round;stroke-miterlimit:4;stroke-dasharray:none;stroke-opacity:1"
       d="m 71.614675,151.78627 -0.212612,3.00019"
       id="path863"
       inkscape:connector-curvature="0" />
    <path
       style="fill:none;stroke:#cf0000;stroke-width:0.40000001;stroke-linecap:round;stroke-linejoin:round;stroke-miterlimit:4;stroke-dasharray:none;stroke-opacity:1"
       d="m 67.185267,156.75902 c -0.02363,1.14574 1.204798,1.93713 1.015812,2.62221 -0.188989,0.68508 -0.437036,0.86226 -0.708705,0.85045 -0.271672,-0.0118 -0.566965,-0.62603 -0.413412,-1.21661 0.153551,-0.59059 1.55915,-1.25205 1.582775,-2.16156"
       id="path865"
       inkscape:connector-curvature="0" />
    <path
       style="fill:none;stroke:#cf0000;stroke-width:0.40000001;stroke-linecap:round;stroke-linejoin:round;stroke-miterlimit:4;stroke-dasharray:none;stroke-opacity:1"
       d="m 69.878347,155.82589 c -0.767763,1.39379 -0.519716,2.77576 0.07087,3.30729"
       id="path867"
       inkscape:connector-curvature="0" />
    <path
       style="fill:none;stroke:#cf0000;stroke-width:0.40000001;stroke-linecap:round;stroke-linejoin:round;stroke-miterlimit:4;stroke-dasharray:none;stroke-opacity:1"
       d="m 72.535994,155.8377 c 0.555151,0.66146 1.594585,2.01982 0.377976,3.22461"
       id="path869"
       inkscape:connector-curvature="0" />
    <path
       style="fill:none;stroke:#cf0000;stroke-width:0.40000001;stroke-linecap:round;stroke-linejoin:round;stroke-miterlimit:4;stroke-dasharray:none;stroke-opacity:1"
       d="m 71.354816,155.9322 c -0.09449,1.50009 -0.307104,3.37816 0.661459,2.95294"
       id="path871"
       inkscape:connector-curvature="0" />
    <path
       style="fill:none;stroke:#cf0000;stroke-width:0.40000001;stroke-linecap:round;stroke-linejoin:round;stroke-miterlimit:4;stroke-dasharray:none;stroke-opacity:1"
       d="m 70.268136,157.21968 c 0.531529,-0.11812 2.114304,-0.0827 2.196986,-0.0118"
       id="path873"
       inkscape:connector-curvature="0" />
    <path
       style="fill:none;fill-opacity:1;stroke:#6f00ff;stroke-width:0.40000001;stroke-linecap:round;stroke-linejoin:round;stroke-miterlimit:4;stroke-dasharray:none;stroke-opacity:1"
       d="m 66.533407,152.92502 c 0.06682,-0.0668 0.167045,-2.82304 0.167045,-2.82304"
       id="path875"
       inkscape:connector-curvature="0" />
    <path
       style="fill:none;fill-opacity:1;stroke:#6f00ff;stroke-width:0.40000001;stroke-linecap:round;stroke-linejoin:round;stroke-miterlimit:4;stroke-dasharray:none;stroke-opacity:1"
       d="m 64.211504,145.1408 c -0.03341,0.85192 1.77066,2.13815 1.520095,2.85644 -0.250566,0.71829 -0.918739,0.51784 -1.069078,0.45102 -0.150339,-0.0668 -0.801809,-1.36976 1.11919,-2.97338"
       id="path877"
       inkscape:connector-curvature="0" />
    <path
       style="fill:none;fill-opacity:1;stroke:#6f00ff;stroke-width:0.40000001;stroke-linecap:round;stroke-linejoin:round;stroke-miterlimit:4;stroke-dasharray:none;stroke-opacity:1"
       d="m 67.268399,144.80671 c -0.902036,0.91874 -0.584652,3.04019 0.484426,3.39098"
       id="path881"
       inkscape:connector-curvature="0" />
    <path
       style="fill:none;fill-opacity:1;stroke:#6f00ff;stroke-width:0.40000001;stroke-linecap:round;stroke-linejoin:round;stroke-miterlimit:4;stroke-dasharray:none;stroke-opacity:1"
       d="m 73.749684,144.72319 c 0.935443,1.40316 1.102487,2.62258 0.384202,3.44109"
       id="path883"
       inkscape:connector-curvature="0" />
    <path
       style="fill:none;fill-opacity:1;stroke:#6f00ff;stroke-width:0.40000001;stroke-linecap:round;stroke-linejoin:round;stroke-miterlimit:4;stroke-dasharray:none;stroke-opacity:1"
       d="m 67.435441,145.80897 c 0.618062,-0.43431 2.037932,0.0167 2.472243,-0.48443"
       id="path885"
       inkscape:connector-curvature="0" />
    <path
       style="fill:none;fill-opacity:1;stroke:#6f00ff;stroke-width:0.40000001;stroke-linecap:round;stroke-linejoin:round;stroke-miterlimit:4;stroke-dasharray:none;stroke-opacity:1"
       d="m 68.504519,145.72545 c -0.100224,0.93544 -0.317381,2.37201 0.551244,2.07134"
       id="path887"
       inkscape:connector-curvature="0" />
    <path
       style="fill:none;fill-opacity:1;stroke:#6f00ff;stroke-width:0.40000001;stroke-linecap:round;stroke-linejoin:round;stroke-miterlimit:4;stroke-dasharray:none;stroke-opacity:1"
       d="m 69.957799,147.12861 c -0.183748,0.81852 0.567947,1.67044 0.417608,2.05464 -0.150339,0.3842 -0.851922,0.43431 -0.91874,0.13363"
       id="path889"
       inkscape:connector-curvature="0" />
    <path
       style="fill:none;fill-opacity:1;stroke:#6f00ff;stroke-width:0.40000001;stroke-linecap:round;stroke-linejoin:round;stroke-miterlimit:4;stroke-dasharray:none;stroke-opacity:1"
       d="m 70.007911,146.34351 c -0.283975,0.16704 -0.11693,0.4009 0.11693,0.30068"
       id="path891"
       inkscape:connector-curvature="0" />
    <path
       style="fill:none;fill-opacity:1;stroke:#6f00ff;stroke-width:0.40000001;stroke-linecap:round;stroke-linejoin:round;stroke-miterlimit:4;stroke-dasharray:none;stroke-opacity:1"
       d="m 70.659381,147.8469 c 0.434314,0 0.918739,-0.0167 0.918739,-0.0167"
       id="path893"
       inkscape:connector-curvature="0" />
    <path
       style="fill:none;fill-opacity:1;stroke:#00d290;stroke-width:0.40000001;stroke-linecap:round;stroke-linejoin:round;stroke-miterlimit:4;stroke-dasharray:none;stroke-opacity:1"
       d="m 89.611067,155.7125 c -0.03307,0.3638 -0.165365,2.46393 -0.09922,2.61276 0.06615,0.14883 3.389974,-1.78593 3.406511,-1.96784"
       id="path914"
       inkscape:connector-curvature="0" />
    <path
       style="fill:none;fill-opacity:1;stroke:#00d290;stroke-width:0.40000001;stroke-linecap:round;stroke-linejoin:round;stroke-miterlimit:4;stroke-dasharray:none;stroke-opacity:1"
       d="m 90.884374,157.82917 0.992188,1.05833"
       id="path916"
       inkscape:connector-curvature="0" />
    <path
       style="fill:none;fill-opacity:1;stroke:#00d290;stroke-width:0.40000001;stroke-linecap:round;stroke-linejoin:round;stroke-miterlimit:4;stroke-dasharray:none;stroke-opacity:1"
       d="m 93.182942,158.8875 c 0.01654,1.17409 0.760677,1.50482 0.595312,2.19935 -0.165364,0.69453 -0.628385,1.28984 -1.190625,0.95911"
       id="path918"
       inkscape:connector-curvature="0" />
    <path
       style="fill:none;fill-opacity:1;stroke:#00d290;stroke-width:0.40000001;stroke-linecap:round;stroke-linejoin:round;stroke-miterlimit:4;stroke-dasharray:none;stroke-opacity:1"
       d="m 93.298697,157.41575 c -0.330729,0.23152 -0.248047,0.74415 0.115755,0.4961"
       id="path920"
       inkscape:connector-curvature="0" />
    <path
       style="fill:none;fill-opacity:1;stroke:#00d290;stroke-width:0.40000001;stroke-linecap:round;stroke-linejoin:round;stroke-miterlimit:4;stroke-dasharray:none;stroke-opacity:1"
       d="m 77.241797,142.6983 c 0.148828,0.4961 -0.214974,3.38998 -0.314193,3.37344 -0.09922,-0.0165 1.355989,-1.62057 3.40651,-2.71198"
       id="path922"
       inkscape:connector-curvature="0" />
    <path
       style="fill:none;fill-opacity:1;stroke:#00d290;stroke-width:0.40000001;stroke-linecap:round;stroke-linejoin:round;stroke-miterlimit:4;stroke-dasharray:none;stroke-opacity:1"
       d="m 78.108762,145.04042 1.755261,1.07045"
       id="path924"
       inkscape:connector-curvature="0" />
    <path
       style="fill:none;fill-opacity:1;stroke:#00d290;stroke-width:0.40000001;stroke-linecap:round;stroke-linejoin:round;stroke-miterlimit:4;stroke-dasharray:none;stroke-opacity:1"
       d="m 80.995572,145.37721 c 0.297657,0.62839 0.56224,2.67891 -0.281119,2.38125"
       id="path926"
       inkscape:connector-curvature="0" />
    <path
       style="fill:none;fill-opacity:1;stroke:#00d290;stroke-width:0.40000001;stroke-linecap:round;stroke-linejoin:round;stroke-miterlimit:4;stroke-dasharray:none;stroke-opacity:1"
       d="m 80.846745,144.25273 c -0.248047,0.13229 -0.314193,0.56224 -0.01654,0.52917"
       id="path928"
       inkscape:connector-curvature="0" />
    <path
       style="fill:none;fill-opacity:1;stroke:#00d290;stroke-width:0.4;stroke-linecap:round;stroke-linejoin:round;stroke-miterlimit:4;stroke-dasharray:none;stroke-opacity:1"
       d="m 81.855468,145.87331 h 1.35599"
       id="path930"
       inkscape:connector-curvature="0" />
    <circle
       style="opacity:1;fill:none;fill-opacity:1;stroke:#cf0000;stroke-width:0.40000001;stroke-linecap:round;stroke-linejoin:round;stroke-miterlimit:4;stroke-dasharray:none;stroke-dashoffset:0;stroke-opacity:1;paint-order:markers stroke fill"
       id="path934"
       cx="140.95969"
       cy="160.91986"
       r="13.923697" />
    <path
       style="fill:none;fill-opacity:1;stroke:#cf0000;stroke-width:0.40000001;stroke-linecap:round;stroke-linejoin:round;stroke-miterlimit:4;stroke-dasharray:none;stroke-opacity:1"
       d="m 142.87792,163.84681 c 0.38034,1.20716 1.27331,2.23242 0.99219,3.19154 -0.28112,0.95911 -1.37253,1.02526 -1.24023,-0.34727 0.13229,-1.37252 1.65364,-2.00091 1.78593,-2.53008"
       id="path936"
       inkscape:connector-curvature="0" />
    <path
       style="fill:none;fill-opacity:1;stroke:#cf0000;stroke-width:0.40000001;stroke-linecap:round;stroke-linejoin:round;stroke-miterlimit:4;stroke-dasharray:none;stroke-opacity:1"
       d="m 146.15214,162.75541 c -0.87643,0.77721 -2.10013,4.28294 -0.8599,4.9444"
       id="path938"
       inkscape:connector-curvature="0" />
    <path
       style="fill:none;fill-opacity:1;stroke:#cf0000;stroke-width:0.40000001;stroke-linecap:round;stroke-linejoin:round;stroke-miterlimit:4;stroke-dasharray:none;stroke-opacity:1"
       d="m 148.96334,163.20189 c 0.71107,1.07487 1.17409,3.98529 -0.0992,4.61367"
       id="path940"
       inkscape:connector-curvature="0" />
    <path
       style="fill:none;fill-opacity:1;stroke:#cf0000;stroke-width:0.40000001;stroke-linecap:round;stroke-linejoin:round;stroke-miterlimit:4;stroke-dasharray:none;stroke-opacity:1"
       d="m 146.69784,163.69798 c -0.39687,1.68672 -1.12448,4.63021 0.54571,3.57188"
       id="path942"
       inkscape:connector-curvature="0" />
    <path
       style="fill:none;fill-opacity:1;stroke:#cf0000;stroke-width:0.40000001;stroke-linecap:round;stroke-linejoin:round;stroke-miterlimit:4;stroke-dasharray:none;stroke-opacity:1"
       d="m 145.57336,165.8808 c 0.28112,-0.28112 1.48829,-0.24805 1.48829,-0.24805"
       id="path944"
       inkscape:connector-curvature="0" />
    <path
       style="fill:none;fill-opacity:1;stroke:#cf0000;stroke-width:0.40000001;stroke-linecap:round;stroke-linejoin:round;stroke-miterlimit:4;stroke-dasharray:none;stroke-opacity:1"
       d="m 147.97115,163.35072 c -0.0661,0.28112 -0.3638,1.28984 -0.3638,1.28984"
       id="path946"
       inkscape:connector-curvature="0" />
    <path
       style="fill:none;fill-opacity:1;stroke:#cf0000;stroke-width:0.40000001;stroke-linecap:round;stroke-linejoin:round;stroke-miterlimit:4;stroke-dasharray:none;stroke-opacity:1"
       d="m 131.53391,161.10176 c 0.28112,0.69453 1.14102,1.71979 0.81029,2.36471 -0.33073,0.64493 -1.07487,0.82683 -0.84336,-0.0827 0.23151,-0.9095 1.62057,-1.88516 1.62057,-1.88516"
       id="path948"
       inkscape:connector-curvature="0" />
    <path
       style="fill:none;fill-opacity:1;stroke:#cf0000;stroke-width:0.40000001;stroke-linecap:round;stroke-linejoin:round;stroke-miterlimit:4;stroke-dasharray:none;stroke-opacity:1"
       d="m 134.04745,161.13483 c -0.47955,0.3638 -0.89297,2.24896 -0.0661,2.74505"
       id="path950"
       inkscape:connector-curvature="0" />
    <path
       style="fill:none;fill-opacity:1;stroke:#cf0000;stroke-width:0.40000001;stroke-linecap:round;stroke-linejoin:round;stroke-miterlimit:4;stroke-dasharray:none;stroke-opacity:1"
       d="m 135.1554,161.31673 c -0.29766,1.15756 -0.4961,2.61276 0.26458,2.2655"
       id="path952"
       inkscape:connector-curvature="0" />
    <path
       style="fill:none;fill-opacity:1;stroke:#cf0000;stroke-width:0.40000001;stroke-linecap:round;stroke-linejoin:round;stroke-miterlimit:4;stroke-dasharray:none;stroke-opacity:1"
       d="m 134.06399,162.77194 c 0.39687,-0.23151 1.42214,-0.24804 1.42214,-0.24804"
       id="path954"
       inkscape:connector-curvature="0" />
    <path
       style="fill:none;fill-opacity:1;stroke:#cf0000;stroke-width:0.40000001;stroke-linecap:round;stroke-linejoin:round;stroke-miterlimit:4;stroke-dasharray:none;stroke-opacity:1"
       d="m 135.96568,161.3002 c 0.29766,0.41341 1.05834,1.5875 0.33073,2.51354"
       id="path956"
       inkscape:connector-curvature="0" />
    <path
       style="fill:none;stroke:#cf0000;stroke-width:0.40000001;stroke-linecap:round;stroke-linejoin:round;stroke-miterlimit:4;stroke-dasharray:none;stroke-opacity:1"
       d="m 135.25461,155.54551 c -0.0827,0.23151 -1.33945,3.91914 -1.33945,3.91914"
       id="path958"
       inkscape:connector-curvature="0" />
    <path
       style="fill:none;stroke:#cf0000;stroke-width:0.40000001;stroke-linecap:round;stroke-linejoin:round;stroke-miterlimit:4;stroke-dasharray:none;stroke-opacity:1"
       d="m 144.33313,159.33236 c -0.0165,0.66146 -0.39687,3.15846 -0.57878,3.32383"
       id="path960"
       inkscape:connector-curvature="0" />
    <g
       aria-label="Konv.kreis     um Pt(t)"
       style="font-style:normal;font-weight:normal;font-size:10.58333302px;line-height:1.25;font-family:sans-serif;letter-spacing:0px;word-spacing:0px;display:inline;fill:#cf0000;fill-opacity:1;stroke:none;stroke-width:0.26458332"
       id="text964">
      <path
         d="m 147.58745,144.23946 0.31609,0.37253 q 0.1016,0.11854 0.27657,0.3048 0.18063,0.18063 0.33867,0.3048 0.12982,0.1016 0.28222,0.19191 l 0.3556,0.21449 0.34996,0.2032 q 0.12418,0.079 0.15804,0.22578 0.0339,0.14111 -0.0452,0.27093 -0.079,0.12418 -0.22578,0.15805 -0.14111,0.0339 -0.27093,-0.0452 -0.0903,-0.0564 -0.31045,-0.17497 -0.21449,-0.12418 -0.4064,-0.24272 -0.19191,-0.11853 -0.33867,-0.23706 -0.34431,-0.27094 -0.79586,-0.80151 0.0113,0.59266 0.0113,1.19097 0,0.14676 -0.10725,0.254 -0.10724,0.10725 -0.254,0.10725 -0.14675,0 -0.254,-0.10725 -0.10724,-0.10724 -0.10724,-0.254 0,-1.89653 -0.12982,-3.68017 -0.0113,-0.1524 0.0847,-0.26529 0.1016,-0.11289 0.24836,-0.12418 0.1524,-0.0113 0.26529,0.0903 0.11289,0.096 0.12417,0.24271 0.0395,0.58138 0.0677,1.17405 0.92004,-0.70556 1.61995,-1.33774 0.11289,-0.1016 0.25965,-0.0959 0.1524,0.006 0.24835,0.11853 0.1016,0.11289 0.096,0.26529 -0.006,0.14676 -0.11853,0.24271 -0.69427,0.63218 -1.73849,1.43369 z"
         style="font-style:normal;font-variant:normal;font-weight:normal;font-stretch:normal;font-size:5.64444447px;font-family:LDFComicSansBold;-inkscape-font-specification:LDFComicSansBold;fill:#cf0000;fill-opacity:1;stroke-width:0.26458332"
         id="path974"
         inkscape:connector-curvature="0" />
      <path
         d="m 151.30017,144.21688 q -0.0452,0.0169 -0.10725,0.0282 0,0.006 -0.0564,0.0169 l -0.079,0.0169 q -0.096,0.0282 -0.12982,0.0508 -0.16934,0.14676 -0.24272,0.4572 -0.0734,0.3048 0,0.64347 0.0734,0.3048 0.24272,0.44591 0.15804,0.12982 0.40075,0.0734 0.23142,-0.0564 0.41205,-0.28787 0.18062,-0.23707 0.23706,-0.55316 0.0508,-0.31608 -0.0508,-0.54186 -0.0959,-0.23142 -0.32173,-0.31609 -0.0565,-0.0226 -0.17498,-0.0282 -0.0226,0 -0.12982,-0.006 z m 0,-0.71684 h 0.0677 0.0903 q 0.24271,0.0113 0.4064,0.0734 0.26529,0.10724 0.45156,0.29915 0.19191,0.18627 0.27658,0.41205 0.0847,0.22013 0.11289,0.46848 0.0339,0.24836 -0.0169,0.47414 -0.0847,0.49106 -0.40075,0.89746 -0.31045,0.4064 -0.79023,0.52494 -0.59831,0.14675 -1.03293,-0.21449 -0.3556,-0.29916 -0.47978,-0.84102 -0.0564,-0.23143 -0.0564,-0.47978 0,-0.24836 0.0508,-0.49107 0.0564,-0.24835 0.18062,-0.46849 0.12418,-0.22577 0.31609,-0.37817 0.14676,-0.12418 0.39511,-0.19192 l 0.0395,-0.0113 q 0.11854,-0.096 0.27094,-0.0847 0.0226,0.006 0.0452,0.006 0.0395,0 0.0734,0.006 z"
         style="font-style:normal;font-variant:normal;font-weight:normal;font-stretch:normal;font-size:5.64444447px;font-family:LDFComicSansBold;-inkscape-font-specification:LDFComicSansBold;fill:#cf0000;fill-opacity:1;stroke-width:0.26458332"
         id="path976"
         inkscape:connector-curvature="0" />
      <path
         d="m 154.8283,143.90079 h -0.0452 q -0.0339,0 -0.25964,0.0395 -0.24836,0.0395 -0.45156,0.16934 -0.0621,0.0395 -0.11289,0.0903 -0.0508,0.0451 -0.12982,0.13547 -0.079,0.0847 -0.15804,0.15804 0.0508,0.62089 0.0113,1.66511 -0.006,0.1524 -0.11854,0.254 -0.10724,0.1016 -0.25964,0.096 -0.14676,-0.006 -0.24836,-0.11854 -0.1016,-0.10724 -0.0959,-0.254 0.0339,-0.57009 0.0169,-1.19097 -0.0226,-0.62089 -0.12982,-1.14018 -0.0282,-0.14676 0.0564,-0.27094 0.0847,-0.12417 0.22578,-0.15804 0.13547,-0.0226 0.24836,0.0452 0.11853,0.0621 0.16369,0.18626 0.079,-0.0677 0.14675,-0.10724 0.32738,-0.2032 0.7112,-0.27094 0.27093,-0.0452 0.34996,-0.0508 0.3048,-0.0113 0.508,0.14112 0.22577,0.16933 0.32173,0.53622 0.0564,0.23142 0.0734,0.59266 0.0113,0.22578 0.006,0.5588 -0.006,0.32174 0,0.38383 0.006,0.12417 0.0169,0.26529 0.0113,0.13546 0.0282,0.29915 l 0.0339,0.26529 q 0.0113,0.14676 -0.0847,0.25964 -0.096,0.11854 -0.24271,0.12983 -0.14676,0.0169 -0.26529,-0.079 -0.11289,-0.0959 -0.12982,-0.24271 -0.079,-0.85795 -0.079,-0.8636 -0.006,-0.0847 0,-0.42897 0.006,-0.32738 0,-0.51365 -0.0169,-0.28222 -0.0564,-0.44591 -0.0226,-0.0903 -0.0508,-0.13547 z"
         style="font-style:normal;font-variant:normal;font-weight:normal;font-stretch:normal;font-size:5.64444447px;font-family:LDFComicSansBold;-inkscape-font-specification:LDFComicSansBold;fill:#cf0000;fill-opacity:1;stroke-width:0.26458332"
         id="path978"
         inkscape:connector-curvature="0" />
      <path
         d="m 156.66363,143.74275 0.42897,1.41675 0.11854,0.40076 q 0.0621,-0.22578 0.0903,-0.29916 0.0564,-0.16368 0.51364,-1.38288 0.0508,-0.14112 0.18627,-0.2032 0.14111,-0.0621 0.27658,-0.0113 0.14111,0.0508 0.2032,0.19191 0.0621,0.13546 0.0113,0.27093 l -0.51365,1.3716 q -0.006,0.0226 -0.0847,0.31045 -0.0734,0.24835 -0.16368,0.4064 -0.11289,0.2032 -0.18063,0.28222 -0.0226,0.0282 -0.0508,0.0564 -0.0282,0.0282 -0.1016,0.0734 -0.0677,0.0508 -0.13546,0.0734 -0.0677,0.0226 -0.16934,0.0113 -0.096,-0.006 -0.19191,-0.0677 -0.0734,-0.0395 -0.11853,-0.11289 -0.0113,-0.0169 -0.0226,-0.0395 l -0.0226,-0.0452 -0.0282,-0.0847 -0.079,-0.24835 -0.23142,-0.74507 q -0.37254,-1.25871 -0.41769,-1.39982 -0.0508,-0.14111 0.0169,-0.27658 0.0677,-0.13547 0.20885,-0.18062 0.14111,-0.0452 0.27657,0.0226 0.13547,0.0677 0.18063,0.20885 z"
         style="font-style:normal;font-variant:normal;font-weight:normal;font-stretch:normal;font-size:5.64444447px;font-family:LDFComicSansBold;-inkscape-font-specification:LDFComicSansBold;fill:#cf0000;fill-opacity:1;stroke-width:0.26458332"
         id="path980"
         inkscape:connector-curvature="0" />
      <path
         d="m 159.66215,145.7691 q 0.10724,0.10725 0.10724,0.254 0,0.14676 -0.10724,0.254 -0.10725,0.10725 -0.254,0.10725 -0.14676,0 -0.254,-0.10725 -0.10725,-0.10724 -0.10725,-0.254 0,-0.14675 0.10725,-0.254 0.10724,-0.10724 0.254,-0.10724 0.14675,0 0.254,0.10724 z"
         style="font-style:normal;font-variant:normal;font-weight:normal;font-stretch:normal;font-size:5.64444447px;font-family:LDFComicSansBold;-inkscape-font-specification:LDFComicSansBold;fill:#cf0000;fill-opacity:1;stroke-width:0.26458332"
         id="path982"
         inkscape:connector-curvature="0" />
      <path
         d="m 160.86221,142.54048 q 0.0226,0.71685 0.0226,1.70462 l 0.82409,-0.73377 q 0.11289,-0.1016 0.25964,-0.096 0.14676,0.006 0.24836,0.11853 0.1016,0.11289 0.0959,0.25965 -0.006,0.14675 -0.11853,0.24835 l -0.69427,0.62089 0.8636,1.35467 q 0.079,0.12418 0.0452,0.27093 -0.0282,0.14676 -0.15805,0.22578 -0.12417,0.079 -0.27093,0.0452 -0.14675,-0.0282 -0.22578,-0.15805 l -0.79022,-1.23613 -0.0847,0.0847 v 0.93133 q 0,0.14675 -0.10724,0.254 -0.10724,0.10724 -0.254,0.10724 -0.14676,0 -0.254,-0.10724 -0.10724,-0.10725 -0.10724,-0.254 0,-0.28787 0.006,-1.11196 0.006,-0.82409 0,-1.38853 -0.006,-0.57009 -0.0226,-1.1176 -0.006,-0.14676 0.096,-0.254 0.1016,-0.11289 0.24835,-0.11853 0.1524,-0.006 0.25965,0.0959 0.11289,0.1016 0.11853,0.254 z"
         style="font-style:normal;font-variant:normal;font-weight:normal;font-stretch:normal;font-size:5.64444447px;font-family:LDFComicSansBold;-inkscape-font-specification:LDFComicSansBold;fill:#cf0000;fill-opacity:1;stroke-width:0.26458332"
         id="path984"
         inkscape:connector-curvature="0" />
      <path
         d="m 163.51369,144.87728 q -0.006,0.26529 -0.0226,0.75636 -0.0113,0.48542 -0.0113,0.63218 -0.006,0.1524 -0.11289,0.254 -0.10724,0.1016 -0.25964,0.096 -0.14676,0 -0.24836,-0.10724 -0.1016,-0.10725 -0.1016,-0.254 0.006,-0.19191 0.0169,-0.61525 0.0113,-0.42333 0.0169,-0.65475 0.006,-0.23707 -0.006,-0.58703 -0.006,-0.34995 -0.0282,-0.64911 -0.0113,-0.14675 0.0847,-0.25964 0.1016,-0.11853 0.24835,-0.12982 0.14676,-0.0113 0.25965,0.0903 0.11853,0.0959 0.12982,0.24271 0.006,0.0564 0.006,0.11853 0.0734,-0.0452 0.25964,-0.12418 0.26529,-0.11288 0.50236,-0.22577 0.13546,-0.0677 0.27657,-0.0169 0.14111,0.0452 0.2032,0.18063 0.0677,0.13546 0.0169,0.27657 -0.0452,0.14111 -0.18063,0.2032 -0.25964,0.12983 -0.53622,0.24836 -0.15804,0.0677 -0.16933,0.0734 -0.0113,0.006 -0.0621,0.079 z"
         style="font-style:normal;font-variant:normal;font-weight:normal;font-stretch:normal;font-size:5.64444447px;font-family:LDFComicSansBold;-inkscape-font-specification:LDFComicSansBold;fill:#cf0000;fill-opacity:1;stroke-width:0.26458332"
         id="path986"
         inkscape:connector-curvature="0" />
      <path
         d="m 165.91831,144.77004 q 0.53622,-0.24836 1.10067,-0.44591 -0.34996,-0.27094 -0.64911,-0.10725 -0.28223,0.1524 -0.45156,0.55316 z m 1.85138,-0.006 q -0.0734,0.096 -0.18627,0.12983 -0.90311,0.28786 -1.73284,0.7112 0.0113,0.0339 0.0226,0.0564 0.14111,0.28222 0.59266,0.23707 0.0903,-0.006 0.15805,-0.0226 0.0677,-0.0169 0.14675,-0.0621 l 0.11289,-0.0734 q 0.0452,-0.0226 0.16369,-0.11289 l 0.18627,-0.14675 q 0.12417,-0.0847 0.27093,-0.0621 0.14676,0.0226 0.23142,0.14675 0.0903,0.11854 0.0677,0.26529 -0.0226,0.14676 -0.14112,0.23707 -0.0339,0.0226 -0.16933,0.12418 -0.12982,0.1016 -0.19755,0.14675 -0.0677,0.0452 -0.19756,0.11289 -0.12982,0.0734 -0.26529,0.11289 -0.13547,0.0395 -0.29915,0.0565 -0.46285,0.0451 -0.80152,-0.12418 -0.33866,-0.16934 -0.508,-0.51365 -0.14111,-0.29351 -0.14111,-0.6604 0,-0.37253 0.11289,-0.67733 0.11289,-0.33867 0.32174,-0.62089 0.21448,-0.28787 0.508,-0.44591 0.32173,-0.18627 0.7112,-0.14111 0.38382,0.0451 0.75071,0.33302 0.12982,0.1016 0.24271,0.29351 l 0.0677,0.11854 q 0.0339,0.0508 0.0508,0.079 0.0847,0.12418 0.0621,0.27093 -0.0226,0.14111 -0.14111,0.23142 z"
         style="font-style:normal;font-variant:normal;font-weight:normal;font-stretch:normal;font-size:5.64444447px;font-family:LDFComicSansBold;-inkscape-font-specification:LDFComicSansBold;fill:#cf0000;fill-opacity:1;stroke-width:0.26458332"
         id="path988"
         inkscape:connector-curvature="0" />
      <path
         d="m 169.23495,143.93466 q -0.006,0.22013 -0.0169,0.69991 -0.0113,0.47413 -0.0282,0.83538 -0.0113,0.36124 -0.0395,0.69427 -0.0169,0.1524 -0.12982,0.24835 -0.11289,0.096 -0.26529,0.079 -0.14675,-0.0113 -0.24271,-0.12417 -0.096,-0.11289 -0.0847,-0.25965 0.0282,-0.39511 0.0395,-0.69427 0.0169,-0.34995 0.0282,-0.8128 l 0.0169,-0.68862 q 0.006,-0.1524 0.11289,-0.254 0.11289,-0.1016 0.25964,-0.0959 0.1524,0.006 0.254,0.11853 0.1016,0.10724 0.096,0.254 z m -0.0339,-1.39982 q 0.10725,0.10724 0.10725,0.254 0,0.14675 -0.10725,0.254 -0.10724,0.10724 -0.254,0.10724 -0.14675,0 -0.254,-0.10724 -0.10724,-0.10725 -0.10724,-0.254 0,-0.14676 0.10724,-0.254 0.10725,-0.10725 0.254,-0.10725 0.14676,0 0.254,0.10725 z"
         style="font-style:normal;font-variant:normal;font-weight:normal;font-stretch:normal;font-size:5.64444447px;font-family:LDFComicSansBold;-inkscape-font-specification:LDFComicSansBold;fill:#cf0000;fill-opacity:1;stroke-width:0.26458332"
         id="path990"
         inkscape:connector-curvature="0" />
      <path
         d="m 171.61179,143.91208 q -0.0169,0.006 -0.1524,0.0226 -0.12982,0.0113 -0.21449,0.0226 l -0.22578,0.0395 q -0.13546,0.0226 -0.26529,0.0564 -0.12417,0.0282 -0.23706,0.0621 -0.27094,0.0903 -0.34431,0.18627 -0.0169,0.0226 0.006,0.0734 0.0452,0.0226 0.10725,0.0452 0.0847,0.0339 0.45155,0.1524 0.34996,0.11289 0.52493,0.18062 0.33303,0.13547 0.47414,0.3048 0.32173,0.37254 0.27093,0.75072 -0.0452,0.33866 -0.36689,0.57573 -0.23142,0.16933 -0.55315,0.24835 -0.31609,0.079 -0.58138,0.0564 -0.14676,-0.0169 -0.32173,-0.0677 -0.17498,-0.0508 -0.3556,-0.12418 -0.18063,-0.0677 -0.22014,-0.079 -0.14111,-0.0452 -0.20884,-0.17498 -0.0734,-0.13547 -0.0282,-0.27658 0.0452,-0.14111 0.18062,-0.20884 0.12982,-0.0734 0.27093,-0.0282 0.14111,0.0452 0.29351,0.10725 0.1524,0.0564 0.24836,0.0903 0.1016,0.0339 0.20884,0.0395 0.14111,0.0169 0.33302,-0.0282 0.19192,-0.0508 0.31045,-0.13547 0.0734,-0.0564 0.079,-0.0903 0.006,-0.0508 -0.1016,-0.18062 -0.0339,-0.0395 -0.20884,-0.11289 -0.13547,-0.0508 -0.46849,-0.15805 -0.36125,-0.11288 -0.49671,-0.16933 -0.33867,-0.13547 -0.44591,-0.32173 -0.14112,-0.23707 -0.13547,-0.47414 0.0113,-0.24271 0.16933,-0.44026 0.20885,-0.26529 0.67734,-0.42334 0.13546,-0.0452 0.28786,-0.079 0.15805,-0.0395 0.31609,-0.0677 0.15805,-0.0282 0.25965,-0.0395 0.1016,-0.0169 0.23142,-0.0282 0.13546,-0.0169 0.14111,-0.0169 0.14675,-0.0226 0.26529,0.0734 0.11853,0.0903 0.13546,0.23707 0.0226,0.14675 -0.0734,0.26529 -0.0903,0.11853 -0.23707,0.13546 z"
         style="font-style:normal;font-variant:normal;font-weight:normal;font-stretch:normal;font-size:5.64444447px;font-family:LDFComicSansBold;-inkscape-font-specification:LDFComicSansBold;fill:#cf0000;fill-opacity:1;stroke-width:0.26458332"
         id="path992"
         inkscape:connector-curvature="0" />
      <path
         d="m 158.26135,149.4174 q -0.0621,0.85231 -0.0621,1.23049 0,0.4064 0.0452,0.65476 0.0226,0.12418 0.0677,0.23706 0.0226,0.0113 0.0677,0.0169 0.0452,0.006 0.12418,0.006 h 0.15804 q 0.33302,0.0113 0.37818,-0.0169 0.18062,-0.11853 0.31609,-0.59267 0.1016,-0.36124 0.14111,-0.8636 0.006,-0.0564 0,-0.0734 0,-0.0226 -0.0113,-0.0903 -0.006,-0.0734 -0.006,-0.14675 -0.0226,-0.34996 0.14676,-0.56445 0.12418,-0.16369 0.31609,-0.1524 0.23707,0.0113 0.32738,0.23143 0.0395,0.0847 0.0395,0.21448 0.006,0.12983 -0.0113,0.37254 l -0.0226,0.24835 q -0.0169,0.12983 -0.0226,0.21449 l -0.0113,0.0903 q -0.0226,0.29916 -0.0282,0.36689 -0.006,0.0621 -0.0113,0.21449 0,0.14676 0.006,0.17498 0.006,0.0282 0.0226,0.24835 l 0.0339,0.42898 q 0.0113,0.1524 -0.0903,0.26529 -0.0959,0.11289 -0.24271,0.12418 -0.11853,0.006 -0.22013,-0.0564 -0.096,-0.0564 -0.14111,-0.15804 -0.0677,0.0621 -0.14676,0.11289 -0.0677,0.0452 -0.1524,0.0734 -0.079,0.0282 -0.14676,0.0395 -0.0621,0.0169 -0.1524,0.0226 -0.0903,0.006 -0.13546,0 -0.0395,0 -0.11854,-0.006 -0.0734,0 -0.079,0 h -0.0452 -0.0565 -0.0452 q -0.11289,-0.006 -0.19191,-0.0113 -0.28787,-0.0339 -0.46849,-0.19191 -0.22014,-0.19191 -0.29916,-0.6604 -0.0508,-0.31044 -0.0564,-0.77329 0,-0.4064 0.0621,-1.28693 0.0113,-0.14676 0.12417,-0.24271 0.11289,-0.1016 0.25965,-0.0903 0.1524,0.0113 0.24835,0.12417 0.1016,0.11289 0.0903,0.26529 z"
         style="font-style:normal;font-variant:normal;font-weight:normal;font-stretch:normal;font-size:5.64444447px;font-family:LDFComicSansBold;-inkscape-font-specification:LDFComicSansBold;fill:#cf0000;fill-opacity:1;stroke-width:0.26458332"
         id="path994"
         inkscape:connector-curvature="0" />
      <path
         d="m 163.82739,149.74478 q -0.1016,-0.0339 -0.41768,0.11289 -0.0564,0.0282 -0.10725,0.0621 -0.0452,0.0339 -0.12418,0.1016 -0.0734,0.0621 -0.14675,0.11853 0,0.24271 -0.0226,0.53622 -0.0282,0.43463 -0.1016,1.1176 -0.0169,0.14676 -0.13547,0.23707 -0.11853,0.096 -0.26529,0.079 -0.14675,-0.0113 -0.24271,-0.12982 -0.0903,-0.11853 -0.079,-0.26529 0.079,-0.67169 0.10725,-1.08373 0.0226,-0.40076 0.0169,-0.64911 0,-0.11289 -0.0113,-0.18627 -0.0508,-0.0113 -0.11853,0.006 l -0.0339,0.0169 q -0.0282,0.0169 -0.0677,0.0451 -0.10725,0.0677 -0.25965,0.19192 l -0.4572,0.39511 -0.0113,0.0113 q -0.0282,0.90311 -0.0734,1.49013 -0.0169,0.1524 -0.12983,0.24835 -0.11289,0.096 -0.26529,0.079 -0.14675,-0.0113 -0.24271,-0.12418 -0.096,-0.11289 -0.0847,-0.25965 0.0226,-0.31608 0.0395,-0.62653 0.0169,-0.33867 0.0226,-0.54187 0.0113,-0.20884 0.0169,-0.65475 0.0113,-0.42898 0.0169,-0.57573 0.006,-0.14676 0.11289,-0.24836 0.10725,-0.10724 0.25965,-0.1016 0.14111,0.006 0.24271,0.10724 0.1016,0.096 0.10724,0.23707 0.17498,-0.14675 0.31045,-0.23142 0.2032,-0.13547 0.36124,-0.16933 0.11289,-0.0113 0.24836,-0.0169 0.14111,-0.006 0.31044,0.0621 0.16933,0.0677 0.27658,0.2032 0.12418,-0.0903 0.22578,-0.13547 0.58702,-0.27657 0.97084,-0.13546 0.39511,0.14675 0.50236,0.63782 0.0339,0.1524 0.0339,0.37253 0,0.21449 -0.0113,0.33867 -0.0113,0.12418 -0.0451,0.37818 -0.0282,0.254 -0.0339,0.25964 l -0.1016,0.89182 q -0.0169,0.1524 -0.13547,0.24272 -0.11288,0.0903 -0.26528,0.0734 -0.14676,-0.0169 -0.23707,-0.13546 -0.0903,-0.11289 -0.0734,-0.25965 l 0.1016,-0.89182 q 0.006,-0.0677 0.0339,-0.29351 0.0282,-0.23142 0.0339,-0.32738 0.0113,-0.0959 0.0113,-0.24835 0.006,-0.1524 -0.0169,-0.254 -0.0169,-0.0847 -0.0452,-0.10725 z"
         style="font-style:normal;font-variant:normal;font-weight:normal;font-stretch:normal;font-size:5.64444447px;font-family:LDFComicSansBold;-inkscape-font-specification:LDFComicSansBold;fill:#cf0000;fill-opacity:1;stroke-width:0.26458332"
         id="path996"
         inkscape:connector-curvature="0" />
      <path
         d="m 167.41982,150.06087 q 0.0621,-0.006 0.24271,-0.0169 0.18627,-0.0113 0.24271,-0.0169 0.0565,-0.006 0.17498,-0.0169 0.12418,-0.0169 0.21449,-0.0452 0.0903,-0.0282 0.19191,-0.0677 0.3048,-0.12982 0.46849,-0.29351 0.16369,-0.16369 0.19191,-0.31609 0.0564,-0.33867 -0.46849,-0.66604 -0.44027,-0.26529 -1.3208,-0.254 0.006,0.15804 0.0226,0.46284 0.0169,0.3048 0.0226,0.44591 0.0169,0.45156 0.0169,0.78458 z m -0.49107,-2.40453 q 0.31609,-0.0113 0.51365,-0.0113 0.19755,0 0.508,0.0226 0.31609,0.0226 0.58702,0.11288 0.27093,0.0847 0.51364,0.23143 0.44591,0.27657 0.6604,0.63782 0.21449,0.36124 0.14111,0.76764 -0.0621,0.37254 -0.3556,0.66605 -0.29351,0.29351 -0.73942,0.47978 -0.18062,0.0734 -0.38382,0.11853 -0.20884,0.0452 -0.3048,0.0564 -0.0903,0.0113 -0.36689,0.0282 -0.27658,0.0113 -0.29915,0.0169 h -0.0113 q -0.0113,0.16933 -0.0508,0.59267 -0.0395,0.42333 -0.0508,0.65475 -0.0113,0.14676 -0.12418,0.24271 -0.11289,0.1016 -0.25965,0.0903 -0.14675,-0.006 -0.24835,-0.11853 -0.096,-0.11289 -0.0903,-0.25964 0.0169,-0.23143 0.0621,-0.73378 0.0452,-0.508 0.0564,-0.77894 0.0282,-0.46284 -0.006,-1.16275 l -0.0282,-0.508 q -0.0169,-0.40076 -0.0226,-0.61525 -0.0395,-0.0734 -0.0452,-0.1524 -0.006,-0.1524 0.096,-0.25964 0.1016,-0.11289 0.24835,-0.11853 z"
         style="font-style:normal;font-variant:normal;font-weight:normal;font-stretch:normal;font-size:5.64444447px;font-family:LDFComicSansBold;-inkscape-font-specification:LDFComicSansBold;fill:#cf0000;fill-opacity:1;stroke-width:0.26458332"
         id="path998"
         inkscape:connector-curvature="0" />
      <path
         d="m 169.30042,151.87538 -0.26049,0.022 q -0.0991,0.007 -0.17244,-0.055 -0.0734,-0.066 -0.0807,-0.16144 -0.007,-0.0991 0.0587,-0.17243 0.0624,-0.0734 0.15776,-0.0807 l 0.30085,-0.022 q 0.004,-0.3302 0.004,-0.37423 0,-0.0954 0.0697,-0.1651 0.0697,-0.0697 0.1651,-0.0697 0.0954,0 0.1651,0.0697 0.0697,0.0697 0.0697,0.1651 0,0.044 -0.004,0.36689 h 0.19812 q 0.0954,0 0.1651,0.0697 0.0697,0.0697 0.0697,0.1651 0,0.0954 -0.0697,0.1651 -0.0697,0.0697 -0.1651,0.0697 h -0.20179 q -0.004,0.0917 -0.004,0.1761 v 0.6017 q 0.004,0.12474 0.004,0.19812 0.004,0.0147 0.004,0.022 l 0.0257,0.0257 q 0.15043,0.11373 0.16143,0.12107 0.0697,0.0697 0.0734,0.16877 0.004,0.0954 -0.066,0.1651 -0.066,0.0697 -0.1651,0.0734 -0.0954,0.004 -0.1651,-0.0624 -0.0147,-0.0147 -0.0293,-0.0257 -0.011,-0.011 -0.0404,-0.0293 -0.0257,-0.0183 -0.055,-0.0404 -0.13208,-0.10273 -0.18345,-0.22748 -0.0183,-0.0367 -0.022,-0.0991 -0.004,-0.0293 -0.004,-0.0734 -0.004,-0.0771 -0.007,-0.2128 0,-0.2238 0.004,-0.60903 z"
         style="font-size:64.99999762%;baseline-shift:sub;fill:#cf0000;fill-opacity:1"
         id="path1000"
         inkscape:connector-curvature="0" />
      <path
         d="m 172.14343,147.91637 -0.1524,0.28223 q -0.079,0.1524 -0.11854,0.24835 -0.28222,0.72814 -0.31044,1.73285 -0.0226,1.00471 0.24835,1.71591 0.0621,0.1524 0.18063,0.37818 l 0.20884,0.41204 q 0.0677,0.12982 0.0169,0.27093 -0.0452,0.14676 -0.18062,0.20885 -0.12982,0.0677 -0.27658,0.0169 -0.14111,-0.0451 -0.2032,-0.18062 l -0.20884,-0.39511 q -0.12982,-0.25965 -0.2032,-0.44027 -0.33302,-0.86924 -0.3048,-2.00378 0.0282,-1.13453 0.36689,-1.97555 0.0508,-0.14111 0.14675,-0.32174 0.0169,-0.0339 0.0452,-0.0847 0.0339,-0.0565 0.0564,-0.1016 l 0.0452,-0.0903 q 0.0677,-0.12983 0.20884,-0.17498 0.14111,-0.0508 0.27094,0.0169 0.13546,0.0677 0.18062,0.20885 0.0508,0.14111 -0.0169,0.27657 z"
         style="font-style:normal;font-variant:normal;font-weight:normal;font-stretch:normal;font-size:5.64444447px;font-family:LDFComicSansBold;-inkscape-font-specification:LDFComicSansBold;fill:#cf0000;fill-opacity:1;stroke-width:0.26458332"
         id="path1002"
         inkscape:connector-curvature="0" />
      <path
         d="m 176.47282,147.65431 q 0.51365,1.04423 0.54751,2.29165 0.0339,1.24742 -0.41204,2.31987 -0.0508,0.12982 -0.11853,0.27657 l -0.15805,0.32738 -0.13547,0.27093 q -0.0677,0.13547 -0.20884,0.18627 -0.13547,0.0508 -0.27093,-0.0169 -0.13547,-0.0621 -0.18627,-0.2032 -0.0508,-0.13547 0.0113,-0.27094 0.0452,-0.1016 0.12982,-0.27093 l 0.1524,-0.3048 0.11853,-0.26529 q 0.38947,-0.94262 0.3556,-2.032 -0.0282,-1.08938 -0.46848,-1.99249 -0.0677,-0.13546 -0.0226,-0.27657 0.0508,-0.14112 0.18626,-0.2032 0.13547,-0.0677 0.27658,-0.0169 0.14111,0.0452 0.2032,0.18062 z"
         style="font-style:normal;font-variant:normal;font-weight:normal;font-stretch:normal;font-size:5.64444447px;font-family:LDFComicSansBold;-inkscape-font-specification:LDFComicSansBold;fill:#cf0000;fill-opacity:1;stroke-width:0.26458332"
         id="path1006"
         inkscape:connector-curvature="0" />
      <g
         aria-label="z"
         style="font-style:normal;font-weight:normal;font-size:10.58333302px;line-height:1.25;font-family:sans-serif;letter-spacing:0px;word-spacing:0px;fill:#cf0000;fill-opacity:1;stroke:none;stroke-width:0.07000434"
         id="text1011">
        <path
           d="m 172.69896,149.56227 q 0.58702,-0.0282 0.59266,-0.0282 0.10725,0 0.31045,0.006 0.2032,0.006 0.27658,0.006 0.0282,0 0.0564,-0.006 0.0282,-0.006 0.0847,-0.0169 0.0621,-0.0169 0.12982,-0.0282 0.34996,-0.0677 0.57573,0.0847 0.14111,0.0903 0.17498,0.22577 0.0339,0.13547 0.0113,0.254 -0.0282,0.12983 -0.12982,0.28787 -0.12982,0.2032 -0.4064,0.508 -0.18062,0.2032 -0.44591,0.46284 -0.0508,0.0452 -0.10725,0.1016 l -0.0847,0.0903 q -0.0339,0.0282 -0.0395,0.0395 -0.0282,0.0226 -0.0621,0.0564 0.14111,0.0113 0.31608,0.0113 0.27658,0.006 0.63218,-0.006 0.0734,0 0.15805,0 0.0903,-0.006 0.13546,-0.006 0.0508,-0.006 0.0564,-0.006 0.1524,0.006 0.254,0.11289 0.1016,0.10724 0.0959,0.25964 0,0.14676 -0.10724,0.24836 -0.10725,0.1016 -0.254,0.1016 h -0.0452 q -0.0395,0 -0.11853,0.006 -0.0734,0.006 -0.1524,0.006 -0.37253,0.0113 -0.66604,0.006 -0.43463,-0.0113 -0.69427,-0.0564 -0.18627,-0.0339 -0.3048,-0.0903 -0.27093,-0.13546 -0.28222,-0.40075 -0.0113,-0.3048 0.27657,-0.54751 0.0621,-0.0508 0.11289,-0.0847 l 0.0677,-0.0508 q 0.0226,-0.0169 0.0395,-0.0452 0.0113,-0.006 0.26529,-0.25964 0.254,-0.24836 0.42333,-0.43462 l 0.0903,-0.1016 h -0.0452 q -0.10725,0 -0.31045,-0.006 -0.2032,-0.006 -0.27658,-0.006 -0.0847,0 -0.18062,0.006 -0.0959,0.006 -0.20884,0.0113 -0.11289,0.006 -0.18063,0.0113 -0.14675,0.006 -0.25964,-0.0903 -0.11289,-0.1016 -0.11853,-0.24836 -0.006,-0.1524 0.096,-0.26528 0.096,-0.11289 0.24836,-0.11854 z"
           style="font-style:normal;font-variant:normal;font-weight:normal;font-stretch:normal;font-size:5.64444447px;font-family:LDFComicSansBold;-inkscape-font-specification:LDFComicSansBold;fill:#cf0000;fill-opacity:1;stroke-width:0.07000434"
           id="path949" />
      </g>
    </g>
    <path
       style="fill:none;stroke:#00d290;stroke-width:0.4;stroke-linecap:round;stroke-linejoin:round;stroke-opacity:1;stroke-miterlimit:4;stroke-dasharray:none"
       d="m 83.7967,145.79814 c 0.56224,-0.42995 0.826823,-1.33945 0.942578,-1.35599 0.115755,-0.0165 0.297656,2.11667 0.363802,2.24896"
       id="path945"
       inkscape:connector-curvature="0" />
    <path
       style="fill:none;stroke:#6f00ff;stroke-width:0.4;stroke-linecap:round;stroke-linejoin:round;stroke-miterlimit:4;stroke-dasharray:none;stroke-opacity:1"
       d="m 72.120406,147.77025 c 0.510586,-0.39045 0.750861,-1.21639 0.855981,-1.23141 0.10512,-0.015 0.270309,1.9222 0.330378,2.04234"
       id="path945-3"
       inkscape:connector-curvature="0" />
  </g>
</svg>
