<?xml version="1.0" encoding="UTF-8" standalone="no"?>
<!-- Created with Inkscape (http://www.inkscape.org/) -->

<svg
   xmlns:dc="http://purl.org/dc/elements/1.1/"
   xmlns:cc="http://creativecommons.org/ns#"
   xmlns:rdf="http://www.w3.org/1999/02/22-rdf-syntax-ns#"
   xmlns:svg="http://www.w3.org/2000/svg"
   xmlns="http://www.w3.org/2000/svg"
   xmlns:sodipodi="http://sodipodi.sourceforge.net/DTD/sodipodi-0.dtd"
   xmlns:inkscape="http://www.inkscape.org/namespaces/inkscape"
   width="318.55832mm"
   height="128.05833mm"
   viewBox="0 0 318.55832 128.05833"
   version="1.1"
   id="svg1751"
   inkscape:version="0.92.3 (2405546, 2018-03-11)"
   sodipodi:docname="haeufungspunkt0.svg">
  <defs
     id="defs1745">
    <clipPath
       clipPathUnits="userSpaceOnUse"
       id="clipPath2667">
      <rect
         style="opacity:1;fill:none;fill-opacity:0.43529412;stroke:#1caad1;stroke-width:0.88702774;stroke-linecap:round;stroke-linejoin:round;stroke-miterlimit:4;stroke-dasharray:none;stroke-dashoffset:0;stroke-opacity:1;paint-order:stroke markers fill"
         id="rect2669"
         width="319.11981"
         height="100.94041"
         x="-71.344475"
         y="-78.215111" />
    </clipPath>
    <clipPath
       clipPathUnits="userSpaceOnUse"
       id="clipPath2671">
      <rect
         style="opacity:1;fill:none;fill-opacity:0.43529412;stroke:#1caad1;stroke-width:0.88940024;stroke-linecap:round;stroke-linejoin:round;stroke-miterlimit:4;stroke-dasharray:none;stroke-dashoffset:0;stroke-opacity:1;paint-order:stroke markers fill"
         id="rect2673"
         width="252.4342"
         height="128.28937"
         x="-106.17933"
         y="-29.144657" />
    </clipPath>
  </defs>
  <sodipodi:namedview
     id="base"
     pagecolor="#ffffff"
     bordercolor="#666666"
     borderopacity="1.0"
     inkscape:pageopacity="0.0"
     inkscape:pageshadow="2"
     inkscape:zoom="0.98994949"
     inkscape:cx="585.11825"
     inkscape:cy="277.50575"
     inkscape:document-units="mm"
     inkscape:current-layer="layer1"
     showgrid="false"
     fit-margin-top="0"
     fit-margin-left="0"
     fit-margin-right="0"
     fit-margin-bottom="0"
     inkscape:window-width="1920"
     inkscape:window-height="1015"
     inkscape:window-x="0"
     inkscape:window-y="0"
     inkscape:window-maximized="1" />
  <metadata
     id="metadata1748">
    <rdf:RDF>
      <cc:Work
         rdf:about="">
        <dc:format>image/svg+xml</dc:format>
        <dc:type
           rdf:resource="http://purl.org/dc/dcmitype/StillImage" />
        <dc:title></dc:title>
      </cc:Work>
    </rdf:RDF>
  </metadata>
  <g
     inkscape:label="Layer 1"
     inkscape:groupmode="layer"
     id="layer1"
     style="opacity:1"
     transform="translate(41.728565,-80.646431)">
    <g
       transform="matrix(1.2641702,0,0,1,92.500183,109.82732)"
       id="g2450"
       style=""
       clip-path="url(#clipPath2671)">
      <path
         sodipodi:nodetypes="cc"
         inkscape:connector-curvature="0"
         id="path888-5"
         d="M -136.09469,1.702951 H 675.53076"
         style="display:inline;fill:none;fill-opacity:1;stroke:#ebebeb;stroke-width:1;stroke-linecap:round;stroke-linejoin:round;stroke-miterlimit:4;stroke-dasharray:none;stroke-opacity:1" />
      <path
         sodipodi:nodetypes="cc"
         inkscape:connector-curvature="0"
         id="path888-3-9"
         d="M -135.06491,24.850458 H 676.56058"
         style="display:inline;fill:none;fill-opacity:1;stroke:#ebebeb;stroke-width:1;stroke-linecap:round;stroke-linejoin:round;stroke-miterlimit:4;stroke-dasharray:none;stroke-opacity:1" />
      <path
         sodipodi:nodetypes="cc"
         inkscape:connector-curvature="0"
         id="path888-3-1-2"
         d="m -134.03514,47.997965 h 811.6255"
         style="display:inline;fill:none;fill-opacity:1;stroke:#ebebeb;stroke-width:1;stroke-linecap:round;stroke-linejoin:round;stroke-miterlimit:4;stroke-dasharray:none;stroke-opacity:1" />
      <path
         sodipodi:nodetypes="cc"
         inkscape:connector-curvature="0"
         id="path888-2-2"
         d="M -138.15426,-44.592067 H 673.47119"
         style="display:inline;fill:none;fill-opacity:1;stroke:#ebebeb;stroke-width:1;stroke-linecap:round;stroke-linejoin:round;stroke-miterlimit:4;stroke-dasharray:none;stroke-opacity:1" />
      <path
         sodipodi:nodetypes="cc"
         inkscape:connector-curvature="0"
         id="path888-3-7-8"
         d="M -137.12448,-21.444556 H 674.50101"
         style="display:inline;fill:none;fill-opacity:1;stroke:#ebebeb;stroke-width:1;stroke-linecap:round;stroke-linejoin:round;stroke-miterlimit:4;stroke-dasharray:none;stroke-opacity:1" />
      <path
         sodipodi:nodetypes="cc"
         inkscape:connector-curvature="0"
         id="path888-9-9"
         d="M -131.97557,94.292972 H 679.64988"
         style="display:inline;fill:none;fill-opacity:1;stroke:#ebebeb;stroke-width:1;stroke-linecap:round;stroke-linejoin:round;stroke-miterlimit:4;stroke-dasharray:none;stroke-opacity:1" />
      <path
         sodipodi:nodetypes="cc"
         inkscape:connector-curvature="0"
         id="path888-3-3-7"
         d="M -130.94578,117.44048 H 680.67969"
         style="display:inline;fill:none;fill-opacity:1;stroke:#ebebeb;stroke-width:1;stroke-linecap:round;stroke-linejoin:round;stroke-miterlimit:4;stroke-dasharray:none;stroke-opacity:1" />
      <path
         sodipodi:nodetypes="cc"
         inkscape:connector-curvature="0"
         id="path888-3-1-6-36"
         d="M -129.91601,140.58799 H 681.70952"
         style="display:inline;fill:none;fill-opacity:1;stroke:#ebebeb;stroke-width:1;stroke-linecap:round;stroke-linejoin:round;stroke-miterlimit:4;stroke-dasharray:none;stroke-opacity:1" />
      <path
         sodipodi:nodetypes="cc"
         inkscape:connector-curvature="0"
         id="path888-3-7-6-1"
         d="M -133.00534,71.145472 H 678.62017"
         style="display:inline;fill:none;fill-opacity:1;stroke:#ebebeb;stroke-width:1;stroke-linecap:round;stroke-linejoin:round;stroke-miterlimit:4;stroke-dasharray:none;stroke-opacity:1" />
      <path
         sodipodi:nodetypes="cc"
         inkscape:connector-curvature="0"
         id="path888-26-2"
         d="M -127.85644,186.883 H 683.76904"
         style="display:inline;fill:none;fill-opacity:1;stroke:#ebebeb;stroke-width:1;stroke-linecap:round;stroke-linejoin:round;stroke-miterlimit:4;stroke-dasharray:none;stroke-opacity:1" />
      <path
         sodipodi:nodetypes="cc"
         inkscape:connector-curvature="0"
         id="path888-3-18-9"
         d="M -126.82666,210.03051 H 684.79888"
         style="display:inline;fill:none;fill-opacity:1;stroke:#ebebeb;stroke-width:1;stroke-linecap:round;stroke-linejoin:round;stroke-miterlimit:4;stroke-dasharray:none;stroke-opacity:1" />
      <path
         sodipodi:nodetypes="cc"
         inkscape:connector-curvature="0"
         id="path888-3-1-7-3"
         d="M -125.79688,233.178 H 685.82866"
         style="display:inline;fill:none;fill-opacity:1;stroke:#ebebeb;stroke-width:1;stroke-linecap:round;stroke-linejoin:round;stroke-miterlimit:4;stroke-dasharray:none;stroke-opacity:1" />
      <path
         sodipodi:nodetypes="cc"
         inkscape:connector-curvature="0"
         id="path888-3-7-2-1"
         d="M -128.88623,163.73549 H 682.73931"
         style="display:inline;fill:none;fill-opacity:1;stroke:#ebebeb;stroke-width:1;stroke-linecap:round;stroke-linejoin:round;stroke-miterlimit:4;stroke-dasharray:none;stroke-opacity:1" />
      <path
         sodipodi:nodetypes="cc"
         inkscape:connector-curvature="0"
         id="path888-9-0-9"
         d="M -123.73731,279.47302 H 687.88818"
         style="display:inline;fill:none;fill-opacity:1;stroke:#ebebeb;stroke-width:1;stroke-linecap:round;stroke-linejoin:round;stroke-miterlimit:4;stroke-dasharray:none;stroke-opacity:1" />
      <path
         sodipodi:nodetypes="cc"
         inkscape:connector-curvature="0"
         id="path888-3-3-2-4"
         d="M -122.70754,302.62055 H 688.918"
         style="display:inline;fill:none;fill-opacity:1;stroke:#ebebeb;stroke-width:1;stroke-linecap:round;stroke-linejoin:round;stroke-miterlimit:4;stroke-dasharray:none;stroke-opacity:1" />
      <path
         sodipodi:nodetypes="cc"
         inkscape:connector-curvature="0"
         id="path888-3-1-6-3-7"
         d="M -121.67774,325.76804 H 689.94778"
         style="display:inline;fill:none;fill-opacity:1;stroke:#ebebeb;stroke-width:1;stroke-linecap:round;stroke-linejoin:round;stroke-miterlimit:4;stroke-dasharray:none;stroke-opacity:1" />
      <path
         sodipodi:nodetypes="cc"
         inkscape:connector-curvature="0"
         id="path888-3-7-6-7-8"
         d="M -124.76709,256.32553 H 686.85843"
         style="display:inline;fill:none;fill-opacity:1;stroke:#ebebeb;stroke-width:1;stroke-linecap:round;stroke-linejoin:round;stroke-miterlimit:4;stroke-dasharray:none;stroke-opacity:1" />
    </g>
    <g
       id="g2354"
       transform="matrix(1,0,0,1.2709416,29.61591,180.0895)"
       style=""
       clip-path="url(#clipPath2667)">
      <path
         sodipodi:nodetypes="cc"
         inkscape:connector-curvature="0"
         id="path888"
         d="M -41.839886,353.71825 V -85.647713"
         style="display:inline;fill:none;fill-opacity:1;stroke:#ebebeb;stroke-width:1;stroke-linecap:round;stroke-linejoin:round;stroke-miterlimit:4;stroke-dasharray:none;stroke-opacity:1" />
      <path
         sodipodi:nodetypes="cc"
         inkscape:connector-curvature="0"
         id="path888-3"
         d="M -18.692379,353.16079 V -86.205198"
         style="display:inline;fill:none;fill-opacity:1;stroke:#ebebeb;stroke-width:1;stroke-linecap:round;stroke-linejoin:round;stroke-miterlimit:4;stroke-dasharray:none;stroke-opacity:1" />
      <path
         sodipodi:nodetypes="cc"
         inkscape:connector-curvature="0"
         id="path888-3-1"
         d="M 4.455127,352.60333 V -86.762665"
         style="display:inline;fill:none;fill-opacity:1;stroke:#ebebeb;stroke-width:1;stroke-linecap:round;stroke-linejoin:round;stroke-miterlimit:4;stroke-dasharray:none;stroke-opacity:1" />
      <path
         sodipodi:nodetypes="cc"
         inkscape:connector-curvature="0"
         id="path888-2"
         d="M -88.1349,354.83318 V -84.532791"
         style="display:inline;fill:none;fill-opacity:1;stroke:#ebebeb;stroke-width:1;stroke-linecap:round;stroke-linejoin:round;stroke-miterlimit:4;stroke-dasharray:none;stroke-opacity:1" />
      <path
         sodipodi:nodetypes="cc"
         inkscape:connector-curvature="0"
         id="path888-3-7"
         d="M -64.987393,354.27572 V -85.090277"
         style="display:inline;fill:none;fill-opacity:1;stroke:#ebebeb;stroke-width:1;stroke-linecap:round;stroke-linejoin:round;stroke-miterlimit:4;stroke-dasharray:none;stroke-opacity:1" />
      <path
         sodipodi:nodetypes="cc"
         inkscape:connector-curvature="0"
         id="path888-9"
         d="M 50.750137,351.4884 V -87.877571"
         style="display:inline;fill:none;fill-opacity:1;stroke:#ebebeb;stroke-width:1;stroke-linecap:round;stroke-linejoin:round;stroke-miterlimit:4;stroke-dasharray:none;stroke-opacity:1" />
      <path
         sodipodi:nodetypes="cc"
         inkscape:connector-curvature="0"
         id="path888-3-3"
         d="M 73.897647,350.93094 V -88.435056"
         style="display:inline;fill:none;fill-opacity:1;stroke:#ebebeb;stroke-width:1;stroke-linecap:round;stroke-linejoin:round;stroke-miterlimit:4;stroke-dasharray:none;stroke-opacity:1" />
      <path
         sodipodi:nodetypes="cc"
         inkscape:connector-curvature="0"
         id="path888-3-1-6"
         d="M 97.045157,350.37348 V -88.992524"
         style="display:inline;fill:none;fill-opacity:1;stroke:#ebebeb;stroke-width:1;stroke-linecap:round;stroke-linejoin:round;stroke-miterlimit:4;stroke-dasharray:none;stroke-opacity:1" />
      <path
         sodipodi:nodetypes="cc"
         inkscape:connector-curvature="0"
         id="path888-3-7-6"
         d="M 27.602637,352.04586 V -87.320135"
         style="display:inline;fill:none;fill-opacity:1;stroke:#ebebeb;stroke-width:1;stroke-linecap:round;stroke-linejoin:round;stroke-miterlimit:4;stroke-dasharray:none;stroke-opacity:1" />
      <path
         sodipodi:nodetypes="cc"
         inkscape:connector-curvature="0"
         id="path888-26"
         d="M 143.34017,349.25855 V -90.107425"
         style="display:inline;fill:none;fill-opacity:1;stroke:#ebebeb;stroke-width:1;stroke-linecap:round;stroke-linejoin:round;stroke-miterlimit:4;stroke-dasharray:none;stroke-opacity:1" />
      <path
         sodipodi:nodetypes="cc"
         inkscape:connector-curvature="0"
         id="path888-3-18"
         d="M 166.48768,348.70109 V -90.664911"
         style="display:inline;fill:none;fill-opacity:1;stroke:#ebebeb;stroke-width:1;stroke-linecap:round;stroke-linejoin:round;stroke-miterlimit:4;stroke-dasharray:none;stroke-opacity:1" />
      <path
         sodipodi:nodetypes="cc"
         inkscape:connector-curvature="0"
         id="path888-3-1-7"
         d="M 189.63517,348.14362 V -91.222378"
         style="display:inline;fill:none;fill-opacity:1;stroke:#ebebeb;stroke-width:1;stroke-linecap:round;stroke-linejoin:round;stroke-miterlimit:4;stroke-dasharray:none;stroke-opacity:1" />
      <path
         sodipodi:nodetypes="cc"
         inkscape:connector-curvature="0"
         id="path888-3-7-2"
         d="M 120.19266,349.81601 V -89.549989"
         style="display:inline;fill:none;fill-opacity:1;stroke:#ebebeb;stroke-width:1;stroke-linecap:round;stroke-linejoin:round;stroke-miterlimit:4;stroke-dasharray:none;stroke-opacity:1" />
      <path
         sodipodi:nodetypes="cc"
         inkscape:connector-curvature="0"
         id="path888-9-0"
         d="M 235.93019,347.0287 V -92.337284"
         style="display:inline;fill:none;fill-opacity:1;stroke:#ebebeb;stroke-width:1;stroke-linecap:round;stroke-linejoin:round;stroke-miterlimit:4;stroke-dasharray:none;stroke-opacity:1" />
      <path
         sodipodi:nodetypes="cc"
         inkscape:connector-curvature="0"
         id="path888-3-3-2"
         d="M 259.07772,346.47123 V -92.894769"
         style="display:inline;fill:none;fill-opacity:1;stroke:#ebebeb;stroke-width:1;stroke-linecap:round;stroke-linejoin:round;stroke-miterlimit:4;stroke-dasharray:none;stroke-opacity:1" />
      <path
         sodipodi:nodetypes="cc"
         inkscape:connector-curvature="0"
         id="path888-3-1-6-3"
         d="M 282.22521,345.91377 V -93.452236"
         style="display:inline;fill:none;fill-opacity:1;stroke:#ebebeb;stroke-width:1;stroke-linecap:round;stroke-linejoin:round;stroke-miterlimit:4;stroke-dasharray:none;stroke-opacity:1" />
      <path
         sodipodi:nodetypes="cc"
         inkscape:connector-curvature="0"
         id="path888-3-7-6-7"
         d="M 212.7827,347.58616 V -91.779848"
         style="display:inline;fill:none;fill-opacity:1;stroke:#ebebeb;stroke-width:1;stroke-linecap:round;stroke-linejoin:round;stroke-miterlimit:4;stroke-dasharray:none;stroke-opacity:1" />
      <path
         sodipodi:nodetypes="cc"
         inkscape:connector-curvature="0"
         id="path888-93"
         d="M 328.52022,344.79885 V -94.56712"
         style="display:inline;fill:none;fill-opacity:1;stroke:#ebebeb;stroke-width:1;stroke-linecap:round;stroke-linejoin:round;stroke-miterlimit:4;stroke-dasharray:none;stroke-opacity:1" />
      <path
         sodipodi:nodetypes="cc"
         inkscape:connector-curvature="0"
         id="path888-3-74"
         d="M 351.66772,344.24138 V -95.124605"
         style="display:inline;fill:none;fill-opacity:1;stroke:#ebebeb;stroke-width:1;stroke-linecap:round;stroke-linejoin:round;stroke-miterlimit:4;stroke-dasharray:none;stroke-opacity:1" />
      <path
         sodipodi:nodetypes="cc"
         inkscape:connector-curvature="0"
         id="path888-3-1-5"
         d="M 374.81523,343.68392 V -95.682072"
         style="display:inline;fill:none;fill-opacity:1;stroke:#ebebeb;stroke-width:1;stroke-linecap:round;stroke-linejoin:round;stroke-miterlimit:4;stroke-dasharray:none;stroke-opacity:1" />
      <path
         sodipodi:nodetypes="cc"
         inkscape:connector-curvature="0"
         id="path888-3-7-4"
         d="M 305.37271,345.35631 V -94.009684"
         style="display:inline;fill:none;fill-opacity:1;stroke:#ebebeb;stroke-width:1;stroke-linecap:round;stroke-linejoin:round;stroke-miterlimit:4;stroke-dasharray:none;stroke-opacity:1" />
      <path
         sodipodi:nodetypes="cc"
         inkscape:connector-curvature="0"
         id="path888-9-7"
         d="M 421.11024,342.56899 V -96.796978"
         style="display:inline;fill:none;fill-opacity:1;stroke:#ebebeb;stroke-width:1;stroke-linecap:round;stroke-linejoin:round;stroke-miterlimit:4;stroke-dasharray:none;stroke-opacity:1" />
      <path
         sodipodi:nodetypes="cc"
         inkscape:connector-curvature="0"
         id="path888-3-3-4"
         d="M 444.25775,342.01153 V -97.354463"
         style="display:inline;fill:none;fill-opacity:1;stroke:#ebebeb;stroke-width:1;stroke-linecap:round;stroke-linejoin:round;stroke-miterlimit:4;stroke-dasharray:none;stroke-opacity:1" />
      <path
         sodipodi:nodetypes="cc"
         inkscape:connector-curvature="0"
         id="path888-3-1-6-4"
         d="M 467.40526,341.45407 V -97.911931"
         style="display:inline;fill:none;fill-opacity:1;stroke:#ebebeb;stroke-width:1;stroke-linecap:round;stroke-linejoin:round;stroke-miterlimit:4;stroke-dasharray:none;stroke-opacity:1" />
      <path
         sodipodi:nodetypes="cc"
         inkscape:connector-curvature="0"
         id="path888-3-7-6-3"
         d="M 397.96274,343.12646 V -96.239542"
         style="display:inline;fill:none;fill-opacity:1;stroke:#ebebeb;stroke-width:1;stroke-linecap:round;stroke-linejoin:round;stroke-miterlimit:4;stroke-dasharray:none;stroke-opacity:1" />
      <path
         sodipodi:nodetypes="cc"
         inkscape:connector-curvature="0"
         id="path888-26-0"
         d="M 513.70027,340.33914 V -99.026832"
         style="display:inline;fill:none;fill-opacity:1;stroke:#ebebeb;stroke-width:1;stroke-linecap:round;stroke-linejoin:round;stroke-miterlimit:4;stroke-dasharray:none;stroke-opacity:1" />
      <path
         sodipodi:nodetypes="cc"
         inkscape:connector-curvature="0"
         id="path888-3-18-7"
         d="M 536.84778,339.78168 V -99.584318"
         style="display:inline;fill:none;fill-opacity:1;stroke:#ebebeb;stroke-width:1;stroke-linecap:round;stroke-linejoin:round;stroke-miterlimit:4;stroke-dasharray:none;stroke-opacity:1" />
      <path
         sodipodi:nodetypes="cc"
         inkscape:connector-curvature="0"
         id="path888-3-1-7-8"
         d="m 559.99527,339.22422 v -439.366"
         style="display:inline;fill:none;fill-opacity:1;stroke:#ebebeb;stroke-width:1;stroke-linecap:round;stroke-linejoin:round;stroke-miterlimit:4;stroke-dasharray:none;stroke-opacity:1" />
      <path
         sodipodi:nodetypes="cc"
         inkscape:connector-curvature="0"
         id="path888-3-7-2-6"
         d="M 490.55276,340.89661 V -98.469396"
         style="display:inline;fill:none;fill-opacity:1;stroke:#ebebeb;stroke-width:1;stroke-linecap:round;stroke-linejoin:round;stroke-miterlimit:4;stroke-dasharray:none;stroke-opacity:1" />
      <path
         sodipodi:nodetypes="cc"
         inkscape:connector-curvature="0"
         id="path888-9-0-8"
         d="M 606.29029,338.10929 V -101.25669"
         style="display:inline;fill:none;fill-opacity:1;stroke:#ebebeb;stroke-width:1;stroke-linecap:round;stroke-linejoin:round;stroke-miterlimit:4;stroke-dasharray:none;stroke-opacity:1" />
      <path
         sodipodi:nodetypes="cc"
         inkscape:connector-curvature="0"
         id="path888-3-3-2-8"
         d="M 629.43782,337.55183 V -101.81418"
         style="display:inline;fill:none;fill-opacity:1;stroke:#ebebeb;stroke-width:1;stroke-linecap:round;stroke-linejoin:round;stroke-miterlimit:4;stroke-dasharray:none;stroke-opacity:1" />
      <path
         sodipodi:nodetypes="cc"
         inkscape:connector-curvature="0"
         id="path888-3-1-6-3-4"
         d="m 652.58531,336.99436 v -439.366"
         style="display:inline;fill:none;fill-opacity:1;stroke:#ebebeb;stroke-width:1;stroke-linecap:round;stroke-linejoin:round;stroke-miterlimit:4;stroke-dasharray:none;stroke-opacity:1" />
      <path
         sodipodi:nodetypes="cc"
         inkscape:connector-curvature="0"
         id="path888-3-7-6-7-3"
         d="m 583.1428,338.66675 v -439.366"
         style="display:inline;fill:none;fill-opacity:1;stroke:#ebebeb;stroke-width:1;stroke-linecap:round;stroke-linejoin:round;stroke-miterlimit:4;stroke-dasharray:none;stroke-opacity:1" />
    </g>
  </g>
  <g
     inkscape:groupmode="layer"
     id="layer3"
     inkscape:label="Layer 2">
    <path
       style="fill:none;stroke:#000000;stroke-width:1;stroke-linecap:round;stroke-linejoin:round;stroke-miterlimit:4;stroke-dasharray:none;stroke-opacity:1"
       d="M 52.652096,120.70843 V 11.595637"
       id="path2368"
       inkscape:connector-curvature="0" />
    <path
       style="fill:none;stroke:#000000;stroke-width:1;stroke-linecap:round;stroke-linejoin:round;stroke-miterlimit:4;stroke-dasharray:none;stroke-opacity:1"
       d="m 47.908061,18.277375 4.744035,-6.681738 4.476766,6.548103"
       id="path2370"
       inkscape:connector-curvature="0" />
    <path
       style="fill:none;stroke:#000000;stroke-width:1;stroke-linecap:round;stroke-linejoin:round;stroke-miterlimit:4;stroke-dasharray:none;stroke-opacity:1"
       d="M 7.1815475,77.178852 H 119.20221"
       id="path2372"
       inkscape:connector-curvature="0" />
    <path
       style="fill:none;stroke:#000000;stroke-width:1;stroke-linecap:round;stroke-linejoin:round;stroke-miterlimit:4;stroke-dasharray:none;stroke-opacity:1"
       d="m 113.85682,72.666724 5.34539,4.512128 -5.34539,4.441401"
       id="path2374"
       inkscape:connector-curvature="0" />
    <path
       style="fill:none;stroke:#000000;stroke-width:1;stroke-linecap:round;stroke-linejoin:round;stroke-miterlimit:4;stroke-dasharray:none;stroke-opacity:1"
       d="m 141.98693,73.000811 c 9.55489,-4.075861 19.5775,-2.539061 21.24793,-2.004523"
       id="path2376"
       inkscape:connector-curvature="0" />
    <path
       style="fill:none;stroke:#000000;stroke-width:1;stroke-linecap:round;stroke-linejoin:round;stroke-miterlimit:4;stroke-dasharray:none;stroke-opacity:1"
       d="m 163.63577,69.392672 c 0.86862,1.069078 3.20723,1.937703 3.14041,2.204974 -0.0668,0.267269 -2.93996,1.737252 -2.93996,1.737252"
       id="path2378"
       inkscape:connector-curvature="0" />
    <path
       style="fill:none;stroke:#000000;stroke-width:1;stroke-linecap:round;stroke-linejoin:round;stroke-miterlimit:4;stroke-dasharray:none;stroke-opacity:1"
       d="m 153.71819,74.273161 c -0.92132,-0.968566 -2.36235,-1.724518 -2.78757,-0.566966 -0.42523,1.157553 0.4016,2.480469 1.39378,2.456845 0.99219,-0.02363 2.1025,-1.889879 1.77177,-1.937129 -0.33073,-0.04725 -0.21262,3.638021 0.0945,4.464844 0.30711,0.826823 -1.53553,2.291482 -3.54353,-0.590587"
       id="path2380"
       inkscape:connector-curvature="0" />
    <path
       style="fill:none;stroke:#000000;stroke-width:1;stroke-linecap:round;stroke-linejoin:round;stroke-miterlimit:4;stroke-dasharray:none;stroke-opacity:1"
       d="m 152.74963,63.406345 c 0.68508,-0.685083 0.47247,-2.362351 -0.51972,-2.126118 -0.99219,0.236236 -1.27567,3.850632 -0.37798,6.590961"
       id="path2382"
       inkscape:connector-curvature="0" />
    <path
       style="fill:none;stroke:#000000;stroke-width:1;stroke-linecap:round;stroke-linejoin:round;stroke-miterlimit:4;stroke-dasharray:none;stroke-opacity:1"
       d="m 150.26916,66.004931 c 0.44884,-0.212613 2.33873,-0.874072 3.5199,-0.708707"
       id="path2384"
       inkscape:connector-curvature="0" />
    <path
       style="fill:none;stroke:#000000;stroke-width:1;stroke-linecap:round;stroke-linejoin:round;stroke-miterlimit:4;stroke-dasharray:none;stroke-opacity:1"
       d="M 183.45816,77.178852 H 295.81158"
       id="path2386"
       inkscape:connector-curvature="0" />
    <path
       style="fill:none;stroke:#000000;stroke-width:1;stroke-linecap:round;stroke-linejoin:round;stroke-miterlimit:4;stroke-dasharray:none;stroke-opacity:1"
       d="m 289.90571,72.595891 5.90587,4.582959 -5.81139,4.582964"
       id="path2388"
       inkscape:connector-curvature="0" />
    <path
       style="fill:none;stroke:#000000;stroke-width:1;stroke-linecap:round;stroke-linejoin:round;stroke-miterlimit:4;stroke-dasharray:none;stroke-opacity:1"
       d="M 228.86255,120.98866 V 11.363749"
       id="path2390"
       inkscape:connector-curvature="0" />
    <path
       style="fill:none;stroke:#000000;stroke-width:1;stroke-linecap:round;stroke-linejoin:round;stroke-miterlimit:4;stroke-dasharray:none;stroke-opacity:1"
       d="m 224.1851,18.49805 4.67745,-7.134301 4.67746,7.134301"
       id="path2392"
       inkscape:connector-curvature="0" />
    <circle
       style="opacity:1;fill:none;fill-opacity:0.40784314;stroke:#001400;stroke-width:1;stroke-linecap:round;stroke-linejoin:round;stroke-miterlimit:4;stroke-dasharray:none;stroke-dashoffset:0;stroke-opacity:1;paint-order:stroke markers fill"
       id="path2394"
       cx="52.6521"
       cy="77.009857"
       r="2.9232605" />
    <circle
       style="opacity:1;fill:#1caad1;fill-opacity:1;stroke:none;stroke-width:1;stroke-linecap:round;stroke-linejoin:round;stroke-miterlimit:4;stroke-dasharray:none;stroke-dashoffset:0;stroke-opacity:1;paint-order:stroke markers fill"
       id="path2396"
       cx="228.93546"
       cy="77.391457"
       r="1.5827754" />
    <path
       style="fill:none;fill-opacity:0.43529412;stroke:#1caad1;stroke-width:1;stroke-linecap:round;stroke-linejoin:round;stroke-miterlimit:4;stroke-dasharray:none;stroke-opacity:1"
       d="m 12.37872,74.769254 c 1.535528,1.393786 3.685268,2.43322 3.874256,4.204983"
       id="path2407"
       inkscape:connector-curvature="0" />
    <path
       style="fill:none;fill-opacity:0.43529412;stroke:#1caad1;stroke-width:1;stroke-linecap:round;stroke-linejoin:round;stroke-miterlimit:4;stroke-dasharray:none;stroke-opacity:1"
       d="m 12.756696,79.210473 c 1.346541,-0.921316 3.945127,-3.378163 4.299479,-4.535715"
       id="path2409"
       inkscape:connector-curvature="0" />
    <path
       style="fill:none;fill-opacity:0.43529412;stroke:#1caad1;stroke-width:1;stroke-linecap:round;stroke-linejoin:round;stroke-miterlimit:4;stroke-dasharray:none;stroke-opacity:1"
       d="m 23.174665,74.627512 c 1.724516,1.81901 3.685268,3.354538 3.685268,3.567149"
       id="path2411"
       inkscape:connector-curvature="0" />
    <path
       style="fill:none;fill-opacity:0.43529412;stroke:#1caad1;stroke-width:1;stroke-linecap:round;stroke-linejoin:round;stroke-miterlimit:4;stroke-dasharray:none;stroke-opacity:1"
       d="m 23.859747,78.785251 c 0.04725,-0.118118 3.968749,-3.732517 3.968749,-3.732517"
       id="path2413"
       inkscape:connector-curvature="0" />
    <path
       style="fill:none;fill-opacity:0.43529412;stroke:#1caad1;stroke-width:1;stroke-linecap:round;stroke-linejoin:round;stroke-miterlimit:4;stroke-dasharray:none;stroke-opacity:1"
       d="m 32.175222,75.099983 3.614399,3.661643"
       id="path2415"
       inkscape:connector-curvature="0" />
    <path
       style="fill:none;fill-opacity:0.43529412;stroke:#1caad1;stroke-width:1;stroke-linecap:round;stroke-linejoin:round;stroke-miterlimit:4;stroke-dasharray:none;stroke-opacity:1"
       d="m 32.222469,78.619886 c 0.236236,-0.04725 3.779763,-3.071058 3.850634,-3.401787"
       id="path2417"
       inkscape:connector-curvature="0" />
    <path
       style="fill:none;fill-opacity:0.43529412;stroke:#1caad1;stroke-width:1;stroke-linecap:round;stroke-linejoin:round;stroke-miterlimit:4;stroke-dasharray:none;stroke-opacity:1"
       d="m 41.459263,75.808688 c 0.377976,0.212612 3.42541,2.220609 3.401785,2.740327"
       id="path2419"
       inkscape:connector-curvature="0" />
    <path
       style="fill:none;fill-opacity:0.43529412;stroke:#1caad1;stroke-width:1;stroke-linecap:round;stroke-linejoin:round;stroke-miterlimit:4;stroke-dasharray:none;stroke-opacity:1"
       d="m 42.026228,79.045109 c -0.07087,-0.755952 2.43322,-2.787574 2.716702,-2.905691"
       id="path2421"
       inkscape:connector-curvature="0" />
    <path
       style="fill:none;fill-opacity:0.43529412;stroke:#1caad1;stroke-width:1;stroke-linecap:round;stroke-linejoin:round;stroke-miterlimit:4;stroke-dasharray:none;stroke-opacity:1"
       d="m 48.782551,75.950428 c 0.944941,0.708705 2.834823,2.244233 2.88207,2.645834"
       id="path2423"
       inkscape:connector-curvature="0" />
    <path
       style="fill:none;fill-opacity:0.43529412;stroke:#1caad1;stroke-width:1;stroke-linecap:round;stroke-linejoin:round;stroke-miterlimit:4;stroke-dasharray:none;stroke-opacity:1"
       d="m 49.160527,78.596262 c 0.307107,-0.543341 2.716705,-2.527716 2.858445,-2.669456"
       id="path2425"
       inkscape:connector-curvature="0" />
    <path
       style="fill:none;fill-opacity:0.43529412;stroke:#1caad1;stroke-width:1;stroke-linecap:round;stroke-linejoin:round;stroke-miterlimit:4;stroke-dasharray:none;stroke-opacity:1"
       d="m 51.40476,75.501581 c 0.141743,0.118118 2.385976,2.716705 2.385976,2.929316"
       id="path2427"
       inkscape:connector-curvature="0" />
    <path
       style="fill:none;fill-opacity:0.43529412;stroke:#1caad1;stroke-width:1;stroke-linecap:round;stroke-linejoin:round;stroke-miterlimit:4;stroke-dasharray:none;stroke-opacity:1"
       d="m 51.664621,78.596262 c 0,-0.519716 1.582774,-2.763952 2.196986,-2.69308"
       id="path2429"
       inkscape:connector-curvature="0" />
    <path
       style="fill:none;fill-opacity:0.43529412;stroke:#1caad1;stroke-width:1;stroke-linecap:round;stroke-linejoin:round;stroke-miterlimit:4;stroke-dasharray:none;stroke-opacity:1"
       d="M 56.318451,78.71438 C 55.893228,78.312779 53.341888,75.785064 52.987537,75.737817"
       id="path2431"
       inkscape:connector-curvature="0" />
    <path
       style="fill:none;fill-opacity:0.43529412;stroke:#1caad1;stroke-width:1;stroke-linecap:round;stroke-linejoin:round;stroke-miterlimit:4;stroke-dasharray:none;stroke-opacity:1"
       d="m 53.294642,78.619886 c 0,0 2.69308,-2.196986 2.929316,-2.315104"
       id="path2433"
       inkscape:connector-curvature="0" />
    <path
       style="fill:none;fill-opacity:0.43529412;stroke:#1caad1;stroke-width:1;stroke-linecap:round;stroke-linejoin:round;stroke-miterlimit:4;stroke-dasharray:none;stroke-opacity:1"
       d="m 62.791294,75.454335 c 1.181174,0.614211 3.260045,2.858444 3.283667,2.95294"
       id="path2435"
       inkscape:connector-curvature="0" />
    <path
       style="fill:none;fill-opacity:0.43529412;stroke:#1caad1;stroke-width:1;stroke-linecap:round;stroke-linejoin:round;stroke-miterlimit:4;stroke-dasharray:none;stroke-opacity:1"
       d="m 63.287388,78.478144 c 0.354351,-0.614212 3.165549,-3.260045 3.354538,-3.165549"
       id="path2437"
       inkscape:connector-curvature="0" />
    <path
       style="fill:none;fill-opacity:0.43529412;stroke:#1caad1;stroke-width:1;stroke-linecap:round;stroke-linejoin:round;stroke-miterlimit:4;stroke-dasharray:none;stroke-opacity:1"
       d="m 82.446055,75.808688 c 0.165364,0.165365 2.4096,2.315105 2.4096,2.622209"
       id="path2439"
       inkscape:connector-curvature="0" />
    <path
       style="fill:none;fill-opacity:0.43529412;stroke:#1caad1;stroke-width:1;stroke-linecap:round;stroke-linejoin:round;stroke-miterlimit:4;stroke-dasharray:none;stroke-opacity:1"
       d="m 82.233444,78.312779 c 0.330729,-0.236233 2.905693,-1.984375 2.929315,-2.83482"
       id="path2441"
       inkscape:connector-curvature="0" />
    <path
       style="fill:none;fill-opacity:0.43529412;stroke:#1caad1;stroke-width:1;stroke-linecap:round;stroke-linejoin:round;stroke-miterlimit:4;stroke-dasharray:none;stroke-opacity:1"
       d="m 87.38337,75.029112 c 0.212611,0.330729 3.118303,3.661643 3.590774,4.228608"
       id="path2443"
       inkscape:connector-curvature="0" />
    <path
       style="fill:none;fill-opacity:0.43529412;stroke:#1caad1;stroke-width:1;stroke-linecap:round;stroke-linejoin:round;stroke-miterlimit:4;stroke-dasharray:none;stroke-opacity:1"
       d="m 87.832217,78.407275 c 0.09449,-0.0945 2.740327,-2.456847 3.000185,-2.882069"
       id="path2445"
       inkscape:connector-curvature="0" />
    <path
       style="fill:none;fill-opacity:0.43529412;stroke:#1caad1;stroke-width:1;stroke-linecap:round;stroke-linejoin:round;stroke-miterlimit:4;stroke-dasharray:none;stroke-opacity:1"
       d="m 99.525856,75.14723 c 0.803194,0.448847 3.236424,3.189174 3.141924,3.543525"
       id="path2447"
       inkscape:connector-curvature="0" />
    <path
       style="fill:none;fill-opacity:0.43529412;stroke:#1caad1;stroke-width:1;stroke-linecap:round;stroke-linejoin:round;stroke-miterlimit:4;stroke-dasharray:none;stroke-opacity:1"
       d="m 99.620349,78.360026 c 0.566961,-0.472469 2.669451,-1.275668 2.551341,-2.787573"
       id="path2449"
       inkscape:connector-curvature="0" />
    <path
       style="fill:none;stroke:#1caad1;stroke-width:1;stroke-linecap:round;stroke-linejoin:round;stroke-miterlimit:4;stroke-dasharray:none;stroke-opacity:1"
       d="m 35.895925,87.797621 c 0.944941,-1.547342 1.901693,-5.279856 2.137929,-5.256231 0.236236,0.02363 2.043432,4.642019 2.763951,5.244417"
       id="path2451"
       inkscape:connector-curvature="0" />
    <path
       style="fill:none;stroke:#1caad1;stroke-width:1;stroke-linecap:round;stroke-linejoin:round;stroke-miterlimit:4;stroke-dasharray:none;stroke-opacity:1"
       d="m 36.616444,86.604633 3.96875,-0.507905"
       id="path2453"
       inkscape:connector-curvature="0" />
    <path
       style="fill:none;stroke:#1caad1;stroke-width:1;stroke-linecap:round;stroke-linejoin:round;stroke-miterlimit:4;stroke-dasharray:none;stroke-opacity:1"
       d="m 245.51916,65.414342 c -3.66165,2.291482 -8.81157,7.441406 -8.85882,8.102864"
       id="path2455"
       inkscape:connector-curvature="0" />
    <path
       style="fill:none;stroke:#1caad1;stroke-width:1;stroke-linecap:round;stroke-linejoin:round;stroke-miterlimit:4;stroke-dasharray:none;stroke-opacity:1"
       d="m 238.55022,73.658949 c -0.63783,0 -1.88988,-0.141743 -1.88988,-0.141743 0,0 0.0236,-2.173361 0.23624,-2.716702"
       id="path2457"
       inkscape:connector-curvature="0" />
    <path
       style="fill:none;stroke:#1caad1;stroke-width:1;stroke-linecap:round;stroke-linejoin:round;stroke-miterlimit:4;stroke-dasharray:none;stroke-opacity:1"
       d="m 249.60602,47.082498 c 0.11812,1.27567 -0.7087,5.953125 0.18899,6.945312"
       id="path2459"
       inkscape:connector-curvature="0" />
    <path
       style="fill:none;stroke:#1caad1;stroke-width:1;stroke-linecap:round;stroke-linejoin:round;stroke-miterlimit:4;stroke-dasharray:none;stroke-opacity:1"
       d="m 252.7952,47.271484 c 0.30711,0.944941 0.59059,6.283855 0.4016,6.567337"
       id="path2461"
       inkscape:connector-curvature="0" />
    <path
       style="fill:none;stroke:#1caad1;stroke-width:1;stroke-linecap:round;stroke-linejoin:round;stroke-miterlimit:4;stroke-dasharray:none;stroke-opacity:1"
       d="m 249.51153,51.240234 3.47266,-0.02363"
       id="path2463"
       inkscape:connector-curvature="0" />
    <path
       style="fill:none;stroke:#1caad1;stroke-width:1;stroke-linecap:round;stroke-linejoin:round;stroke-miterlimit:4;stroke-dasharray:none;stroke-opacity:1"
       d="m 257.1183,50.93313 c -1.37016,-0.212611 -2.92931,1.677268 -1.5119,3.000187 1.41741,1.322917 2.50409,-0.59059 2.66945,-0.826826 0.16537,-0.236233 0.35436,-2.10249 0.0709,-2.031621 -0.28348,0.07087 0.11812,2.196989 1.03944,2.574964"
       id="path2465"
       inkscape:connector-curvature="0" />
    <path
       style="fill:none;stroke:#1caad1;stroke-width:1;stroke-linecap:round;stroke-linejoin:round;stroke-miterlimit:4;stroke-dasharray:none;stroke-opacity:1"
       d="m 260.87444,50.555154 c -0.33073,1.393785 -0.18899,3.401785 0.44885,3.543528 0.63783,0.14174 1.70089,-0.685083 1.81901,-1.346542 0.11811,-0.661458 0.92131,-2.102493 0.47247,-2.173364 -0.44885,-0.07087 -0.44885,2.220611 0.75595,3.212798"
       id="path2467"
       inkscape:connector-curvature="0" />
    <path
       style="fill:none;stroke:#1caad1;stroke-width:1;stroke-linecap:round;stroke-linejoin:round;stroke-miterlimit:4;stroke-dasharray:none;stroke-opacity:1"
       d="m 267.86699,48.759766 c 0.77957,-1.41741 1.65365,-2.338726 -0.16536,-3.472657 -1.81901,-1.133927 -0.75594,10.039993 -1.03944,11.646392"
       id="path2469"
       inkscape:connector-curvature="0" />
    <path
       style="fill:none;stroke:#1caad1;stroke-width:1;stroke-linecap:round;stroke-linejoin:round;stroke-miterlimit:4;stroke-dasharray:none;stroke-opacity:1"
       d="m 265.45741,52.279669 c 0.42521,-0.188987 2.83482,-0.779574 2.83482,-0.779574"
       id="path2471"
       inkscape:connector-curvature="0" />
    <path
       style="fill:none;stroke:#1caad1;stroke-width:1;stroke-linecap:round;stroke-linejoin:round;stroke-miterlimit:4;stroke-dasharray:none;stroke-opacity:1"
       d="m 270.1821,50.366165 c -0.4961,1.063059 -0.77957,2.763951 0.11811,3.401787 0.8977,0.637834 1.67727,-0.685083 1.96077,-0.874072 0.28348,-0.188986 0.40159,-1.913503 0.18897,-1.889879 -0.21259,0.02363 0.0473,2.551338 1.29931,3.047431"
       id="path2473"
       inkscape:connector-curvature="0" />
    <path
       style="fill:none;stroke:#1caad1;stroke-width:1;stroke-linecap:round;stroke-linejoin:round;stroke-miterlimit:4;stroke-dasharray:none;stroke-opacity:1"
       d="m 274.67057,50.318918 c 0.23625,0.543341 1.37017,3.732514 1.15755,3.756139 -0.21262,0.02363 -0.47246,-3.189174 0.54335,-3.449034 1.01581,-0.259858 2.0316,1.511906 2.48047,3.425409"
       id="path2475"
       inkscape:connector-curvature="0" />
    <path
       style="fill:none;stroke:#1caad1;stroke-width:1;stroke-linecap:round;stroke-linejoin:round;stroke-miterlimit:4;stroke-dasharray:none;stroke-opacity:1"
       d="m 283.03328,51.452846 c -1.08667,-0.496094 -2.90568,-0.637834 -2.6222,1.039436 0.2835,1.677268 0.99218,1.55915 1.7009,1.393786 0.70871,-0.165365 1.63001,-2.433222 1.44102,-2.385973 -0.18899,0.04725 -0.6142,2.480469 -0.0472,4.606584 0.56695,2.126117 -3.18918,5.008184 -3.61442,-0.02363"
       id="path2477"
       inkscape:connector-curvature="0" />
    <path
       style="fill:none;stroke:#1caad1;stroke-width:1;stroke-linecap:round;stroke-linejoin:round;stroke-miterlimit:4;stroke-dasharray:none;stroke-opacity:1"
       d="m 286.97843,51.216612 c 0.16536,-0.54334 0.18897,-1.606399 -1.03944,-0.566965 -1.22844,1.039435 0.0945,1.630022 0.80319,2.078869 0.70872,0.448847 2.62221,2.55134 -2.07885,1.204801"
       id="path2479"
       inkscape:connector-curvature="0" />
    <path
       style="fill:none;stroke:#1caad1;stroke-width:1;stroke-linecap:round;stroke-linejoin:round;stroke-miterlimit:4;stroke-dasharray:none;stroke-opacity:1"
       d="m 289.67149,51.027623 c 0.0709,0.826823 1.84264,7.276042 1.46466,7.276042 -0.37796,0 -2.17334,-4.748326 0.61423,-7.5359 2.78757,-2.787576 1.58277,1.606399 1.18118,1.960751 -0.47247,0.685083 -1.77179,1.81901 -2.48047,0.94494"
       id="path2481"
       inkscape:connector-curvature="0"
       sodipodi:nodetypes="csscc" />
    <path
       style="fill:none;stroke:#1caad1;stroke-width:1;stroke-linecap:round;stroke-linejoin:round;stroke-miterlimit:4;stroke-dasharray:none;stroke-opacity:1"
       d="m 295.24666,50.555154 c -0.42524,0.897692 -0.5906,3.756139 0.44884,3.756139 1.03944,0 2.48047,-3.590774 2.14974,-3.756139 -0.33073,-0.165364 0.11811,2.173362 1.48828,3.212798"
       id="path2483"
       inkscape:connector-curvature="0" />
    <path
       style="fill:none;stroke:#1caad1;stroke-width:1;stroke-linecap:round;stroke-linejoin:round;stroke-miterlimit:4;stroke-dasharray:none;stroke-opacity:1"
       d="m 300.60918,50.366165 c 0.0945,0.590587 0.23625,4.842819 0.23625,4.842819 0,0 -0.23625,-3.118302 2.008,-4.51209 2.24422,-1.393788 0.0945,1.960753 1.60639,3.874257"
       id="path2485"
       inkscape:connector-curvature="0" />
    <path
       style="fill:none;stroke:#1caad1;stroke-width:1;stroke-linecap:round;stroke-linejoin:round;stroke-miterlimit:4;stroke-dasharray:none;stroke-opacity:1"
       d="m 306.11347,47.082498 c 0.0945,0.755952 0.14173,6.614583 0.54335,6.685454 0.40158,0.07087 1.65364,-3.874256 2.12611,-3.779763 0.47246,0.09449 -3.18918,2.952938 0.66146,3.874257"
       id="path2487"
       inkscape:connector-curvature="0" />
    <path
       style="fill:none;stroke:#1caad1;stroke-width:1;stroke-linecap:round;stroke-linejoin:round;stroke-miterlimit:4;stroke-dasharray:none;stroke-opacity:1"
       d="m 312.4918,46.397415 c 0.0473,1.157552 -1.2284,6.756326 -0.25984,7.205173 0.96856,0.448844 2.48047,-0.614212 2.48047,-0.614212"
       id="path2489"
       inkscape:connector-curvature="0" />
    <path
       style="fill:none;stroke:#1caad1;stroke-width:1;stroke-linecap:round;stroke-linejoin:round;stroke-miterlimit:4;stroke-dasharray:none;stroke-opacity:1"
       d="m 311.16889,50.93313 2.55135,-0.472472"
       id="path2491"
       inkscape:connector-curvature="0" />
    <path
       style="fill:none;stroke:#1caad1;stroke-width:1;stroke-linecap:round;stroke-linejoin:round;stroke-miterlimit:4;stroke-dasharray:none;stroke-opacity:1"
       d="m 256.42141,47.897507 c -0.37798,0.118118 -0.82683,0.874072 -0.34254,1.015812"
       id="path2493"
       inkscape:connector-curvature="0" />
    <path
       style="fill:none;stroke:#1caad1;stroke-width:1;stroke-linecap:round;stroke-linejoin:round;stroke-miterlimit:4;stroke-dasharray:none;stroke-opacity:1"
       d="m 258.61667,47.835714 c -0.6097,0.141986 -0.91873,0.718285 -0.593,0.960501"
       id="path2495"
       inkscape:connector-curvature="0" />
  </g>
</svg>
