<?xml version="1.0" encoding="UTF-8" standalone="no"?>
<!-- Created with Vectornator for iOS (http://vectornator.io/) -->

<svg
   xmlns:vectornator="http://vectornator.io"
   xmlns:dc="http://purl.org/dc/elements/1.1/"
   xmlns:cc="http://creativecommons.org/ns#"
   xmlns:rdf="http://www.w3.org/1999/02/22-rdf-syntax-ns#"
   xmlns:svg="http://www.w3.org/2000/svg"
   xmlns="http://www.w3.org/2000/svg"
   xmlns:sodipodi="http://sodipodi.sourceforge.net/DTD/sodipodi-0.dtd"
   xmlns:inkscape="http://www.inkscape.org/namespaces/inkscape"
   style="clip-rule:evenodd;fill-rule:evenodd;stroke-linecap:round;stroke-linejoin:round"
   xml:space="preserve"
   version="1.1"
   viewBox="0 0 747.78662 219.27441"
   id="svg433"
   sodipodi:docname="K7c.svg"
   width="747.78662"
   height="219.2744"
   inkscape:version="0.92.3 (2405546, 2018-03-11)"
   inkscape:export-filename="/media/bommler/Daten/Benutzer/Admin/Eigene Dateien/Downloads/K7c.png"
   inkscape:export-xdpi="123"
   inkscape:export-ydpi="123"><sodipodi:namedview
   pagecolor="#ffffff"
   bordercolor="#666666"
   borderopacity="1"
   objecttolerance="10"
   gridtolerance="10"
   guidetolerance="10"
   inkscape:pageopacity="0"
   inkscape:pageshadow="2"
   inkscape:window-width="1354"
   inkscape:window-height="1015"
   id="namedview435"
   showgrid="false"
   fit-margin-top="5"
   fit-margin-left="5"
   fit-margin-bottom="5"
   fit-margin-right="5"
   inkscape:zoom="1.1134681"
   inkscape:cx="412.64416"
   inkscape:cy="168.21684"
   inkscape:window-x="0"
   inkscape:window-y="0"
   inkscape:window-maximized="0"
   inkscape:current-layer="svg433" />
<metadata
   id="metadata2">
<vectornator:setting
   key="DisplayWhiteBackground"
   value="0" />
<vectornator:setting
   key="RulersVisible"
   value="1" />
<vectornator:setting
   key="GridSpacing"
   value="36" />
<vectornator:setting
   key="Units"
   value="Millimeters" />
<vectornator:setting
   key="DynamicGuides"
   value="0" />
<vectornator:setting
   key="SnapToPoints"
   value="0" />
<vectornator:setting
   key="SnapToGrid"
   value="0" />
<vectornator:setting
   key="SnapToGuides"
   value="1" />
<vectornator:setting
   key="ShowGrid"
   value="1" />
<vectornator:setting
   key="SnapToEdges"
   value="0" />
<rdf:RDF><cc:Work
     rdf:about=""><dc:format>image/svg+xml</dc:format><dc:type
       rdf:resource="http://purl.org/dc/dcmitype/StillImage" /><dc:title></dc:title></cc:Work></rdf:RDF></metadata>
<defs
   id="defs4">





















































































































































































































</defs>
<path
   style="opacity:1;fill:none;stroke:#000000;stroke-width:1.70000005;stroke-linecap:round;stroke-linejoin:round;stroke-miterlimit:4;stroke-dasharray:none"
   inkscape:connector-curvature="0"
   id="path6"
   d="m 145.0586,36.366101 c 0,-12.983 10.812,-23.507 24.15,-23.507 13.338,0 24.151,10.524 24.151,23.507 0,12.982 -10.813,23.506 -24.151,23.506 -13.338,0 -24.15,-10.524 -24.15,-23.506 z" /><path
   style="opacity:1;fill:none;stroke:#000000;stroke-width:1.70000005;stroke-linecap:round;stroke-linejoin:round;stroke-miterlimit:4;stroke-dasharray:none"
   inkscape:connector-curvature="0"
   id="path8"
   d="m 279.3366,34.112101 c 0,-12.983 10.74,-23.507 23.99,-23.507 13.249,0 23.989,10.524 23.989,23.507 0,12.982 -10.74,23.506 -23.989,23.506 -13.25,0 -23.99,-10.524 -23.99,-23.506 z" /><path
   style="opacity:1;fill:none;stroke:#000000;stroke-width:1.7;stroke-linecap:round;stroke-linejoin:round;stroke-miterlimit:4;stroke-dasharray:none"
   inkscape:connector-curvature="0"
   id="path10"
   d="m 145.38654,33.441248 c -2.15602,4.157 8.25181,6.961 11.0197,7.406 8.91034,1.432 20.64145,3.588 29.38689,1.288 3.27812,-0.862 5.42481,-1.124 7.01254,-4.186" /><path
   style="opacity:1;fill:none;stroke:#000000;stroke-width:1.7;stroke-linecap:round;stroke-linejoin:round;stroke-miterlimit:4;stroke-dasharray:none"
   inkscape:connector-curvature="0"
   id="path12"
   d="m 279.32936,34.104686 c 0,4.4499 9.7711,5.086173 12.94901,5.807616 11.36006,2.579158 26.49535,2.93988 35.05806,-5.807616" /><path
   style="opacity:1;fill:none;stroke:#000000;stroke-width:1.70000005;stroke-linecap:round;stroke-linejoin:round;stroke-miterlimit:4;stroke-dasharray:none"
   inkscape:connector-curvature="0"
   id="path14"
   d="m 171.98867,48.221041 c 1.58082,0.10424 -1.43042,-1.2356 -2.80616,-0.0718 -2.19178,1.85425 -4.07423,7.38967 -0.57507,8.92008 2.95997,1.29541 5.44826,-1.92518 5.17909,-4.74758 -0.16321,-1.71326 -3.03346,-4.1819 -1.79786,-4.10072 z" /><path
   style="opacity:1;fill:none;stroke:#000000;stroke-width:1.70000005;stroke-linecap:round;stroke-linejoin:round;stroke-miterlimit:4;stroke-dasharray:none"
   inkscape:connector-curvature="0"
   id="path16"
   d="m 168.6626,17.902101 c -1.075,-0.917 -0.43,1.692 0.252,1.01 0.21,-0.21 0.408,-1.462 -0.168,-1.347 -2.365,0.473 2.507,2.548 -0.084,0.337 z" /><path
   style="opacity:1;fill:none;stroke:#000000;stroke-width:1.70000005;stroke-linecap:round;stroke-linejoin:round;stroke-miterlimit:4;stroke-dasharray:none"
   inkscape:connector-curvature="0"
   id="path20"
   d="m 217.0716,35.245101 c -1.079,0 2.12,-0.498 3.2,-0.505 7.016,-0.048 14.031,0.297 21.047,0.337 2.807,0.016 5.613,-0.205 8.419,-0.169 3.53,0.046 7.689,1.449 10.945,-0.505" /><path
   style="opacity:1;fill:none;stroke:#000000;stroke-width:1.70000005;stroke-linecap:round;stroke-linejoin:round;stroke-miterlimit:4;stroke-dasharray:none"
   inkscape:connector-curvature="0"
   id="path22"
   d="m 254.7896,29.688101 c -1.356,1.356 1.177,0.992 1.852,1.179 4.479,1.239 11.137,2.018 5.893,5.893 -0.713,0.528 -1.433,1.051 -2.189,1.516 -1.775,1.092 -1.896,1.069 -3.536,1.684" /><path
   style="opacity:1;fill:none;stroke:#000000;stroke-width:1.70000005;stroke-linecap:round;stroke-linejoin:round;stroke-miterlimit:4;stroke-dasharray:none"
   inkscape:connector-curvature="0"
   id="path24"
   d="m 233.0686,30.025101 c -0.982,-5.888 -1.445,-12.207 -1.684,-18.185 -0.045,-1.122 0,-2.2450003 0,-3.3680003 0,-0.841 -0.658,-1.999 0,-2.525 0.455,-0.364 1.824,0.444 2.02,0.505 2.606,0.814 5.265,0.948 7.746,2.189" /><path
   style="opacity:1;fill:none;stroke:#000000;stroke-width:1.70000005;stroke-linecap:round;stroke-linejoin:round;stroke-miterlimit:4;stroke-dasharray:none"
   inkscape:connector-curvature="0"
   id="path26"
   d="m 226.6696,22.448101 c 3.152,0.45 7.493,-2.154 10.44,-3.368" /><path
   style="opacity:1;fill:none;stroke:#000000;stroke-width:1.70000005;stroke-linecap:round;stroke-linejoin:round;stroke-miterlimit:4;stroke-dasharray:none"
   inkscape:connector-curvature="0"
   id="path28"
   d="m 238.4566,30.699101 c 0.437,-1.312 1.432,-2.45 2.02,-3.705 0.545,-1.161 1.069,-2.334 1.516,-3.536 0.408,-1.098 -0.102,-2.997 1.01,-3.367 0.806,-0.269 0.149,1.697 0.337,2.525 0.554,2.439 1.826,3.875 3.367,5.725" /><path
   style="opacity:1;fill:none;stroke:#000000;stroke-width:1.70000005;stroke-linecap:round;stroke-linejoin:round;stroke-miterlimit:4;stroke-dasharray:none"
   inkscape:connector-curvature="0"
   id="path30"
   d="m 241.6556,27.500101 c 1.656,-0.276 0.718,0.007 2.694,-1.179" /><path
   style="opacity:1;fill:none;stroke:#000000;stroke-width:1.70000005;stroke-linecap:round;stroke-linejoin:round;stroke-miterlimit:4;stroke-dasharray:none"
   inkscape:connector-curvature="0"
   id="path32"
   d="m 331.6406,20.559101 c -1.094,0.547 -1.518,0.718 2.386,-0.397 1.411,-0.404 2.798,-0.891 4.176,-1.392 2.675,-0.973 5.007,-2.41 7.358,-3.978" /><path
   style="opacity:1;fill:none;stroke:#000000;stroke-width:1.70000005;stroke-linecap:round;stroke-linejoin:round;stroke-miterlimit:4;stroke-dasharray:none"
   inkscape:connector-curvature="0"
   id="path34"
   d="m 348.5436,9.2241007 c 0.372,2.9760003 1.963,4.6850003 3.579,7.3580003 1.171,1.936 1.556,4.755 3.58,5.767 0.61,0.305 0.732,-1.16 0.994,-1.79 0.479,-1.149 1.078,-2.245 1.591,-3.38 1.611,-3.567 2.993,-7.6720003 5.17,-10.9370003" /><path
   style="opacity:1;fill:none;stroke:#000000;stroke-width:1.70000005;stroke-linecap:round;stroke-linejoin:round;stroke-miterlimit:4;stroke-dasharray:none"
   inkscape:connector-curvature="0"
   id="path36"
   d="m 357.8896,38.655101 c 5.221,0 11.048,-1.085 16.108,-1.591" /><path
   style="opacity:1;fill:none;stroke:#000000;stroke-width:1.70000005;stroke-linecap:round;stroke-linejoin:round;stroke-miterlimit:4;stroke-dasharray:none"
   inkscape:connector-curvature="0"
   id="path38"
   d="m 358.8846,34.081101 c 5.188,0 10.394,-1.058 15.51,-1.789" /><path
   style="opacity:1;fill:none;stroke:#000000;stroke-width:1.70000005;stroke-linecap:round;stroke-linejoin:round;stroke-miterlimit:4;stroke-dasharray:none"
   inkscape:connector-curvature="0"
   id="path40"
   d="m 372.4634,23.286064 c -2.01,3.774 -10.1448,19.040037 -11.9888,22.727037"
   sodipodi:nodetypes="cc" /><path
   style="opacity:1;fill:none;stroke:#000000;stroke-width:1.70000005;stroke-linecap:round;stroke-linejoin:round;stroke-miterlimit:4;stroke-dasharray:none"
   inkscape:connector-curvature="0"
   id="path42"
   d="m 380.1616,41.240101 c -0.116,-0.853 -0.102,-1.729 0,-2.585 0.098,-0.814 0.268,-1.635 0.597,-2.386 1.069,-2.444 3.483,-0.391 4.573,0.596 2.317,2.096 9.049,9.557 12.926,6.165 2.063,-1.805 0.28507,-11.852047 -1.988,-10.937 -6.22238,3.767269 -14.74656,15.176459 -16.108,9.147 z"
   sodipodi:nodetypes="ccccccc" /><path
   style="opacity:1;fill:none;stroke:#000000;stroke-width:1.70000005;stroke-linecap:round;stroke-linejoin:round;stroke-miterlimit:4;stroke-dasharray:none"
   inkscape:connector-curvature="0"
   id="path44"
   d="m 30.091995,87.336101 c -2.7083,0 -4.8099,-0.484 -7.1188,1.363 -2.4869,1.99 -6.2001,9.654 -1.8176,11.662999 2.9389,1.347 6.1842,0.192 8.9364,-0.908999" /><path
   style="opacity:1;fill:none;stroke:#000000;stroke-width:1.70000005;stroke-linecap:round;stroke-linejoin:round;stroke-miterlimit:4;stroke-dasharray:none"
   inkscape:connector-curvature="0"
   id="path46"
   d="m 24.639295,87.790101 c -1.8649,1.865 -0.0324,9.46 0.3029,11.36" /><path
   style="opacity:1;fill:none;stroke:#000000;stroke-width:1.70000005;stroke-linecap:round;stroke-linejoin:round;stroke-miterlimit:4;stroke-dasharray:none"
   inkscape:connector-curvature="0"
   id="path48"
   d="m 35.090395,88.093101 c -1.9438,2.592 -0.0081,11.086 1.0602,13.934999" /><path
   style="opacity:1;fill:none;stroke:#000000;stroke-width:1.70000005;stroke-linecap:round;stroke-linejoin:round;stroke-miterlimit:4;stroke-dasharray:none"
   inkscape:connector-curvature="0"
   id="path50"
   d="m 33.878695,89.456101 c 0.9763,-1.464 10.3896,-5.67 11.0569,-1.666 0.3554,2.132 -4.3076,6.731 -5.7556,8.179" /><path
   style="opacity:1;fill:none;stroke:#000000;stroke-width:1.70000005;stroke-linecap:round;stroke-linejoin:round;stroke-miterlimit:4;stroke-dasharray:none"
   inkscape:connector-curvature="0"
   id="path52"
   d="m 37.513795,87.942101 c 0,4.485 0.5793,9.189 1.3632,13.631999" /><path
   style="opacity:1;fill:none;stroke:#000000;stroke-width:1.70000005;stroke-linecap:round;stroke-linejoin:round;stroke-miterlimit:4;stroke-dasharray:none"
   inkscape:connector-curvature="0"
   id="path54"
   d="m 48.873695,89.456101 c -0.2384,0.239 2.5375,-3.755 3.1808,-4.695 0.2419,-0.354 0.6059,-1.212 0.9088,-0.909 1.2919,1.292 0.3029,6.387 0.3029,8.179" /><path
   style="opacity:1;fill:none;stroke:#000000;stroke-width:1.70000005;stroke-linecap:round;stroke-linejoin:round;stroke-miterlimit:4;stroke-dasharray:none"
   inkscape:connector-curvature="0"
   id="path56"
   d="m 65.989295,90.214101 c 1.3281,0 2.6332,-0.854 3.9381,-0.606 1.9804,0.375 3.7564,1.466 5.6042,2.272 1.335,0.582 0.587,2.189 -0.151,2.878 -2.0859,1.946 -7.6886,4.429 -10.1486,1.969" /><path
   style="opacity:1;fill:none;stroke:#000000;stroke-width:1.70000005;stroke-linecap:round;stroke-linejoin:round;stroke-miterlimit:4;stroke-dasharray:none"
   inkscape:connector-curvature="0"
   id="path58"
   d="m 63.414395,73.098101 c -0.7299,-0.085 1.5831,-1.44 -1.6661,-0.303 -1.5434,0.54 -3.0267,4.497 -1.9691,5.907 2.8799,3.84 8.6015,-5.028 3.6352,-5.604 z" /><path
   style="opacity:1;fill:none;stroke:#000000;stroke-width:1.70000005;stroke-linecap:round;stroke-linejoin:round;stroke-miterlimit:4;stroke-dasharray:none"
   inkscape:connector-curvature="0"
   id="path60"
   d="m 70.533295,84.609101 c 0,1.582 -0.5919,-2.444 -0.6059,-2.574 -0.2649,-2.473 -0.5099,-4.948 -0.7573,-7.422 -0.111,-1.11 -0.1646,-2.226 -0.303,-3.332 -0.0792,-0.634 -0.2516,-2.349 -0.6058,-1.818 -1.1435,1.715 3.8698,3.071 4.3925,3.332" /><path
   style="opacity:1;fill:none;stroke:#000000;stroke-width:1.70000005;stroke-linecap:round;stroke-linejoin:round;stroke-miterlimit:4;stroke-dasharray:none"
   inkscape:connector-curvature="0"
   id="path62"
   d="m 66.140795,77.339101 c 1.0593,-1.059 0.1684,-0.256 3.3322,-1.363" /><path
   style="opacity:1;fill:none;stroke:#000000;stroke-width:1.70000005;stroke-linecap:round;stroke-linejoin:round;stroke-miterlimit:4;stroke-dasharray:none"
   inkscape:connector-curvature="0"
   id="path64"
   d="m 76.137595,84.458101 c 0,-3.225 -0.777,-6.224 -1.363,-9.391 -0.411,-2.218 -0.507,-2.465 -0.606,-4.544 -0.024,-0.504 -0.357,-1.871 0,-1.514 1.396,1.396 2.135,1.824 3.938,2.726" /><path
   style="opacity:1;fill:none;stroke:#000000;stroke-width:1.70000005;stroke-linecap:round;stroke-linejoin:round;stroke-miterlimit:4;stroke-dasharray:none"
   inkscape:connector-curvature="0"
   id="path66"
   d="m 72.199395,77.339101 c -1.1693,0.292 3.2322,-1.464 4.2412,-1.666" /><path
   style="opacity:1;fill:none;stroke:#000000;stroke-width:1.70000005;stroke-linecap:round;stroke-linejoin:round;stroke-miterlimit:4;stroke-dasharray:none"
   inkscape:connector-curvature="0"
   id="path68"
   d="m 80.378595,79.460101 c 0.101,0.05 0.202,0.101 0.303,0.151" /><path
   style="opacity:1;fill:none;stroke:#000000;stroke-width:1.70000005;stroke-linecap:round;stroke-linejoin:round;stroke-miterlimit:4;stroke-dasharray:none"
   inkscape:connector-curvature="0"
   id="path70"
   d="m 84.619595,91.274101 c -2.535,0.845 3.314,-5.111 4.544,-3.635 0.313,0.376 0.02,2.888 0,3.332 -0.127,2.782 -0.556,5.309 0.303,8.028 0.251,0.794 0.683,2.422999 1.817,2.422999 3.394,0 5.802,-6.970999 6.513,-9.390999 0.222,-0.752 0.408,-1.513 0.606,-2.272 0.143,-0.546 0.868,-1.666 0.303,-1.666 -0.572,0 -1.037,2.456 -1.06,2.575 -0.452,2.37 -2.407,11.757999 2.423005,10.147999" /><path
   style="opacity:1;fill:none;stroke:#000000;stroke-width:1.70000005;stroke-linecap:round;stroke-linejoin:round;stroke-miterlimit:4;stroke-dasharray:none"
   inkscape:connector-curvature="0"
   id="path72"
   d="m 107.0366,95.364101 c 2.287,0.326 4.85,-0.758 7.27,-0.758" /><path
   style="opacity:1;fill:none;stroke:#000000;stroke-width:1.70000005;stroke-linecap:round;stroke-linejoin:round;stroke-miterlimit:4;stroke-dasharray:none"
   inkscape:connector-curvature="0"
   id="path74"
   d="m 108.0966,92.183101 c 2.731,0 4.616,0.607 7.27,-0.455" /><path
   style="opacity:1;fill:none;stroke:#000000;stroke-width:1.70000005;stroke-linecap:round;stroke-linejoin:round;stroke-miterlimit:4;stroke-dasharray:none"
   inkscape:connector-curvature="0"
   id="path76"
   d="m 131.4226,89.305101 c -3.632,0 -6.847,-0.06 -8.785,3.332 -1.881,3.291 -1.877,9.472999 3.483,8.936999 2.358,-0.236 3.787,-1.741999 5.756,-2.726999" /><path
   style="opacity:1;fill:none;stroke:#000000;stroke-width:1.70000005;stroke-linecap:round;stroke-linejoin:round;stroke-miterlimit:4;stroke-dasharray:none"
   inkscape:connector-curvature="0"
   id="path78"
   d="m 125.2126,90.214101 c -0.683,2.73 0.436,5.747 1.211,8.33" /><path
   style="opacity:1;fill:none;stroke:#000000;stroke-width:1.70000005;stroke-linecap:round;stroke-linejoin:round;stroke-miterlimit:4;stroke-dasharray:none"
   inkscape:connector-curvature="0"
   id="path80"
   d="m 136.1176,90.214101 c -1.128,0.564 -0.203,10.952999 1.06,13.479999" /><path
   style="opacity:1;fill:none;stroke:#000000;stroke-width:1.70000005;stroke-linecap:round;stroke-linejoin:round;stroke-miterlimit:4;stroke-dasharray:none"
   inkscape:connector-curvature="0"
   id="path82"
   d="m 135.2086,92.031101 c 2.209,-2.208 9.625,-4.994 12.572,-3.18 4.106,2.527 -2.839,6.298 -4.847,6.967" /><path
   style="opacity:1;fill:none;stroke:#000000;stroke-width:1.70000005;stroke-linecap:round;stroke-linejoin:round;stroke-miterlimit:4;stroke-dasharray:none"
   inkscape:connector-curvature="0"
   id="path84"
   d="m 138.9956,88.548101 c 0.954,4.769 2.152,9.667 3.332,14.388999" /><path
   style="opacity:1;fill:none;stroke:#000000;stroke-width:1.70000005;stroke-linecap:round;stroke-linejoin:round;stroke-miterlimit:4;stroke-dasharray:none"
   inkscape:connector-curvature="0"
   id="path86"
   d="m 153.0816,87.639101 c 2.281,-1.629 4.084,-3.781 6.059,-5.756 0.505,-0.505 0.837,-1.74 1.514,-1.515 0.816,0.272 -0.075,1.719 -0.151,2.575 -0.094,1.061 -0.214,2.12 -0.303,3.181 -0.148,1.777 -0.151,3.521 -0.151,5.301" /><path
   style="opacity:1;fill:none;stroke:#000000;stroke-width:1.70000005;stroke-linecap:round;stroke-linejoin:round;stroke-miterlimit:4;stroke-dasharray:none"
   inkscape:connector-curvature="0"
   id="path88"
   d="m 164.7446,89.305101 c -0.527,-1.053 1.246,2 1.818,3.029 2.064,3.715 4.228,7.275 6.664,10.753999" /><path
   style="opacity:1;fill:none;stroke:#000000;stroke-width:1.70000005;stroke-linecap:round;stroke-linejoin:round;stroke-miterlimit:4;stroke-dasharray:none"
   inkscape:connector-curvature="0"
   id="path90"
   d="m 176.7106,89.153101 c 0.802,4.01 0.952,8.151 1.969,12.117999 0.269,1.049 0.459,0.83 0.909,0.606" /><path
   style="opacity:1;fill:none;stroke:#000000;stroke-width:1.70000005;stroke-linecap:round;stroke-linejoin:round;stroke-miterlimit:4;stroke-dasharray:none"
   inkscape:connector-curvature="0"
   id="path92"
   d="m 174.7416,92.334101 c 0,-3.003 7.768,-5.656 10.299,-5.15 2.838,0.568 2.213,2.835 0.455,4.241 -0.755,0.604 -1.516,1.206 -2.272,1.818 -0.672,0.544 -3.444,3.332 -4.696,3.332 -0.294,0 0.483,-0.347 0.758,-0.454 0.64,-0.249 1.296,-0.467 1.969,-0.606 1.487,-0.308 5.155,-0.993 6.361,0.454 0.773,0.928 -0.44,2.235 -0.908,2.727 -2.174,2.281999 -5.409,4.240999 -8.634,4.240999" /><path
   style="opacity:1;fill:none;stroke:#000000;stroke-width:1.70000005;stroke-linecap:round;stroke-linejoin:round;stroke-miterlimit:4;stroke-dasharray:none"
   inkscape:connector-curvature="0"
   id="path94"
   d="m 188.3736,98.999101 c 0,2.883999 -0.866,6.641999 0,9.238999" /><path
   style="opacity:1;fill:none;stroke:#000000;stroke-width:1.70000005;stroke-linecap:round;stroke-linejoin:round;stroke-miterlimit:4;stroke-dasharray:none"
   inkscape:connector-curvature="0"
   id="path96"
   d="m 188.0706,98.544101 c 2.566,-3.849 4.791,-1.046 6.361,1.817999 1.466,2.672 -5.133,3.021 -6.058,3.484 -0.572,0.285 1.246,0.32 1.817,0.605 1.38,0.691 2.749,1.299 4.09,1.969" /><path
   style="opacity:1;fill:none;stroke:#000000;stroke-width:1.70000005;stroke-linecap:round;stroke-linejoin:round;stroke-miterlimit:4;stroke-dasharray:none"
   inkscape:connector-curvature="0"
   id="path98"
   d="m 202.7626,86.730101 c -2.375,0 -2.858,4.152 -3.181,5.907 -0.697,3.784 -2.527,10.125999 2.121,12.116999" /><path
   style="opacity:1;fill:none;stroke:#000000;stroke-width:1.70000005;stroke-linecap:round;stroke-linejoin:round;stroke-miterlimit:4;stroke-dasharray:none"
   inkscape:connector-curvature="0"
   id="path100"
   d="m 207.0036,90.441101 c 0.195,0.283 -0.086,-1.251 -0.303,-0.985 -0.399,0.489 -7.744,11.557999 -0.757,11.208999 4.065,-0.203 4.661,-7.802999 2.877,-10.299999 -0.47,-0.658 -2.822,-1.38 -1.817,0.076 z" /><path
   style="opacity:1;fill:none;stroke:#000000;stroke-width:1.70000005;stroke-linecap:round;stroke-linejoin:round;stroke-miterlimit:4;stroke-dasharray:none"
   inkscape:connector-curvature="0"
   id="path102"
   d="m 211.3956,87.336101 c 2.152,-1.614 3.089,3.033 3.181,4.695 0.217,3.909 -0.259,9.432999 -2.726,12.722999" /><path
   style="opacity:1;fill:none;stroke:#000000;stroke-width:1.70000005;stroke-linecap:round;stroke-linejoin:round;stroke-miterlimit:4;stroke-dasharray:none"
   inkscape:connector-curvature="0"
   id="path104"
   d="m 160.5036,110.9641 c -0.439,-3.946 -0.243,0.592 -0.303,1.818 -0.381,7.814 0.178,-0.353 -0.606,7.876 -0.634,6.655 -1.236,13.325 -1.666,19.994 -0.129,1.997 -0.306,4.053 -0.151,6.058 0.002,0.026 0.409,1.818 0,1.818 -0.565,0 0.073,-1.15 0.303,-1.666 0.348,-0.785 0.754,-1.32 1.211,-2.121 1.287,-2.251 3.484,-5.185 3.484,-7.876" /><path
   style="opacity:1;fill:none;stroke:#000000;stroke-width:1.70000005;stroke-linecap:round;stroke-linejoin:round;stroke-miterlimit:4;stroke-dasharray:none"
   inkscape:connector-curvature="0"
   id="path106"
   d="m 151.1126,139.1371 c 2.798,2.798 4.349,7.076 7.119,9.845" /><path
   style="opacity:1;fill:none;stroke:#000000;stroke-width:1.70000005;stroke-linecap:round;stroke-linejoin:round;stroke-miterlimit:4;stroke-dasharray:none"
   inkscape:connector-curvature="0"
   id="path108"
   d="m 103.5526,114.6001 c -0.714,-0.357 -0.119,-0.142 0.152,0.908 0.309,1.199 0.573,2.412 0.757,3.636 0.322,2.15 0.164,6.107 0.757,8.482" /><path
   style="opacity:1;fill:none;stroke:#000000;stroke-width:1.70000005;stroke-linecap:round;stroke-linejoin:round;stroke-miterlimit:4;stroke-dasharray:none"
   inkscape:connector-curvature="0"
   id="path110"
   d="m 112.1866,113.8421 c 0,2.368 -1.104,4.084 -2.878,5.605 -0.226,0.193 -3.938,2.049 -3.938,2.271 0,0.091 1.45,0.318 1.666,0.455 2.183,1.389 3.205,3.029 5.907,3.029" /><path
   style="opacity:1;fill:none;stroke:#000000;stroke-width:1.70000005;stroke-linecap:round;stroke-linejoin:round;stroke-miterlimit:4;stroke-dasharray:none"
   inkscape:connector-curvature="0"
   id="path112"
   d="m 119.1536,118.9921 c -0.818,-0.409 -2.324,-1.271 -3.181,-0.757 -1.769,1.061 -3.736,5.637 -1.514,7.119 2.535,1.69 6.499,-4.709 4.998,-6.21 -0.106,-0.106 -0.454,1.581 -0.454,1.817 0,1.153 -0.13,3.419 1.211,4.09" /><path
   style="opacity:1;fill:none;stroke:#000000;stroke-width:1.70000005;stroke-linecap:round;stroke-linejoin:round;stroke-miterlimit:4;stroke-dasharray:none"
   inkscape:connector-curvature="0"
   id="path114"
   d="m 123.0916,119.7491 c 0,1.501 -0.009,-3.332 0.152,1.969 0.296,9.786 -0.409,-3.483 1.666,-3.483 0.614,0 2.07,1.212 3.18,1.212" /><path
   style="opacity:1;fill:none;stroke:#000000;stroke-width:1.70000005;stroke-linecap:round;stroke-linejoin:round;stroke-miterlimit:4;stroke-dasharray:none"
   inkscape:connector-curvature="0"
   id="path116"
   d="m 133.3916,110.5101 c -0.824,0 -1.985,8.979 -2.121,10.603 -0.084,1.006 0,2.019 0,3.029 0,0.465 0.303,1.829 0.303,1.363" /><path
   style="opacity:1;fill:none;stroke:#000000;stroke-width:1.70000005;stroke-linecap:round;stroke-linejoin:round;stroke-miterlimit:4;stroke-dasharray:none"
   inkscape:connector-curvature="0"
   id="path118"
   d="m 128.0896,122.0211 c -0.9,0.601 5.335,-2.12 6.059,-2.12" /><path
   style="opacity:1;fill:none;stroke:#000000;stroke-width:1.70000005;stroke-linecap:round;stroke-linejoin:round;stroke-miterlimit:4;stroke-dasharray:none"
   inkscape:connector-curvature="0"
   id="path120"
   d="m 137.4806,121.5671 c -0.486,0.243 -1.553,0.606 0.455,0.606 1.624,0 3.792,-3.8 1.363,-4.241 -3.702,-0.673 -6.163,5.93 -3.181,7.422 1.47,0.735 3.442,-0.861 4.847,-1.212" /><path
   style="opacity:1;fill:none;stroke:#000000;stroke-width:1.70000005;stroke-linecap:round;stroke-linejoin:round;stroke-miterlimit:4;stroke-dasharray:none"
   inkscape:connector-curvature="0"
   id="path122"
   d="m 163.6846,128.0801 c -0.769,0.385 1.3,-1.126 1.969,-1.666 1.287,-1.038 2.739,-3.268 4.241,-2.575 1.112,0.513 0.307,5.006 0.909,6.21 3.166,6.334 8.461,-4.785 9.239,-7.119" /><path
   style="opacity:1;fill:none;stroke:#000000;stroke-width:1.70000005;stroke-linecap:round;stroke-linejoin:round;stroke-miterlimit:4;stroke-dasharray:none"
   inkscape:connector-curvature="0"
   id="path124"
   d="m 175.8016,117.1751 c 0,-0.408 0.136,-1.5 -0.151,-1.212 -1.086,1.086 -0.548,3.023 -0.758,4.544 -0.244,1.768 -0.501,3.534 -0.757,5.301 -0.459,3.166 -2.332,9.121 -0.757,12.269" /><path
   style="opacity:1;fill:none;stroke:#000000;stroke-width:1.70000005;stroke-linecap:round;stroke-linejoin:round;stroke-miterlimit:4;stroke-dasharray:none"
   inkscape:connector-curvature="0"
   id="path126"
   d="m 152.1726,158.6761 c -0.304,-0.507 -0.87,-2.195 -0.605,-1.666 1.685,3.371 0.975,7.932 2.12,11.511 0.036,0.111 0.547,1.707 1.212,1.818 1.032,0.172 1.419,-2.924 1.514,-3.332 0.522,-2.237 0.935,-8.008 3.636,-9.088 0.804,-0.322 0.904,1.637 0.908,1.666 0.197,1.231 0.107,8.41 2.121,8.633 1.237,0.138 2.287,-3.106 2.423,-3.483 1.231,-3.409 1.248,-7.622 3.484,-10.603" /><path
   style="opacity:1;fill:none;stroke:#000000;stroke-width:1.70000005;stroke-linecap:round;stroke-linejoin:round;stroke-miterlimit:4;stroke-dasharray:none"
   inkscape:connector-curvature="0"
   id="path128"
   d="m 128.5446,158.5251 c -0.983,0 9.391,-1.063 9.391,2.574 0,4.788 -7.716,6.704 -11.057,4.847" /><path
   style="opacity:1;fill:none;stroke:#000000;stroke-width:1.70000005;stroke-linecap:round;stroke-linejoin:round;stroke-miterlimit:4;stroke-dasharray:none"
   inkscape:connector-curvature="0"
   id="path130"
   d="m 105.3706,155.4951 c -2.283,-2.282 -5.693005,-0.904 -7.574005,1.212 -3.975,4.472 -7.019,16.461 2.575005,15.298 0.841,-0.102 1.662,-0.389 2.424,-0.757 2.151,-1.039 3.674,-3.166 5.604,-4.544" /><path
   style="opacity:1;fill:none;stroke:#000000;stroke-width:1.70000005;stroke-linecap:round;stroke-linejoin:round;stroke-miterlimit:4;stroke-dasharray:none"
   inkscape:connector-curvature="0"
   id="path132"
   d="m 99.765595,155.4951 c -2.188,4.377 -0.233,11.788 0.909005,16.358" /><path
   style="opacity:1;fill:none;stroke:#000000;stroke-width:1.70000005;stroke-linecap:round;stroke-linejoin:round;stroke-miterlimit:4;stroke-dasharray:none"
   inkscape:connector-curvature="0"
   id="path134"
   d="m 125.3636,144.7411 c -0.188,0.745 0.061,-0.148 -0.454,-0.303 -0.892,-0.267 -1.737,0.585 -2.121,1.212 -0.706,1.155 -2.154,5.265 -0.303,6.059 2.827,1.211 5.736,-3.538 4.847,-5.908 -0.381,-1.016 -1.619,-2.443 -1.969,-1.06 z" /><path
   style="opacity:1;fill:none;stroke:#000000;stroke-width:1.70000005;stroke-linecap:round;stroke-linejoin:round;stroke-miterlimit:4;stroke-dasharray:none"
   inkscape:connector-curvature="0"
   id="path136"
   d="m 130.8166,153.2231 c 0,0.02 0.176,1.418 0.303,0.909 0.883,-3.532 -1.722,-9.287 -2.121,-12.875 -0.306,-2.76 0.588,-2.556 2.121,-0.605 0.588,0.749 1.01,1.615 1.514,2.423" /><path
   style="opacity:1;fill:none;stroke:#000000;stroke-width:1.70000005;stroke-linecap:round;stroke-linejoin:round;stroke-miterlimit:4;stroke-dasharray:none"
   inkscape:connector-curvature="0"
   id="path138"
   d="m 128.2416,149.8911 c 1.138,0 2.78,-2.106 3.938,-2.878" /><path
   style="opacity:1;fill:none;stroke:#000000;stroke-width:1.70000005;stroke-linecap:round;stroke-linejoin:round;stroke-miterlimit:4;stroke-dasharray:none"
   inkscape:connector-curvature="0"
   id="path140"
   d="m 136.4206,154.7381 c 0,-3.336 -0.735,-6.984 -1.06,-10.3 -0.467,-4.757 -0.053,-1.985 -0.606,-5.301 -0.011,-0.063 -0.509,-2.602 0.454,-2.121 1.493,0.747 1.078,3.804 2.272,4.999" /><path
   style="opacity:1;fill:none;stroke:#000000;stroke-width:1.70000005;stroke-linecap:round;stroke-linejoin:round;stroke-miterlimit:4;stroke-dasharray:none"
   inkscape:connector-curvature="0"
   id="path142"
   d="m 133.5426,150.1941 c 1.851,-1.234 2.531,-2.146 4.544,-2.878" /><path
   style="opacity:1;fill:none;stroke:#000000;stroke-width:1.70000005;stroke-linecap:round;stroke-linejoin:round;stroke-miterlimit:4;stroke-dasharray:none"
   inkscape:connector-curvature="0"
   id="path144"
   d="m 154.7546,182.6931 c -0.724,-0.362 -0.306,3.654 -0.169,4.404 0.526,2.891 2.054,5.261 5.42,4.743 6.181,-0.951 6.437,-7.069 6.437,-11.857" /><path
   style="opacity:1;fill:none;stroke:#000000;stroke-width:1.70000005;stroke-linecap:round;stroke-linejoin:round;stroke-miterlimit:4;stroke-dasharray:none"
   inkscape:connector-curvature="0"
   id="path146"
   d="m 159.3286,180.8301 c 0.487,3.411 0.399,6.545 0.169,9.994" /><path
   style="opacity:1;fill:none;stroke:#000000;stroke-width:1.70000005;stroke-linecap:round;stroke-linejoin:round;stroke-miterlimit:4;stroke-dasharray:none"
   inkscape:connector-curvature="0"
   id="path148"
   d="m 161.5296,198.9541 c -1.454,-1.94 -4.697,-0.414 -5.758,1.355 -2.092,3.486 -1.564,12.217 3.387,13.042 5.16,0.86 7.511,-5.687 6.945,-9.654 -0.148,-1.038 -0.699,-2.766 -1.694,-3.388 -0.624,-0.39 -2.86,-0.499 -2.202,-0.169 2.174,1.086 5.391,-1.414 7.114,-2.372" /><path
   style="opacity:1;fill:none;stroke:#000000;stroke-width:1.70000005;stroke-linecap:round;stroke-linejoin:round;stroke-miterlimit:4;stroke-dasharray:none"
   inkscape:connector-curvature="0"
   id="path150"
   d="m 219.5256,95.436101 96.201,-1.035" /><path
   style="opacity:1;fill:none;stroke:#000000;stroke-width:1.70000005;stroke-linecap:round;stroke-linejoin:round;stroke-miterlimit:4;stroke-dasharray:none"
   inkscape:connector-curvature="0"
   id="path152"
   d="m 181.0786,159.9151 128.269,-1.035" /><path
   style="opacity:1;fill:none;stroke:#000000;stroke-width:1.70000005;stroke-linecap:round;stroke-linejoin:round;stroke-miterlimit:4;stroke-dasharray:none"
   inkscape:connector-curvature="0"
   id="path154"
   d="m 336.0706,110.7801 -0.862,37.584" /><path
   style="opacity:1;fill:none;stroke:#000000;stroke-width:1.70000005;stroke-linecap:round;stroke-linejoin:round;stroke-miterlimit:4;stroke-dasharray:none"
   inkscape:connector-curvature="0"
   id="path156"
   d="m 311.7616,89.746101 c 2.235,1.118 -7.324,-3.689 3.276,2.414 2.006,1.155 5.348,0.635 7.068,2.069 1.178,0.981 -0.856,2.361 -1.551,2.758 -2.493,1.425 -5.465,1.671 -7.586,3.792999" /><path
   style="opacity:1;fill:none;stroke:#000000;stroke-width:1.70000005;stroke-linecap:round;stroke-linejoin:round;stroke-miterlimit:4;stroke-dasharray:none"
   inkscape:connector-curvature="0"
   id="path158"
   d="m 308.1406,152.6741 c -0.462,-0.154 -1.042,-0.997 0.173,-0.862 0.646,0.072 2.125,1.793 2.241,1.896 1.149,1.021 4.171,2.204 5,3.448 1.314,1.972 -6.541,7.233 -7.414,7.931" /><path
   style="opacity:1;fill:none;stroke:#000000;stroke-width:1.70000005;stroke-linecap:round;stroke-linejoin:round;stroke-miterlimit:4;stroke-dasharray:none"
   inkscape:connector-curvature="0"
   id="path160"
   d="m 328.8296,144.0541 c 2.655,1.77 6.112,14.744 8.448,7.068 0.227,-0.748 0.42,-1.507 0.689,-2.241 0.364,-0.992 0.784,-1.963 1.207,-2.931 0.966,-2.207 1.659,-4.287 2.414,-6.551" /><path
   style="opacity:1;fill:none;stroke:#000000;stroke-width:1.70000005;stroke-linecap:round;stroke-linejoin:round;stroke-miterlimit:4;stroke-dasharray:none"
   inkscape:connector-curvature="0"
   id="path162"
   d="m 326.4156,156.2941 c -0.483,-0.965 0.957,1.938 1.379,2.931 3.121,7.334 1.148,2.749 3.276,9.31 0.415,1.28 0.954,2.517 1.379,3.793 0.156,0.466 0.362,1.845 0.518,1.379 2.5,-7.5 6.966,-13.587 10.516,-20.688" /><path
   style="opacity:1;fill:none;stroke:#000000;stroke-width:1.70000005;stroke-linecap:round;stroke-linejoin:round;stroke-miterlimit:4;stroke-dasharray:none"
   inkscape:connector-curvature="0"
   id="path164"
   d="m 327.2776,85.953101 c -1.413,-0.706 0.073,-0.042 1.38,2.759 1.499,3.213 2.673,6.779 4.137,9.999 0.49,1.079 0.918,2.184999 1.379,3.275999 0.312,0.737 0.418,2.907 0.862,2.241 2.488,-3.732 4.58,-8.715999 6.552,-12.757999 0.586,-1.201 1.098,-2.439 1.724,-3.62 0.532,-1.006 2.414,-3.552 2.414,-2.414" /><path
   style="opacity:1;fill:none;stroke:#000000;stroke-width:1.70000005;stroke-linecap:round;stroke-linejoin:round;stroke-miterlimit:4;stroke-dasharray:none"
   inkscape:connector-curvature="0"
   id="path166"
   d="m 345.7256,127.8481 c -0.113,0.785 -0.911,7.758 -0.173,7.758" /><path
   style="opacity:1;fill:none;stroke:#000000;stroke-width:1.70000005;stroke-linecap:round;stroke-linejoin:round;stroke-miterlimit:4;stroke-dasharray:none"
   inkscape:connector-curvature="0"
   id="path168"
   d="m 346.1566,122.2441 c -0.195,0.243 -1.271,0.461 -0.776,1.121 0.795,1.061 1.011,-1.415 0.776,-1.121 z" /><path
   style="opacity:1;fill:none;stroke:#000000;stroke-width:1.70000005;stroke-linecap:round;stroke-linejoin:round;stroke-miterlimit:4;stroke-dasharray:none"
   inkscape:connector-curvature="0"
   id="path170"
   d="m 354.8626,128.5371 c -0.731,-0.365 -2.294,-1.549 -3.103,-1.034 -1.903,1.211 -3.252,5.662 -2.414,7.758 0.313,0.781 1.142,0.638 1.724,0.172 2.863,-2.29 4.133,-7.023 5,-10.344 0.355,-1.363 0.553,-2.763 0.862,-4.138 0.208,-0.924 0.488,-1.832 0.689,-2.758 0.087,-0.397 0.271,-1.601 0.173,-1.207 -1.26,5.038 -1.854,10.176 -2.241,15.344 -0.152,2.027 -0.702,3.101 1.379,3.448" /><path
   style="opacity:1;fill:none;stroke:#000000;stroke-width:1.70000005;stroke-linecap:round;stroke-linejoin:round;stroke-miterlimit:4;stroke-dasharray:none"
   inkscape:connector-curvature="0"
   id="path172"
   d="m 292.2796,125.4341 c -0.67,-1.34 -0.311,2.984 -0.345,4.482 -0.066,2.94 -0.862,5.925 -0.862,8.793" /><path
   style="opacity:1;fill:none;stroke:#000000;stroke-width:1.70000005;stroke-linecap:round;stroke-linejoin:round;stroke-miterlimit:4;stroke-dasharray:none"
   inkscape:connector-curvature="0"
   id="path174"
   d="m 299.1756,122.6751 c 0,3.648 -2.49,7.999 -4.482,10.862 -0.605,0.87 -2.02,3.053 -2.414,2.069 -0.238,-0.595 0.483,-2.811 1.379,-2.586 2.202,0.55 4.333,2.995 6.724,3.793" /><path
   style="opacity:1;fill:none;stroke:#000000;stroke-width:1.70000005;stroke-linecap:round;stroke-linejoin:round;stroke-miterlimit:4;stroke-dasharray:none"
   inkscape:connector-curvature="0"
   id="path176"
   d="m 305.0376,132.5021 c -2.607,-1.737 -3.551,2.795 -2.931,4.655 0.441,1.322 2.01,-0.765 2.069,-0.862 0.772,-1.254 1.552,-3.167 1.552,-4.655 0,-0.574 0,1.15 0,1.724 0,1.604 -0.109,2.478 1.034,3.621" /><path
   style="opacity:1;fill:none;stroke:#000000;stroke-width:1.70000005;stroke-linecap:round;stroke-linejoin:round;stroke-miterlimit:4;stroke-dasharray:none"
   inkscape:connector-curvature="0"
   id="path178"
   d="m 310.2096,131.8131 c 0,0.977 0,1.954 0,2.931 0,5.206 1.102,-4.974 2.586,-5.345 0.492,-0.123 1.737,0.589 2.242,0.69" /><path
   style="opacity:1;fill:none;stroke:#000000;stroke-width:1.70000005;stroke-linecap:round;stroke-linejoin:round;stroke-miterlimit:4;stroke-dasharray:none"
   inkscape:connector-curvature="0"
   id="path180"
   d="m 321.7606,120.6071 c -0.995,-0.498 -0.765,1.068 -0.862,1.724 -0.869,5.871 -0.64,2.588 -1.207,8.965 -0.132,1.489 -0.172,5.977 -0.172,4.482" /><path
   style="opacity:1;fill:none;stroke:#000000;stroke-width:1.70000005;stroke-linecap:round;stroke-linejoin:round;stroke-miterlimit:4;stroke-dasharray:none"
   inkscape:connector-curvature="0"
   id="path182"
   d="m 317.4506,132.8471 c -0.078,-0.026 -1.207,-0.505 -1.207,0 0,0.498 5.574,-2.221 5.862,-2.413" /><path
   style="opacity:1;fill:none;stroke:#000000;stroke-width:1.70000005;stroke-linecap:round;stroke-linejoin:round;stroke-miterlimit:4;stroke-dasharray:none"
   inkscape:connector-curvature="0"
   id="path184"
   d="m 325.5536,132.6751 c -1.156,2.313 5.259,-3.931 3.448,-4.655 -2.933,-1.173 -8.529,10.491 -1.379,8.448 0.618,-0.177 1.149,-0.575 1.724,-0.862" /><path
   style="opacity:1;fill:none;stroke:#000000;stroke-width:1.70000005;stroke-linecap:round;stroke-linejoin:round;stroke-miterlimit:4;stroke-dasharray:none"
   inkscape:connector-curvature="0"
   id="path186"
   d="m 236.87143,154.45001 c -0.18162,-5.23871 -4.64229,-13.42457 -2.69183,-18.49891 0.311,-0.623 6.487,-0.361 7.241,-0.173"
   sodipodi:nodetypes="ccc" /><path
   style="opacity:1;fill:none;stroke:#000000;stroke-width:1.70000005;stroke-linecap:round;stroke-linejoin:round;stroke-miterlimit:4;stroke-dasharray:none"
   inkscape:connector-curvature="0"
   id="path188"
   d="m 231.0766,148.8811 c 1.627,0 5.178,-2.639 6.896,-3.621" /><path
   style="opacity:1;fill:none;stroke:#000000;stroke-width:1.70000005;stroke-linecap:round;stroke-linejoin:round;stroke-miterlimit:4;stroke-dasharray:none"
   inkscape:connector-curvature="0"
   id="path190"
   d="m 241.9376,153.7081 c -1.108,0.554 -0.528,0.357 0.69,-2.241 0.491,-1.047 1.075,-2.049 1.551,-3.103 0.763,-1.689 0.846,-5.156 2.069,-6.379 0.652,-0.652 0.047,1.846 0.173,2.758 0.135,0.983 0.311,1.961 0.517,2.931 0.511,2.41 1.663,4.411 2.241,6.724" /><path
   style="opacity:1;fill:none;stroke:#000000;stroke-width:1.70000005;stroke-linecap:round;stroke-linejoin:round;stroke-miterlimit:4;stroke-dasharray:none"
   inkscape:connector-curvature="0"
   id="path192"
   d="m 242.7996,151.2951 c 1.475,-1.967 4.147,-2.439 6.379,-3.276" /><path
   style="opacity:1;fill:none;stroke:#000000;stroke-width:1.70000005;stroke-linecap:round;stroke-linejoin:round;stroke-miterlimit:4;stroke-dasharray:none"
   inkscape:connector-curvature="0"
   id="path194"
   d="m 259.3506,91.663101 c 0.219,0.657 0.597,1.989 0.597,1.989 0,0 -0.593,-1.84 -0.796,-2.784 -0.253,-1.183 -0.438,-2.381 -0.596,-3.581 -0.587,-4.445 -2.83,-13.121 -1.194,-17.702 0.99,-2.772 7.594,2.169 8.951,2.983" /><path
   style="opacity:1;fill:none;stroke:#000000;stroke-width:1.70000005;stroke-linecap:round;stroke-linejoin:round;stroke-miterlimit:4;stroke-dasharray:none"
   inkscape:connector-curvature="0"
   id="path196"
   d="m 254.5776,86.492101 c 2.797,-0.467 5.291,-2.015 7.956,-2.984" /><path
   style="opacity:1;fill:none;stroke:#000000;stroke-width:1.70000005;stroke-linecap:round;stroke-linejoin:round;stroke-miterlimit:4;stroke-dasharray:none"
   inkscape:connector-curvature="0"
   id="path198"
   d="m 263.3286,91.663101 c -0.44,0.882 1.689,-1.139 2.188,-1.989 1.125,-1.911 2.072,-4.159 2.984,-6.166 0.179,-0.394 0.668,-2.344 1.392,-2.586 0.704,-0.234 0.361,1.448 0.398,2.188 0.04,0.798 0.135,1.591 0.199,2.387 0.225,2.813 0.74,4.861 1.989,7.36" /><path
   style="opacity:1;fill:none;stroke:#000000;stroke-width:1.70000005;stroke-linecap:round;stroke-linejoin:round;stroke-miterlimit:4;stroke-dasharray:none"
   inkscape:connector-curvature="0"
   id="path200"
   d="m 265.3186,88.282101 c 1.859,0 3.809,-1.175 5.768,-1.392" /><path
   style="opacity:1;fill:none;stroke:#000000;stroke-width:1.70000005;stroke-linecap:round;stroke-linejoin:round;stroke-miterlimit:4;stroke-dasharray:none"
   inkscape:connector-curvature="0"
   id="path202"
   d="m 132.3896,48.240101 c -4.089,0 -8.651,-1.904 -12.879,-2.342 -6.892,-0.713 -13.89,-0.626 -20.781005,0 -31.5224,2.866 -60.1265,15.599 -81.662,38.929 -9.1803003,9.945 -15.5593003,28.318999 -7.6101003,40.683999 5.0538003,7.862 10.8394003,10.691 18.1471003,15.806 10.8819,7.617 23.566,12.647 36.2942,16.391 5.5482,1.632 11.7668,1.463 17.5618,1.463 1.181,0 3.911,1.252 4.39,0.293" /><path
   style="opacity:1;fill:none;stroke:#000000;stroke-width:1.70000005;stroke-linecap:round;stroke-linejoin:round;stroke-miterlimit:4;stroke-dasharray:none"
   inkscape:connector-curvature="0"
   id="path204"
   d="m 81.753595,151.8541 c -2.019,0 -0.846,-0.144 2.341,3.22 1.124,1.186 5.401,3.749 5.854,5.561 0.494,1.976 -7.908,6.737 -9.366,8.195" /><path
   style="opacity:1;fill:none;stroke:#000000;stroke-width:1.70000005;stroke-linecap:round;stroke-linejoin:round;stroke-miterlimit:4;stroke-dasharray:none"
   inkscape:connector-curvature="0"
   id="path206"
   d="m 438.6796,87.020101 c 1.599,-1.998 3.183,-4.091 4.606,-6.2 0.815,-1.209 1.533,-2.481 2.302,-3.72 0.363,-0.585 0.375,-1.771 1.063,-1.771 0.835,0 -0.247,1.652 -0.354,2.48 -0.145,1.119 -0.219,2.245 -0.354,3.365 -0.312,2.568 -0.532,5.03 -0.532,7.617" /><path
   style="opacity:1;fill:none;stroke:#000000;stroke-width:1.70000005;stroke-linecap:round;stroke-linejoin:round;stroke-miterlimit:4;stroke-dasharray:none"
   inkscape:connector-curvature="0"
   id="path208"
   d="m 436.0226,93.751101 c -1.555,1.037 4.708,0.751 5.137,0.708 3.261,-0.326 6.038,-1.104 9.034,-2.303" /><path
   style="opacity:1;fill:none;stroke:#000000;stroke-width:1.70000005;stroke-linecap:round;stroke-linejoin:round;stroke-miterlimit:4;stroke-dasharray:none"
   inkscape:connector-curvature="0"
   id="path210"
   d="m 439.0336,99.065101 c -0.47,0.940999 5.614,-2.175 6.2,-0.709 0.716,1.789999 -9.318,9.821999 -3.011,9.033999 0.839,-0.105 1.659,-0.327 2.48,-0.532 0.598,-0.149 1.178,-0.362 1.771,-0.531 2.337,-0.668 1.294,-0.204 2.657,-0.886" /><path
   style="opacity:1;fill:none;stroke:#000000;stroke-width:1.70000005;stroke-linecap:round;stroke-linejoin:round;stroke-miterlimit:4;stroke-dasharray:none"
   inkscape:connector-curvature="0"
   id="path212"
   d="m 438.3256,104.5561 c 1.009,0.336 7.861,-2.174 9.034,-2.48" /><path
   style="opacity:1;fill:none;stroke:#000000;stroke-width:1.70000005;stroke-linecap:round;stroke-linejoin:round;stroke-miterlimit:4;stroke-dasharray:none"
   inkscape:connector-curvature="0"
   id="path214"
   d="m 531.4966,108.8071 c 0,-6.983 -1.923,-13.943999 -2.48,-20.901999 -0.514,-6.429 3.585,-4.375 6.377,-0.885" /><path
   style="opacity:1;fill:none;stroke:#000000;stroke-width:1.70000005;stroke-linecap:round;stroke-linejoin:round;stroke-miterlimit:4;stroke-dasharray:none"
   inkscape:connector-curvature="0"
   id="path216"
   d="m 527.2456,98.356101 c -0.098,0.098 -0.886,0.886 -0.886,0.886 0.854,0.284 1.649,-0.721 2.48,-1.063 1.849,-0.761 3.516,-0.886 5.491,-0.886" /><path
   style="opacity:1;fill:none;stroke:#000000;stroke-width:1.70000005;stroke-linecap:round;stroke-linejoin:round;stroke-miterlimit:4;stroke-dasharray:none"
   inkscape:connector-curvature="0"
   id="path218"
   d="m 535.9256,109.6931 c -0.978,0.977 0.96,-2.593 1.417,-3.897 0.487,-1.394 0.839,-2.831 1.24,-4.252 0.248,-0.882 0.418,-1.786999 0.708,-2.656999 0.167,-0.501 0.236,-1.653 0.709,-1.417 3.294,1.648 1.734,9.280999 5.491,11.159999" /><path
   style="opacity:1;fill:none;stroke:#000000;stroke-width:1.70000005;stroke-linecap:round;stroke-linejoin:round;stroke-miterlimit:4;stroke-dasharray:none"
   inkscape:connector-curvature="0"
   id="path220"
   d="m 537.5196,105.6181 c 1.245,-1.244 2.856,-1.339 4.428,-2.125" /><path
   style="opacity:1;fill:none;stroke:#000000;stroke-width:1.70000005;stroke-linecap:round;stroke-linejoin:round;stroke-miterlimit:4;stroke-dasharray:none"
   inkscape:connector-curvature="0"
   id="path222"
   d="m 553.1066,83.831101 c 0,-4.044 -2.359,2.817 -2.479,3.189 -1.223,3.763 -4.512,18.420999 3.719,18.420999" /><path
   style="opacity:1;fill:none;stroke:#000000;stroke-width:1.70000005;stroke-linecap:round;stroke-linejoin:round;stroke-miterlimit:4;stroke-dasharray:none"
   inkscape:connector-curvature="0"
   id="path224"
   d="m 558.5986,88.260101 c -0.644,0 2.697,-2.381 3.542,-3.366 0.734,-0.856 2.082,-3.586 2.303,-2.48 0.448,2.24 -1.417,5.225 -1.417,7.617" /><path
   style="opacity:1;fill:none;stroke:#000000;stroke-width:1.70000005;stroke-linecap:round;stroke-linejoin:round;stroke-miterlimit:4;stroke-dasharray:none"
   inkscape:connector-curvature="0"
   id="path226"
   d="m 556.6496,94.282101 c -1.194,0 2.357,-0.392 3.543,-0.531 2.124,-0.25 3.708,-0.223 5.668,-1.063" /><path
   style="opacity:1;fill:none;stroke:#000000;stroke-width:1.70000005;stroke-linecap:round;stroke-linejoin:round;stroke-miterlimit:4;stroke-dasharray:none"
   inkscape:connector-curvature="0"
   id="path228"
   d="m 558.4206,98.533101 c -0.306,0 3.481,-1.993 4.252,-0.708 0.731,1.219 -6.234,9.369999 -0.532,8.147999 0.692,-0.149 1.516,-0.697 2.126,-1.063" /><path
   style="opacity:1;fill:none;stroke:#000000;stroke-width:1.70000005;stroke-linecap:round;stroke-linejoin:round;stroke-miterlimit:4;stroke-dasharray:none"
   inkscape:connector-curvature="0"
   id="path230"
   d="m 557.3586,102.7841 c 2.106,-1.053 4.754,-1.261 7.085,-1.594" /><path
   style="opacity:1;fill:none;stroke:#000000;stroke-width:1.70000005;stroke-linecap:round;stroke-linejoin:round;stroke-miterlimit:4;stroke-dasharray:none"
   inkscape:connector-curvature="0"
   id="path232"
   d="m 568.1636,81.706101 c -2.559,-1.92 2.757,5.953 3.011,6.731 1.78,5.46 1.521,12.189999 -1.063,17.358999" /><path
   style="opacity:1;fill:none;stroke:#000000;stroke-width:1.70000005;stroke-linecap:round;stroke-linejoin:round;stroke-miterlimit:4;stroke-dasharray:none"
   inkscape:connector-curvature="0"
   id="path234"
   d="m 577.9056,95.876101 c -0.783,0.261 3.609,-1.026 4.782,-1.417" /><path
   style="opacity:1;fill:none;stroke:#000000;stroke-width:1.70000005;stroke-linecap:round;stroke-linejoin:round;stroke-miterlimit:4;stroke-dasharray:none"
   inkscape:connector-curvature="0"
   id="path236"
   d="m 576.6656,92.334101 c 2.322,0 4.167,-0.681 6.377,-1.417" /><path
   style="opacity:1;fill:none;stroke:#000000;stroke-width:1.70000005;stroke-linecap:round;stroke-linejoin:round;stroke-miterlimit:4;stroke-dasharray:none"
   inkscape:connector-curvature="0"
   id="path238"
   d="m 595.4416,82.591101 c -1.275,0 -2.908,-0.012 -3.897,0.355 -1.78,0.659 -4.184,6.429 -2.657,8.148 2.442,2.747 6.213,-4.676 6.731,-6.023 0.262,-0.681 0.354,-1.417 0.531,-2.125 0.06,-0.237 0.268,-0.935 0.178,-0.709 -1.151,2.876 -2.14,7.385 0.531,9.388" /><path
   style="opacity:1;fill:none;stroke:#000000;stroke-width:1.70000005;stroke-linecap:round;stroke-linejoin:round;stroke-miterlimit:4;stroke-dasharray:none"
   inkscape:connector-curvature="0"
   id="path240"
   d="m 603.0586,86.134101 c -0.215,0.643 -0.177,0.718 -0.177,0.177" /><path
   style="opacity:1;fill:none;stroke:#000000;stroke-width:1.70000005;stroke-linecap:round;stroke-linejoin:round;stroke-miterlimit:4;stroke-dasharray:none"
   inkscape:connector-curvature="0"
   id="path244"
   d="m 609.2576,85.603101 c -1.477,0 2.956,0.299 4.429,0.177 2.453,-0.205 4.243,-0.955 6.553,-1.417" /><path
   style="opacity:1;fill:none;stroke:#000000;stroke-width:1.70000005;stroke-linecap:round;stroke-linejoin:round;stroke-miterlimit:4;stroke-dasharray:none"
   inkscape:connector-curvature="0"
   id="path246"
   d="m 612.0916,88.614101 c 1.197,-0.599 0.844,-0.532 2.834,-0.532 5.304,0 -0.869,3.78 -1.948,5.669 -0.767,1.342 -0.123,2.11 1.417,1.948 0.67,-0.07 1.3,-0.351 1.949,-0.531 1.445,-0.402 0.915,-0.225 2.125,-0.709" /><path
   style="opacity:1;fill:none;stroke:#000000;stroke-width:1.70000005;stroke-linecap:round;stroke-linejoin:round;stroke-miterlimit:4;stroke-dasharray:none"
   inkscape:connector-curvature="0"
   id="path250"
   d="m 628.9196,83.123101 c -0.626,2.504 -1.734,6.025 -0.354,8.325" /><path
   style="opacity:1;fill:none;stroke:#000000;stroke-width:1.70000005;stroke-linecap:round;stroke-linejoin:round;stroke-miterlimit:4;stroke-dasharray:none"
   inkscape:connector-curvature="0"
   id="path252"
   d="m 624.6686,88.791101 c -1.405,0 1.338,-0.433 1.771,-0.531 2.081,-0.473 4.13,-1.077 6.2,-1.595" /><path
   style="opacity:1;fill:none;stroke:#000000;stroke-width:1.70000005;stroke-linecap:round;stroke-linejoin:round;stroke-miterlimit:4;stroke-dasharray:none"
   inkscape:connector-curvature="0"
   id="path254"
   d="m 638.4846,73.558101 c -0.905,1.81 -0.358,0.504 -0.708,4.428 -0.185,2.066 -0.27,4.142 -0.532,6.2 -0.152,1.194 -0.504,2.355 -0.708,3.542 -0.611,3.539 0.279,-0.14 -0.532,2.834 -0.064,0.235 -0.408,0.786 -0.177,0.709 2.291,-0.764 2.836,-5.416 5.491,-6.554 0.808,-0.346 2.27,-0.839 2.834,0.177 3.114,5.604 -5.898,10.93 -9.919,6.908" /><path
   style="opacity:1;fill:none;stroke:#000000;stroke-width:1.70000005;stroke-linecap:round;stroke-linejoin:round;stroke-miterlimit:4;stroke-dasharray:none"
   inkscape:connector-curvature="0"
   id="path256"
   d="m 588.3566,95.699101 c 6.338,0 12.928,0.62 19.307,0.886 13.682,0.57 27.431,-0.355 41.095,-0.355" /><path
   style="opacity:1;fill:none;stroke:#000000;stroke-width:1.70000005;stroke-linecap:round;stroke-linejoin:round;stroke-miterlimit:4;stroke-dasharray:none"
   inkscape:connector-curvature="0"
   id="path258"
   d="m 593.8476,103.1391 c -1.921,0 -5.211,3.697 -3.897,5.668 0.874,1.311 4.286,0.521 5.491,0.177" /><path
   style="opacity:1;fill:none;stroke:#000000;stroke-width:1.70000005;stroke-linecap:round;stroke-linejoin:round;stroke-miterlimit:4;stroke-dasharray:none"
   inkscape:connector-curvature="0"
   id="path260"
   d="m 600.5786,105.2641 c -0.118,0.177 -0.236,0.354 -0.354,0.532" /><path
   style="opacity:1;fill:none;stroke:#000000;stroke-width:1.70000005;stroke-linecap:round;stroke-linejoin:round;stroke-miterlimit:4;stroke-dasharray:none"
   inkscape:connector-curvature="0"
   id="path262"
   d="m 608.5496,102.6071 c 2.651,0 5.651,-6.069999 4.074,-0.708 -0.222,0.755 -0.341,1.538 -0.532,2.302" /><path
   style="opacity:1;fill:none;stroke:#000000;stroke-width:1.70000005;stroke-linecap:round;stroke-linejoin:round;stroke-miterlimit:4;stroke-dasharray:none"
   inkscape:connector-curvature="0"
   id="path264"
   d="m 606.9556,106.8581 c -1.557,1.038 1.574,0.743 2.125,0.709 2.324,-0.145 4.63,-0.607 6.908,-1.063" /><path
   style="opacity:1;fill:none;stroke:#000000;stroke-width:1.70000005;stroke-linecap:round;stroke-linejoin:round;stroke-miterlimit:4;stroke-dasharray:none"
   inkscape:connector-curvature="0"
   id="path266"
   d="m 608.7266,110.7551 c 1.042,0 2.482,-0.796 3.365,-0.354 3.077,1.538 -7.122,6.432 -1.24,7.085 1.057,0.118 2.126,0 3.189,0" /><path
   style="opacity:1;fill:none;stroke:#000000;stroke-width:1.70000005;stroke-linecap:round;stroke-linejoin:round;stroke-miterlimit:4;stroke-dasharray:none"
   inkscape:connector-curvature="0"
   id="path268"
   d="m 607.4866,114.4751 c 1.978,0 3.827,0.028 5.668,-0.708" /><path
   style="opacity:1;fill:none;stroke:#000000;stroke-width:1.70000005;stroke-linecap:round;stroke-linejoin:round;stroke-miterlimit:4;stroke-dasharray:none"
   inkscape:connector-curvature="0"
   id="path270"
   d="m 623.9596,106.3271 c -0.304,2.129 -1.065,4.058 -0.708,6.2" /><path
   style="opacity:1;fill:none;stroke:#000000;stroke-width:1.70000005;stroke-linecap:round;stroke-linejoin:round;stroke-miterlimit:4;stroke-dasharray:none"
   inkscape:connector-curvature="0"
   id="path272"
   d="m 620.7716,110.0471 c -0.65,0 1.306,0.096 1.948,0 0.725,-0.109 3.108,-1.017 3.72,-1.24" /><path
   style="opacity:1;fill:none;stroke:#000000;stroke-width:1.70000005;stroke-linecap:round;stroke-linejoin:round;stroke-miterlimit:4;stroke-dasharray:none"
   inkscape:connector-curvature="0"
   id="path274"
   d="m 637.7766,108.8071 c 0,-1.463 -2.29,-1.316 -3.366,-0.886 -2.359,0.944 -5.12,6.965 -0.709,6.377 3.505,-0.467 5.639,-7.755 6.554,-10.274 0.319,-0.877 0.57,-1.778 0.886,-2.657 0.26,-0.722 0.886,-2.892999 0.886,-2.124999 0,0.968999 -1.091,2.433999 -1.417,3.364999 -0.944,2.697 -1.322,5.291 -1.417,8.148 -0.043,1.286 -0.367,3.005 1.062,3.72" /><path
   style="opacity:1;fill:none;stroke:#000000;stroke-width:1.70000005;stroke-linecap:round;stroke-linejoin:round;stroke-miterlimit:4;stroke-dasharray:none"
   inkscape:connector-curvature="0"
   id="path276"
   d="m 656.4846,97.387101 c -3.452,1.726 6.628,-1.243 7.686,-1.569" /><path
   style="opacity:1;fill:none;stroke:#000000;stroke-width:1.70000005;stroke-linecap:round;stroke-linejoin:round;stroke-miterlimit:4;stroke-dasharray:none"
   inkscape:connector-curvature="0"
   id="path278"
   d="m 656.0136,94.720101 c -0.978,0 -1.196,0.05 1.726,-1.098 1.621,-0.637 4.034,-1.098 5.804,-1.098" /><path
   style="opacity:1;fill:none;stroke:#000000;stroke-width:1.70000005;stroke-linecap:round;stroke-linejoin:round;stroke-miterlimit:4;stroke-dasharray:none"
   inkscape:connector-curvature="0"
   id="path280"
   d="m 680.4856,83.739101 c -2.589,-1.294 -6.66,2.525 -5.491,4.863 0.914,1.827 5.058,-1.923 5.491,-2.51 0.361,-0.491 0.632,-1.043 0.941,-1.568 0.309,-0.526 0.668,-2.114 0.941,-1.569 0.875,1.749 -1.817,4.531 -0.157,6.745" /><path
   style="opacity:1;fill:none;stroke:#000000;stroke-width:1.70000005;stroke-linecap:round;stroke-linejoin:round;stroke-miterlimit:4;stroke-dasharray:none"
   inkscape:connector-curvature="0"
   id="path282"
   d="m 690.3686,82.171101 c -0.474,1.895 -0.157,0.413 -0.157,4.549 0,0.995 -0.157,3.975 -0.157,2.98" /><path
   style="opacity:1;fill:none;stroke:#000000;stroke-width:1.70000005;stroke-linecap:round;stroke-linejoin:round;stroke-miterlimit:4;stroke-dasharray:none"
   inkscape:connector-curvature="0"
   id="path284"
   d="m 687.3876,86.720101 c 1.462,-1.462 4.223,-1.092 6.118,-2.039" /><path
   style="opacity:1;fill:none;stroke:#000000;stroke-width:1.70000005;stroke-linecap:round;stroke-linejoin:round;stroke-miterlimit:4;stroke-dasharray:none"
   inkscape:connector-curvature="0"
   id="path286"
   d="m 699.1526,73.386101 c -0.915,-0.458 -0.452,1.858 -0.47,2.353 -0.123,3.302 -0.525,6.58 -0.628,9.883 -0.021,0.679 0,1.359 0,2.039 0,0.523 0.29,2.004 0,1.569 -1.692,-2.538 1.172,-8.656 4.549,-7.53 4.085,1.362 -1.879,7.059 -4.392,7.059" /><path
   style="opacity:1;fill:none;stroke:#000000;stroke-width:1.70000005;stroke-linecap:round;stroke-linejoin:round;stroke-miterlimit:4;stroke-dasharray:none"
   inkscape:connector-curvature="0"
   id="path288"
   d="m 706.9966,81.073101 c -1.408,0 3.968,-1.197 4.863,-0.628 0.844,0.537 -0.08,1.844 -0.314,2.196 -0.548,0.822 -6.382,7.097 -1.726,6.432 0.754,-0.108 1.464,-0.418 2.196,-0.628" /><path
   style="opacity:1;fill:none;stroke:#000000;stroke-width:1.70000005;stroke-linecap:round;stroke-linejoin:round;stroke-miterlimit:4;stroke-dasharray:none"
   inkscape:connector-curvature="0"
   id="path290"
   d="m 707.9376,84.994101 c -0.9,0 3.739,-0.385 4.706,-0.627" /><path
   style="opacity:1;fill:none;stroke:#000000;stroke-width:1.70000005;stroke-linecap:round;stroke-linejoin:round;stroke-miterlimit:4;stroke-dasharray:none"
   inkscape:connector-curvature="0"
   id="path292"
   d="m 671.5436,95.191101 c -0.498,-0.997 10.733,-1.098 11.765,-1.098 1.465,0 2.928,0.131 4.393,0.157 8.986,0.157 17.994,-0.314 26.981,-0.314" /><path
   style="opacity:1;fill:none;stroke:#000000;stroke-width:1.70000005;stroke-linecap:round;stroke-linejoin:round;stroke-miterlimit:4;stroke-dasharray:none"
   inkscape:connector-curvature="0"
   id="path294"
   d="m 677.9756,100.9951 c -2.462,-0.821 -6.806,6.061 -1.412,5.804 1.923,-0.091 1.482,-0.042 2.981,-0.47" /><path
   style="opacity:1;fill:none;stroke:#000000;stroke-width:1.70000005;stroke-linecap:round;stroke-linejoin:round;stroke-miterlimit:4;stroke-dasharray:none"
   inkscape:connector-curvature="0"
   id="path296"
   d="m 687.2306,100.0541 c 0,2.203 -1.17,4.646 -0.47,6.745" /><path
   style="opacity:1;fill:none;stroke:#000000;stroke-width:1.70000005;stroke-linecap:round;stroke-linejoin:round;stroke-miterlimit:4;stroke-dasharray:none"
   inkscape:connector-curvature="0"
   id="path298"
   d="m 683.7796,103.8191 c 1.696,1.272 3.206,0.366 4.549,-0.785" /><path
   style="opacity:1;fill:none;stroke:#000000;stroke-width:1.70000005;stroke-linecap:round;stroke-linejoin:round;stroke-miterlimit:4;stroke-dasharray:none"
   inkscape:connector-curvature="0"
   id="path300"
   d="m 698.8386,103.6621 c -0.825,-3.303 -5.572,0.282 -5.333,2.667 0.202,2.022 4.096,0.61 4.863,-0.157 2.04,-2.04 2.823,-7.119999 2.823,-9.882999 0,-0.812 -0.482,1.554 -0.627,2.353 -0.198,1.091 -0.342,2.191999 -0.471,3.293999 -0.251,2.159 -0.96,4.791 0.157,6.746" /><path
   style="opacity:1;fill:none;stroke:#000000;stroke-width:1.70000005;stroke-linecap:round;stroke-linejoin:round;stroke-miterlimit:4;stroke-dasharray:none"
   inkscape:connector-curvature="0"
   id="path302"
   d="m 704.1726,102.4071 c -2.387,-1.194 5.11,-2.464003 5.334,-1.569 0.571,2.285 -7.113,8.431 -0.942,7.844 0.582,-0.056 1.151,-0.21 1.726,-0.314" /><path
   style="opacity:1;fill:none;stroke:#000000;stroke-width:1.70000005;stroke-linecap:round;stroke-linejoin:round;stroke-miterlimit:4;stroke-dasharray:none"
   inkscape:connector-curvature="0"
   id="path304"
   d="m 705.1136,105.3871 c 2.268,-0.756 4.194,-1.145 6.589,-1.412" /><path
   style="opacity:1;fill:none;stroke:#000000;stroke-width:1.70000005;stroke-linecap:round;stroke-linejoin:round;stroke-miterlimit:4;stroke-dasharray:none"
   inkscape:connector-curvature="0"
   id="path306"
   d="m 679.5476,159.4321 c -1.45,-2.9 -6.101,3.87 -4.357,5.138 2.22,1.615 4.535,-1.629 5.25,-3.239 0.283,-0.636 0.976,-1.454 0.559,-2.011 -0.304,-0.405 -0.836,0.726 -0.894,1.229 -0.182,1.584 0.19,1.97 0.782,3.351" /><path
   style="opacity:1;fill:none;stroke:#000000;stroke-width:1.70000005;stroke-linecap:round;stroke-linejoin:round;stroke-miterlimit:4;stroke-dasharray:none"
   inkscape:connector-curvature="0"
   id="path308"
   d="m 686.3616,158.4261 c 0.345,-0.344 -0.043,4.003 0.335,5.139" /><path
   style="opacity:1;fill:none;stroke:#000000;stroke-width:1.70000005;stroke-linecap:round;stroke-linejoin:round;stroke-miterlimit:4;stroke-dasharray:none"
   inkscape:connector-curvature="0"
   id="path310"
   d="m 683.7926,161.8891 c -0.6,-0.2 4.073,-1.543 4.803,-1.787" /><path
   style="opacity:1;fill:none;stroke:#000000;stroke-width:1.70000005;stroke-linecap:round;stroke-linejoin:round;stroke-miterlimit:4;stroke-dasharray:none"
   inkscape:connector-curvature="0"
   id="path312"
   d="m 693.8466,152.0591 c -1.444,-2.888 -0.986,2.986 -1.005,3.463 -0.056,1.343 0.616,6.086 -0.559,7.261 -0.477,0.477 -0.098,-1.418 0.223,-2.011 0.678,-1.251 2.533,-3.765 4.357,-2.793 2.887,1.54 -2.6,7.885 -4.133,5.586" /><path
   style="opacity:1;fill:none;stroke:#000000;stroke-width:1.70000005;stroke-linecap:round;stroke-linejoin:round;stroke-miterlimit:4;stroke-dasharray:none"
   inkscape:connector-curvature="0"
   id="path314"
   d="m 700.2146,157.9791 c -0.609,0 2.319,-1.667 3.127,0.112 0.518,1.138 -6.102,6.763 -0.782,6.256 0.736,-0.07 0.962,-0.202 1.453,-0.447" /><path
   style="opacity:1;fill:none;stroke:#000000;stroke-width:1.70000005;stroke-linecap:round;stroke-linejoin:round;stroke-miterlimit:4;stroke-dasharray:none"
   inkscape:connector-curvature="0"
   id="path316"
   d="m 699.4326,161.4431 c -0.368,-1.102 4.272,-0.671 4.691,-0.671" /><path
   style="opacity:1;fill:none;stroke:#000000;stroke-width:1.70000005;stroke-linecap:round;stroke-linejoin:round;stroke-miterlimit:4;stroke-dasharray:none"
   inkscape:connector-curvature="0"
   id="path318"
   d="m 673.7386,167.9221 c 10.23,0 20.543,0.002 30.609,-2.011" /><path
   style="opacity:1;fill:none;stroke:#000000;stroke-width:1.70000005;stroke-linecap:round;stroke-linejoin:round;stroke-miterlimit:4;stroke-dasharray:none"
   inkscape:connector-curvature="0"
   id="path320"
   d="m 677.3126,173.2841 c 0.439,-0.877 -1.483,0.373 -1.563,0.447 -1.12,1.026 -2.42,2.82 -1.9,4.468 0.871,2.758 5.418,-0.425 6.703,-1.117" /><path
   style="opacity:1;fill:none;stroke:#000000;stroke-width:1.70000005;stroke-linecap:round;stroke-linejoin:round;stroke-miterlimit:4;stroke-dasharray:none"
   inkscape:connector-curvature="0"
   id="path322"
   d="m 684.7976,172.8371 c -0.303,0.607 -0.194,4.569 0.335,5.362" /><path
   style="opacity:1;fill:none;stroke:#000000;stroke-width:1.70000005;stroke-linecap:round;stroke-linejoin:round;stroke-miterlimit:4;stroke-dasharray:none"
   inkscape:connector-curvature="0"
   id="path324"
   d="m 682.4516,175.6301 c -0.537,0.269 1.225,-0.013 1.788,-0.223 3.975,-1.491 0.429,-0.41 3.686,-1.341" /><path
   style="opacity:1;fill:none;stroke:#000000;stroke-width:1.70000005;stroke-linecap:round;stroke-linejoin:round;stroke-miterlimit:4;stroke-dasharray:none"
   inkscape:connector-curvature="0"
   id="path326"
   d="m 694.2936,174.1781 c -2.369,-1.185 -6.422,2.752 -4.134,4.468 0.946,0.71 2.62,-0.705 3.128,-1.34 1.477,-1.846 2.531,-4.209 3.128,-6.48 0.192,-0.728 0.868,-1.701 0.335,-2.234 -0.416,-0.416 -0.406,1.107 -0.558,1.676 -0.168,0.628 -0.327,1.26 -0.447,1.899 -0.387,2.066 -0.885,4.494 0.559,6.144" /><path
   style="opacity:1;fill:none;stroke:#000000;stroke-width:1.70000005;stroke-linecap:round;stroke-linejoin:round;stroke-miterlimit:4;stroke-dasharray:none"
   inkscape:connector-curvature="0"
   id="path328"
   d="m 699.9906,173.1721 c -1.511,0 2.455,-1.121 3.016,-0.447 0.703,0.843 -5.443,6.382 -0.67,5.586 0.783,-0.13 1.418,-0.558 2.234,-0.558" /><path
   style="opacity:1;fill:none;stroke:#000000;stroke-width:1.70000005;stroke-linecap:round;stroke-linejoin:round;stroke-miterlimit:4;stroke-dasharray:none"
   inkscape:connector-curvature="0"
   id="path330"
   d="m 699.5436,175.6301 c 1.858,0 3.343,-0.425 5.139,-0.894" /><path
   style="opacity:1;fill:none;stroke:#000000;stroke-width:1.70000005;stroke-linecap:round;stroke-linejoin:round;stroke-miterlimit:4;stroke-dasharray:none"
   inkscape:connector-curvature="0"
   id="path332"
   d="m 434.1336,155.8801 c -0.392,-1.959 -3.04,-0.822 -3.9,0.211 -3.471,4.165 -5.908,14.75 2.108,14.967 4.912,0.132 8.337,-8.684 6.324,-12.543 -1.192,-2.285 -4.682,-3.057 -7.062,-3.057" /><path
   style="opacity:1;fill:none;stroke:#000000;stroke-width:1.70000005;stroke-linecap:round;stroke-linejoin:round;stroke-miterlimit:4;stroke-dasharray:none"
   inkscape:connector-curvature="0"
   id="path334"
   d="m 442.21523,165.126 c 1.48,-0.286 8.20337,-1.3409 9.73137,-1.3409"
   sodipodi:nodetypes="cc" /><path
   style="opacity:1;fill:none;stroke:#000000;stroke-width:1.70000005;stroke-linecap:round;stroke-linejoin:round;stroke-miterlimit:4;stroke-dasharray:none"
   inkscape:connector-curvature="0"
   id="path336"
   d="m 442.21531,161.84549 c 2.737,-0.304 6.16929,-0.37939 8.88729,-0.37939"
   sodipodi:nodetypes="cc" /><path
   style="opacity:1;fill:none;stroke:#000000;stroke-width:1.70000005;stroke-linecap:round;stroke-linejoin:round;stroke-miterlimit:4;stroke-dasharray:none"
   inkscape:connector-curvature="0"
   id="path338"
   d="m 448.95822,156.29374 c -0.781,2.308 -3.76932,10.35455 -4.17132,12.76555"
   sodipodi:nodetypes="cc" /><path
   style="opacity:1;fill:none;stroke:#000000;stroke-width:1.70000005;stroke-linecap:round;stroke-linejoin:round;stroke-miterlimit:4;stroke-dasharray:none"
   inkscape:connector-curvature="0"
   id="path340"
   d="m 456.2676,159.1471 c -1.007,-0.336 5.299,-1.785 5.481,-0.421 0.316,2.368 -2.751,5.618 -3.794,7.589 -1.281,2.418 -0.629,3.846 2.002,3.583 0.681,-0.068 1.355,-0.733 2.003,-0.948" /><path
   style="opacity:1;fill:none;stroke:#000000;stroke-width:1.70000005;stroke-linecap:round;stroke-linejoin:round;stroke-miterlimit:4;stroke-dasharray:none"
   inkscape:connector-curvature="0"
   id="path342"
   d="m 455.5296,164.8391 c -0.241,0.723 0.464,0.708 1.054,0.632 2.514,-0.322 5.525,-0.734 7.906,-1.686" /><path
   style="opacity:1;fill:none;stroke:#000000;stroke-width:1.70000005;stroke-linecap:round;stroke-linejoin:round;stroke-miterlimit:4;stroke-dasharray:none"
   inkscape:connector-curvature="0"
   id="path344"
   d="m 473.6706,165.5121 193.773,1.297" /><path
   style="opacity:1;fill:none;stroke:#000000;stroke-width:1.70000005;stroke-linecap:round;stroke-linejoin:round;stroke-miterlimit:4;stroke-dasharray:none"
   inkscape:connector-curvature="0"
   id="path346"
   d="m 442.8016,147.0951 -0.259,-31.388" /><path
   style="opacity:1;fill:none;stroke:#000000;stroke-width:1.70000005;stroke-linecap:round;stroke-linejoin:round;stroke-miterlimit:4;stroke-dasharray:none"
   inkscape:connector-curvature="0"
   id="path348"
   d="m 461.7386,92.620101 52.918,0.779" /><path
   style="opacity:1;fill:none;stroke:#000000;stroke-width:1.70000005;stroke-linecap:round;stroke-linejoin:round;stroke-miterlimit:4;stroke-dasharray:none"
   inkscape:connector-curvature="0"
   id="path350"
   d="m 687.4176,117.2641 0.519,28.534" /><path
   style="opacity:1;fill:none;stroke:#000000;stroke-width:1.70000005;stroke-linecap:round;stroke-linejoin:round;stroke-miterlimit:4;stroke-dasharray:none"
   inkscape:connector-curvature="0"
   id="path352"
   d="m 460.4656,88.064101 c 0,-0.684 0,1.369 0,2.053 0,2.545 -0.503,5.837 0.684,8.211" /><path
   style="opacity:1;fill:none;stroke:#000000;stroke-width:1.70000005;stroke-linecap:round;stroke-linejoin:round;stroke-miterlimit:4;stroke-dasharray:none"
   inkscape:connector-curvature="0"
   id="path354"
   d="m 512.8796,89.022101 c -0.819,-0.205 4.204,3.891 4.79,5.064 0.91,1.82 -5.586,3.534 -6.432,4.379" /><path
   style="opacity:1;fill:none;stroke:#000000;stroke-width:1.70000005;stroke-linecap:round;stroke-linejoin:round;stroke-miterlimit:4;stroke-dasharray:none"
   inkscape:connector-curvature="0"
   id="path356"
   d="m 437.8846,120.2251 c -0.294,0.147 -0.968,0.841 -0.821,0.547 1.115,-2.23 3.557,-4.515 4.927,-6.706 0.212,-0.34 0.8,-1.681 1.094,-1.779 0.853,-0.284 0.54,1.757 1.095,2.464 1.097,1.395 3.182,3.575 4.79,4.379" /><path
   style="opacity:1;fill:none;stroke:#000000;stroke-width:1.70000005;stroke-linecap:round;stroke-linejoin:round;stroke-miterlimit:4;stroke-dasharray:none"
   inkscape:connector-curvature="0"
   id="path358"
   d="m 665.1336,162.0161 c -2.442,0 4.464,3.06 4.894,3.612 1.259,1.619 -3.335,4.885 -4.545,5.127" /><path
   style="opacity:1;fill:none;stroke:#000000;stroke-width:1.70000005;stroke-linecap:round;stroke-linejoin:round;stroke-miterlimit:4;stroke-dasharray:none"
   inkscape:connector-curvature="0"
   id="path360"
   d="m 684.0096,143.1391 c -1.344,0 2.177,6.999 3.962,6.642 2.623,-0.525 4.898,-5.253 6.059,-7.574" /><path
   style="opacity:1;fill:none;stroke:#00acb6;stroke-width:1.70000005;stroke-linecap:round;stroke-linejoin:round;stroke-miterlimit:4;stroke-dasharray:none"
   inkscape:connector-curvature="0"
   id="path362"
   d="m 422.8816,78.813101 c -13.478,20.218 -16.467,46.363999 -14.188,70.295999 0.818,8.589 1.627,20.579 6.611,28.054" /><path
   style="opacity:1;fill:none;stroke:#00acb6;stroke-width:1.70000005;stroke-linecap:round;stroke-linejoin:round;stroke-miterlimit:4;stroke-dasharray:none"
   inkscape:connector-curvature="0"
   id="path364"
   d="m 417.2386,78.652101 c -0.258,0.13 -1.065,0.452 -0.806,0.323 2.79,-1.395 5.83,-2.343 8.545,-3.87 0.011,-0.006 1.766,-1.297 2.096,-0.967 0.5,0.5 -0.212,1.398 -0.322,2.096 -0.321,2.03 -1.848,6.902 -0.645,8.706" /><path
   style="opacity:1;fill:none;stroke:#00acb6;stroke-width:1.70000005;stroke-linecap:round;stroke-linejoin:round;stroke-miterlimit:4;stroke-dasharray:none"
   inkscape:connector-curvature="0"
   id="path366"
   d="m 424.0106,183.8541 c -6.304,-3.613 -9.169,10.463 -5.482,13.624 5.722,4.904 11.385,-2.81 10.641,-8.384 -0.503,-3.776 -3.007,-4.007 -5.159,-5.24 z" /><path
   style="opacity:1;fill:none;stroke:#00acb6;stroke-width:1.70000005;stroke-linecap:round;stroke-linejoin:round;stroke-miterlimit:4;stroke-dasharray:none"
   inkscape:connector-curvature="0"
   id="path368"
   d="m 443.7616,62.852101 c -1.393,2.058 -1.798,6.949 -5.563,8.706 -3.257,1.52 -5.178,-3.874 -3.386,-5.965 4.197,-4.896 6.253,2.344 8.868,3.869 1.775,1.035 6.878,1.708 8.223,-0.645 2.419,-4.234 -5.139,-10.405 -8.142,-5.965 z" /><path
   style="opacity:1;fill:none;stroke:#00acb6;stroke-width:1.70000005;stroke-linecap:round;stroke-linejoin:round;stroke-miterlimit:4;stroke-dasharray:none"
   inkscape:connector-curvature="0"
   id="path370"
   d="m 734.3366,52.646101 c -3,-3 -8.453,4.256 -5.889,6.819 2.717,2.717 7.284,-5.926 7.284,-8.059 0,-0.231 -0.222,0.407 -0.31,0.62 -0.274,0.666 -0.6,1.317 -0.775,2.015 -0.501,2.006 -0.956,4.787 0.93,6.044" /><path
   style="opacity:1;fill:none;stroke:#00acb6;stroke-width:1.70000005;stroke-linecap:round;stroke-linejoin:round;stroke-miterlimit:4;stroke-dasharray:none"
   inkscape:connector-curvature="0"
   id="path372"
   d="m 725.6576,64.424101 c -1.444,0.722 3.248,-0.192 4.805,-0.62 2.974,-0.816 5.916,-1.807 8.988,-0.929" /><path
   style="opacity:1;fill:none;stroke:#00acb6;stroke-width:1.70000005;stroke-linecap:round;stroke-linejoin:round;stroke-miterlimit:4;stroke-dasharray:none"
   inkscape:connector-curvature="0"
   id="path374"
   d="m 734.6466,67.679101 c -2.425,0 -4.851,1.281 -5.889,3.564 -0.949,2.087 0.496,5.299 3.1,4.959 2.528,-0.329 4.127,-2.77 6.508,-3.564" /><path
   style="opacity:1;fill:none;stroke:#00acb6;stroke-width:1.70000005;stroke-linecap:round;stroke-linejoin:round;stroke-miterlimit:4;stroke-dasharray:none"
   inkscape:connector-curvature="0"
   id="path376"
   d="m 731.2376,173.8371 c -3.297,-1.648 -6.158,2.986 -3.72,5.424 2.211,2.211 3.81,-1.355 4.34,-2.944 0.202,-0.606 0.302,-1.242 0.464,-1.86 0.122,-0.46 0.787,-1.395 0.31,-1.395 -0.539,0 -0.411,1.013 -0.465,1.55 -0.175,1.758 -0.472,4.256 1.085,5.424" /><path
   style="opacity:1;fill:none;stroke:#00acb6;stroke-width:1.70000005;stroke-linecap:round;stroke-linejoin:round;stroke-miterlimit:4;stroke-dasharray:none"
   inkscape:connector-curvature="0"
   id="path378"
   d="m 725.3486,183.9111 c 3.455,0 7.086,-0.43 10.538,-0.775" /><path
   style="opacity:1;fill:none;stroke:#00acb6;stroke-width:1.70000005;stroke-linecap:round;stroke-linejoin:round;stroke-miterlimit:4;stroke-dasharray:none"
   inkscape:connector-curvature="0"
   id="path380"
   d="m 732.1666,187.1651 c -6.535,0 -9.149,11.036 -0.774,8.524 1.042,-0.313 2.39,-1.123 3.409,-1.705" /><path
   style="opacity:1;fill:none;stroke:#00acb6;stroke-width:1.70000005;stroke-linecap:round;stroke-linejoin:round;stroke-miterlimit:4;stroke-dasharray:none"
   inkscape:connector-curvature="0"
   id="path382"
   d="m 732.6316,81.937101 c -1.5,-0.751 -0.099,-0.141 0.93,3.564 0.337,1.211 0.469,2.472 0.62,3.719 0.543,4.48 0.805,8.979 0.93,13.482999 0.39,14.027 0.775,28.127 0.775,42.154 0,4.286 0.163,8.45 -0.31,12.708 -0.115,1.035 -1.408,6.638 -1.55,6.354" /><path
   style="opacity:1;fill:none;stroke:#00acb6;stroke-width:1.70000005;stroke-linecap:round;stroke-linejoin:round;stroke-miterlimit:4;stroke-dasharray:none"
   inkscape:connector-curvature="0"
   id="path384"
   d="m 729.6876,155.8601 c -0.368,0 1.658,4.701 1.86,5.269 0.353,0.997 1.335,6.744 2.944,6.974 0.678,0.097 1.436,-2.407 1.55,-2.634 1.659,-3.318 4.032,-6.359 5.889,-9.609" /><path
   style="opacity:1;fill:none;stroke:#00acb6;stroke-width:1.70000005;stroke-linecap:round;stroke-linejoin:round;stroke-miterlimit:4;stroke-dasharray:none"
   inkscape:connector-curvature="0"
   id="path386"
   d="m 460.9566,63.664101 c 12.384,-4.587 13.935,-4.623 17.314,-4.931 16.222,-1.474 30.373,-3.132 46.554,-4.93 17.564,-1.952 35.915,-0.618 53.549,-1.72 35.612,-2.226 70.435,-0.69 106.093,0.795 7.394,0.308 13.94,1.81 21.011,3.381 3.764,0.837 8.248,2.898 12.075,2.898" /><path
   style="opacity:1;fill:none;stroke:#00acb6;stroke-width:1.70000005;stroke-linecap:round;stroke-linejoin:round;stroke-miterlimit:4;stroke-dasharray:none"
   inkscape:connector-curvature="0"
   id="path388"
   d="m 715.5116,53.096101 c -0.977,0 0.659,1.871 0.74,1.973 1.008,1.277 4.137,2.448 4.688,3.824 0.224,0.562 -1.529,1.342 -1.727,1.481 -1.42,0.993 -3.2,2.59 -5.058,2.59" /><path
   style="opacity:1;fill:none;stroke:#00acb6;stroke-width:1.70000005;stroke-linecap:round;stroke-linejoin:round;stroke-miterlimit:4;stroke-dasharray:none"
   inkscape:connector-curvature="0"
   id="path390"
   d="m 459.4656,57.357101 c -0.43,0 -0.237,3.342 -0.229,3.44 0.235,2.982 0.715,6.706 2.064,9.403" /><path
   style="opacity:1;fill:none;stroke:#00acb6;stroke-width:1.70000005;stroke-linecap:round;stroke-linejoin:round;stroke-miterlimit:4;stroke-dasharray:none"
   inkscape:connector-curvature="0"
   id="path392"
   d="m 728.9966,202.4111 c 0,0.116 0,0.233 0,0.349" /><path
   style="opacity:1;fill:none;stroke:#00acb6;stroke-width:1.70000005;stroke-linecap:round;stroke-linejoin:round;stroke-miterlimit:4;stroke-dasharray:none"
   inkscape:connector-curvature="0"
   id="path394"
   d="m 728.6476,207.6471 c -0.465,0 -0.349,0.117 -0.349,-0.349" /><path
   style="opacity:1;fill:none;stroke:#00acb6;stroke-width:1.70000005;stroke-linecap:round;stroke-linejoin:round;stroke-miterlimit:4;stroke-dasharray:none"
   inkscape:connector-curvature="0"
   id="path396"
   d="m 728.8226,212.8841 c -0.058,0.174 -0.117,0.349 -0.175,0.523" /><path
   style="opacity:1;fill:none;stroke:#00acb6;stroke-width:1.70000005;stroke-linecap:round;stroke-linejoin:round;stroke-miterlimit:4;stroke-dasharray:none"
   inkscape:connector-curvature="0"
   id="path398"
   d="m 158.4026,22.577101 c 0,-4.57 5.587,-8.275 12.478,-8.275 6.891,0 12.478,3.705 12.478,8.275 0,4.57 -5.587,8.274 -12.478,8.274 -6.891,0 -12.478,-3.704 -12.478,-8.274 z" /><path
   style="opacity:1;fill:none;stroke:#00acb6;stroke-width:1.70000005;stroke-linecap:round;stroke-linejoin:round;stroke-miterlimit:4;stroke-dasharray:none"
   inkscape:connector-curvature="0"
   id="path400"
   d="m 291.9256,19.972101 c 0,-4.286 5.402,-7.761 12.067,-7.761 6.665,0 12.068,3.475 12.068,7.761 0,4.287 -5.403,7.762 -12.068,7.762 -6.665,0 -12.067,-3.475 -12.067,-7.762 z" /><path
   style="opacity:1;fill:none;stroke:#000000;stroke-width:1.70000005;stroke-linecap:round;stroke-linejoin:round;stroke-miterlimit:4;stroke-dasharray:none"
   inkscape:connector-curvature="0"
   id="path402"
   d="m 563.8156,161.7311 c 0.601,-4.207 -0.091,-6.967 -0.471,-11.776 -0.103,-1.305 -0.831,-2.802 -0.157,-3.925 0.47,-0.784 4.566,0.788 5.182,0.942" /><path
   style="opacity:1;fill:none;stroke:#000000;stroke-width:1.70000005;stroke-linecap:round;stroke-linejoin:round;stroke-miterlimit:4;stroke-dasharray:none"
   inkscape:connector-curvature="0"
   id="path404"
   d="m 560.8326,155.4511 c 0.523,1.047 3.702,0.096 4.553,-0.471" /><path
   style="opacity:1;fill:none;stroke:#000000;stroke-width:1.70000005;stroke-linecap:round;stroke-linejoin:round;stroke-miterlimit:4;stroke-dasharray:none"
   inkscape:connector-curvature="0"
   id="path406"
   d="m 568.10847,163.00301 c -1.17066,2.3413 2.45057,-1.39518 2.63907,-1.69655 0.32418,-0.51869 2.10117,-5.17009 2.63907,-4.90114 0.40583,0.20292 0.90411,5.88088 1.13104,6.78619" /><path
   style="opacity:1;fill:none;stroke:#000000;stroke-width:1.70000005;stroke-linecap:round;stroke-linejoin:round;stroke-miterlimit:4;stroke-dasharray:none"
   inkscape:connector-curvature="0"
   id="path408"
   d="m 570.37053,161.11795 c 1.39398,0 0.50788,0.0492 2.63907,-0.37701" /><path
   style="opacity:1;fill:none;stroke:#000000;stroke-width:1.70000005;stroke-linecap:round;stroke-linejoin:round;stroke-miterlimit:4;stroke-dasharray:none"
   inkscape:connector-curvature="0"
   id="path410"
   d="m 559.8906,144.1461 c 0.628,-1.256 3.999,-2.562 4.867,-2.827 0.058,-0.017 1.722,1.571 2.512,1.571 1.921,0 3.267,-1.555 4.868,-2.356" /><path
   style="opacity:1;fill:none;stroke:#000000;stroke-width:1.70000005;stroke-linecap:round;stroke-linejoin:round;stroke-miterlimit:4;stroke-dasharray:none"
   inkscape:connector-curvature="0"
   id="path412"
   d="m 545.7586,169.2681 c 0,3.266 -0.39,6.795 -0.785,10.049 -0.153,1.264 -0.448,2.508 -0.628,3.768 -0.052,0.367 -0.527,1.099 -0.157,1.099 0.416,0 2.346,-4.899 3.141,-5.495 2.398,-1.799 3.814,4.534 4.396,6.28" /><path
   style="opacity:1;fill:none;stroke:#000000;stroke-width:1.70000005;stroke-linecap:round;stroke-linejoin:round;stroke-miterlimit:4;stroke-dasharray:none"
   inkscape:connector-curvature="0"
   id="path414"
   d="m 557.3786,178.5321 c -3.246,-1.115 -5.757,4.471 -3.141,5.966 2.728,1.559 4.672,-2.548 4.24,-4.71 -0.1,-0.498 -0.497,-1.049 -1.099,-1.256 z" /><path
   style="opacity:1;fill:none;stroke:#000000;stroke-width:1.70000005;stroke-linecap:round;stroke-linejoin:round;stroke-miterlimit:4;stroke-dasharray:none"
   inkscape:connector-curvature="0"
   id="path416"
   d="m 563.9726,170.3671 c 0,5.306 -2.386,8.596 -0.942,14.131 0.395,1.514 4.787,-2.472 5.182,-2.669" /><path
   style="opacity:1;fill:none;stroke:#000000;stroke-width:1.70000005;stroke-linecap:round;stroke-linejoin:round;stroke-miterlimit:4;stroke-dasharray:none"
   inkscape:connector-curvature="0"
   id="path418"
   d="m 574.0216,178.6101 c -2.091,0.461 -2.875,1.65 -3.297,3.847 -0.261,1.358 0.147,2.898 1.884,2.355 1.766,-0.551 2.512,-1.859 2.512,-3.611 0,-0.727 0.039,-2.841 -1.099,-2.591 z" /><path
   style="opacity:1;fill:none;stroke:#000000;stroke-width:1.70000005;stroke-linecap:round;stroke-linejoin:round;stroke-miterlimit:4;stroke-dasharray:none"
   inkscape:connector-curvature="0"
   id="path420"
   d="m 578.8896,177.9041 c 0,1.008 0.157,1.928 0.157,2.983 0,0.628 0.039,1.257 0,1.884 -0.37,5.921 1.815,-5.397 3.925,-4.553 1.39,0.556 -0.601,4.424 0,5.024 0.447,0.448 0.576,-1.13 0.785,-1.727 0.223,-0.636 0.818,-3.336 1.884,-3.454 2.006,-0.223 1.884,6.598 1.884,7.694" /><path
   style="opacity:1;fill:none;stroke:#000000;stroke-width:1.70000005;stroke-linecap:round;stroke-linejoin:round;stroke-miterlimit:4;stroke-dasharray:none"
   inkscape:connector-curvature="0"
   id="path422"
   d="m 591.2936,183.7131 c -0.105,0.314 -0.21,0.628 -0.314,0.942" /><path
   style="opacity:1;fill:none;stroke:#000000;stroke-width:1.70000005;stroke-linecap:round;stroke-linejoin:round;stroke-miterlimit:4;stroke-dasharray:none"
   inkscape:connector-curvature="0"
   id="path424"
   d="m 484.34836,88.505576 c 0,-3.334918 -0.44976,-7.021217 -0.60309,-10.232195 -0.10606,-2.242445 -2.35106,-10.482633 3.01037,-7.624314 0.8842,0.472766 1.54735,1.290524 2.40727,1.806734" /><path
   style="opacity:1;fill:none;stroke:#000000;stroke-width:1.70000005;stroke-linecap:round;stroke-linejoin:round;stroke-miterlimit:4;stroke-dasharray:none"
   inkscape:connector-curvature="0"
   id="path426"
   d="m 480.53557,83.288537 c 0,-1.296913 5.30776,-2.480106 6.62128,-2.808487" /><path
   style="opacity:1;fill:none;stroke:#000000;stroke-width:1.70000005;stroke-linecap:round;stroke-linejoin:round;stroke-miterlimit:4;stroke-dasharray:none"
   inkscape:connector-curvature="0"
   id="path428"
   d="m 487.35746,90.511639 c 0.35138,-0.528988 0.71809,-1.037531 1.00303,-1.60485 0.40121,-0.802425 0.80242,-1.60485 1.20364,-2.407275 3.5713,-7.142604 0.71937,2.713934 3.4103,3.610912" /><path
   style="opacity:1;fill:none;stroke:#000000;stroke-width:1.70000005;stroke-linecap:round;stroke-linejoin:round;stroke-miterlimit:4;stroke-dasharray:none"
   inkscape:connector-curvature="0"
   id="path430"
   d="m 488.96231,88.505576 0.40121,0.200607 0.60182,-0.200607 2.00606,-0.601818 v 0" />
<path
   style="opacity:1;fill:none;stroke:#000000;stroke-width:1.70000005;stroke-linecap:round;stroke-linejoin:round;stroke-miterlimit:4;stroke-dasharray:none"
   inkscape:connector-curvature="0"
   id="path18"
   d="m 180.4486,11.840101 c -1.145,2.176 -0.613,4.668 -2.609,6.399 -2.714,2.351 -5.726,0.338 -4.042,-3.031 1.026,-2.052 2.835,0.213 3.705,1.01 1.94,1.778 4.478,5.602 7.577,3.536 1.815,-1.21 3.187,-7.922 1.179,-9.261 -1.624,-1.0820003 -5.073,-0.053 -5.81,1.347 z" /><path
   style="fill:none;stroke:#000000;stroke-width:1.70000005;stroke-linecap:round;stroke-linejoin:round;stroke-miterlimit:4;stroke-dasharray:none;stroke-opacity:1"
   d="m 611.48154,92.413978 c 0.71443,0.158762 6.62832,-0.515978 6.94584,-0.754121"
   id="path1024"
   inkscape:connector-curvature="0"
   sodipodi:nodetypes="cc" /><path
   style="fill:none;stroke:#000000;stroke-width:1.70000005;stroke-linecap:round;stroke-linejoin:round;stroke-miterlimit:4;stroke-dasharray:none;stroke-opacity:1"
   d="m 610.8516,78.178124 c 1.10622,-1.799133 6.20253,-7.142573 6.909,-6.376 0.70647,0.766573 -3.0469,9.11874 -2.48,9.903977"
   id="path1026"
   inkscape:connector-curvature="0" /></svg>