<?xml version="1.0" encoding="UTF-8" standalone="no"?>
<!-- Created with Inkscape (http://www.inkscape.org/) -->

<svg
   xmlns:dc="http://purl.org/dc/elements/1.1/"
   xmlns:cc="http://creativecommons.org/ns#"
   xmlns:rdf="http://www.w3.org/1999/02/22-rdf-syntax-ns#"
   xmlns:svg="http://www.w3.org/2000/svg"
   xmlns="http://www.w3.org/2000/svg"
   xmlns:sodipodi="http://sodipodi.sourceforge.net/DTD/sodipodi-0.dtd"
   xmlns:inkscape="http://www.inkscape.org/namespaces/inkscape"
   width="56.006012mm"
   height="50.668442mm"
   viewBox="0 0 56.006012 50.668442"
   version="1.1"
   id="svg8"
   inkscape:version="0.92.3 (2405546, 2018-03-11)"
   sodipodi:docname="umlaufzahlzwei.svg">
  <defs
     id="defs2">
    <clipPath
       clipPathUnits="userSpaceOnUse"
       id="clipPath977">
      <rect
         style="opacity:0.56300001;fill:#fe00ff;fill-opacity:1;stroke:#8c00ff;stroke-width:0.60785961;stroke-linecap:round;stroke-linejoin:round;stroke-miterlimit:4;stroke-dasharray:none;stroke-dashoffset:0;stroke-opacity:1;paint-order:stroke markers fill"
         id="rect979"
         width="55.940475"
         height="51.984432"
         x="245.84766"
         y="65.711578" />
    </clipPath>
    <clipPath
       clipPathUnits="userSpaceOnUse"
       id="clipPath981">
      <rect
         style="opacity:0.56300001;fill:#fe00ff;fill-opacity:1;stroke:#8c00ff;stroke-width:0.60000002;stroke-linecap:round;stroke-linejoin:round;stroke-miterlimit:4;stroke-dasharray:none;stroke-dashoffset:0;stroke-opacity:1;paint-order:stroke markers fill"
         id="rect983"
         width="55.940475"
         height="50.648811"
         x="245.84766"
         y="73.1399" />
    </clipPath>
  </defs>
  <sodipodi:namedview
     id="base"
     pagecolor="#ffffff"
     bordercolor="#666666"
     borderopacity="1.0"
     inkscape:pageopacity="0.0"
     inkscape:pageshadow="2"
     inkscape:zoom="1.4"
     inkscape:cx="80.335"
     inkscape:cy="109.04286"
     inkscape:document-units="mm"
     inkscape:current-layer="layer1"
     showgrid="false"
     fit-margin-top="5"
     fit-margin-left="5"
     fit-margin-right="5"
     fit-margin-bottom="5"
     inkscape:window-width="1235"
     inkscape:window-height="1015"
     inkscape:window-x="0"
     inkscape:window-y="0"
     inkscape:window-maximized="0" />
  <metadata
     id="metadata5">
    <rdf:RDF>
      <cc:Work
         rdf:about="">
        <dc:format>image/svg+xml</dc:format>
        <dc:type
           rdf:resource="http://purl.org/dc/dcmitype/StillImage" />
        <dc:title></dc:title>
      </cc:Work>
    </rdf:RDF>
  </metadata>
  <g
     inkscape:label="Layer 1"
     inkscape:groupmode="layer"
     id="layer1"
     transform="translate(-21.992691,-112.41908)">
    <g
       transform="translate(-223.85497,39.298814)"
       id="g2450"
       clip-path="url(#clipPath981)">
      <path
         sodipodi:nodetypes="cc"
         inkscape:connector-curvature="0"
         id="path888-5"
         d="M -136.09469,1.702951 H 675.53076"
         style="display:inline;fill:none;fill-opacity:1;stroke:#ebebeb;stroke-width:1;stroke-linecap:round;stroke-linejoin:round;stroke-miterlimit:4;stroke-dasharray:none;stroke-opacity:1" />
      <path
         sodipodi:nodetypes="cc"
         inkscape:connector-curvature="0"
         id="path888-3-9"
         d="M -135.06491,24.850458 H 676.56058"
         style="display:inline;fill:none;fill-opacity:1;stroke:#ebebeb;stroke-width:1;stroke-linecap:round;stroke-linejoin:round;stroke-miterlimit:4;stroke-dasharray:none;stroke-opacity:1" />
      <path
         sodipodi:nodetypes="cc"
         inkscape:connector-curvature="0"
         id="path888-3-1-2"
         d="m -134.03514,47.997965 h 811.6255"
         style="display:inline;fill:none;fill-opacity:1;stroke:#ebebeb;stroke-width:1;stroke-linecap:round;stroke-linejoin:round;stroke-miterlimit:4;stroke-dasharray:none;stroke-opacity:1" />
      <path
         sodipodi:nodetypes="cc"
         inkscape:connector-curvature="0"
         id="path888-2-2"
         d="M -138.15426,-44.592067 H 673.47119"
         style="display:inline;fill:none;fill-opacity:1;stroke:#ebebeb;stroke-width:1;stroke-linecap:round;stroke-linejoin:round;stroke-miterlimit:4;stroke-dasharray:none;stroke-opacity:1" />
      <path
         sodipodi:nodetypes="cc"
         inkscape:connector-curvature="0"
         id="path888-3-7-8"
         d="M -137.12448,-21.444556 H 674.50101"
         style="display:inline;fill:none;fill-opacity:1;stroke:#ebebeb;stroke-width:1;stroke-linecap:round;stroke-linejoin:round;stroke-miterlimit:4;stroke-dasharray:none;stroke-opacity:1" />
      <path
         sodipodi:nodetypes="cc"
         inkscape:connector-curvature="0"
         id="path888-9-9"
         d="M -131.97557,94.292972 H 679.64988"
         style="display:inline;fill:none;fill-opacity:1;stroke:#ebebeb;stroke-width:1;stroke-linecap:round;stroke-linejoin:round;stroke-miterlimit:4;stroke-dasharray:none;stroke-opacity:1" />
      <path
         sodipodi:nodetypes="cc"
         inkscape:connector-curvature="0"
         id="path888-3-3-7"
         d="M -130.94578,117.44048 H 680.67969"
         style="display:inline;fill:none;fill-opacity:1;stroke:#ebebeb;stroke-width:1;stroke-linecap:round;stroke-linejoin:round;stroke-miterlimit:4;stroke-dasharray:none;stroke-opacity:1" />
      <path
         sodipodi:nodetypes="cc"
         inkscape:connector-curvature="0"
         id="path888-3-1-6-36"
         d="M -129.91601,140.58799 H 681.70952"
         style="display:inline;fill:none;fill-opacity:1;stroke:#ebebeb;stroke-width:1;stroke-linecap:round;stroke-linejoin:round;stroke-miterlimit:4;stroke-dasharray:none;stroke-opacity:1" />
      <path
         sodipodi:nodetypes="cc"
         inkscape:connector-curvature="0"
         id="path888-3-7-6-1"
         d="M -133.00534,71.145472 H 678.62017"
         style="display:inline;fill:none;fill-opacity:1;stroke:#ebebeb;stroke-width:1;stroke-linecap:round;stroke-linejoin:round;stroke-miterlimit:4;stroke-dasharray:none;stroke-opacity:1" />
      <path
         sodipodi:nodetypes="cc"
         inkscape:connector-curvature="0"
         id="path888-26-2"
         d="M -127.85644,186.883 H 683.76904"
         style="display:inline;fill:none;fill-opacity:1;stroke:#ebebeb;stroke-width:1;stroke-linecap:round;stroke-linejoin:round;stroke-miterlimit:4;stroke-dasharray:none;stroke-opacity:1" />
      <path
         sodipodi:nodetypes="cc"
         inkscape:connector-curvature="0"
         id="path888-3-18-9"
         d="M -126.82666,210.03051 H 684.79888"
         style="display:inline;fill:none;fill-opacity:1;stroke:#ebebeb;stroke-width:1;stroke-linecap:round;stroke-linejoin:round;stroke-miterlimit:4;stroke-dasharray:none;stroke-opacity:1" />
      <path
         sodipodi:nodetypes="cc"
         inkscape:connector-curvature="0"
         id="path888-3-1-7-3"
         d="M -125.79688,233.178 H 685.82866"
         style="display:inline;fill:none;fill-opacity:1;stroke:#ebebeb;stroke-width:1;stroke-linecap:round;stroke-linejoin:round;stroke-miterlimit:4;stroke-dasharray:none;stroke-opacity:1" />
      <path
         sodipodi:nodetypes="cc"
         inkscape:connector-curvature="0"
         id="path888-3-7-2-1"
         d="M -128.88623,163.73549 H 682.73931"
         style="display:inline;fill:none;fill-opacity:1;stroke:#ebebeb;stroke-width:1;stroke-linecap:round;stroke-linejoin:round;stroke-miterlimit:4;stroke-dasharray:none;stroke-opacity:1" />
      <path
         sodipodi:nodetypes="cc"
         inkscape:connector-curvature="0"
         id="path888-9-0-9"
         d="M -123.73731,279.47302 H 687.88818"
         style="display:inline;fill:none;fill-opacity:1;stroke:#ebebeb;stroke-width:1;stroke-linecap:round;stroke-linejoin:round;stroke-miterlimit:4;stroke-dasharray:none;stroke-opacity:1" />
      <path
         sodipodi:nodetypes="cc"
         inkscape:connector-curvature="0"
         id="path888-3-3-2-4"
         d="M -122.70754,302.62055 H 688.918"
         style="display:inline;fill:none;fill-opacity:1;stroke:#ebebeb;stroke-width:1;stroke-linecap:round;stroke-linejoin:round;stroke-miterlimit:4;stroke-dasharray:none;stroke-opacity:1" />
      <path
         sodipodi:nodetypes="cc"
         inkscape:connector-curvature="0"
         id="path888-3-1-6-3-7"
         d="M -121.67774,325.76804 H 689.94778"
         style="display:inline;fill:none;fill-opacity:1;stroke:#ebebeb;stroke-width:1;stroke-linecap:round;stroke-linejoin:round;stroke-miterlimit:4;stroke-dasharray:none;stroke-opacity:1" />
      <path
         sodipodi:nodetypes="cc"
         inkscape:connector-curvature="0"
         id="path888-3-7-6-7-8"
         d="M -124.76709,256.32553 H 686.85843"
         style="display:inline;fill:none;fill-opacity:1;stroke:#ebebeb;stroke-width:1;stroke-linecap:round;stroke-linejoin:round;stroke-miterlimit:4;stroke-dasharray:none;stroke-opacity:1" />
    </g>
    <g
       id="g2354"
       transform="matrix(1,0,0,0.97430725,-223.85497,48.415444)"
       clip-path="url(#clipPath977)">
      <path
         sodipodi:nodetypes="cc"
         inkscape:connector-curvature="0"
         id="path888"
         d="M -41.839886,353.71825 V -85.647713"
         style="display:inline;fill:none;fill-opacity:1;stroke:#ebebeb;stroke-width:1;stroke-linecap:round;stroke-linejoin:round;stroke-miterlimit:4;stroke-dasharray:none;stroke-opacity:1" />
      <path
         sodipodi:nodetypes="cc"
         inkscape:connector-curvature="0"
         id="path888-3"
         d="M -18.692379,353.16079 V -86.205198"
         style="display:inline;fill:none;fill-opacity:1;stroke:#ebebeb;stroke-width:1;stroke-linecap:round;stroke-linejoin:round;stroke-miterlimit:4;stroke-dasharray:none;stroke-opacity:1" />
      <path
         sodipodi:nodetypes="cc"
         inkscape:connector-curvature="0"
         id="path888-3-1"
         d="M 4.455127,352.60333 V -86.762665"
         style="display:inline;fill:none;fill-opacity:1;stroke:#ebebeb;stroke-width:1;stroke-linecap:round;stroke-linejoin:round;stroke-miterlimit:4;stroke-dasharray:none;stroke-opacity:1" />
      <path
         sodipodi:nodetypes="cc"
         inkscape:connector-curvature="0"
         id="path888-2"
         d="M -88.1349,354.83318 V -84.532791"
         style="display:inline;fill:none;fill-opacity:1;stroke:#ebebeb;stroke-width:1;stroke-linecap:round;stroke-linejoin:round;stroke-miterlimit:4;stroke-dasharray:none;stroke-opacity:1" />
      <path
         sodipodi:nodetypes="cc"
         inkscape:connector-curvature="0"
         id="path888-3-7"
         d="M -64.987393,354.27572 V -85.090277"
         style="display:inline;fill:none;fill-opacity:1;stroke:#ebebeb;stroke-width:1;stroke-linecap:round;stroke-linejoin:round;stroke-miterlimit:4;stroke-dasharray:none;stroke-opacity:1" />
      <path
         sodipodi:nodetypes="cc"
         inkscape:connector-curvature="0"
         id="path888-9"
         d="M 50.750137,351.4884 V -87.877571"
         style="display:inline;fill:none;fill-opacity:1;stroke:#ebebeb;stroke-width:1;stroke-linecap:round;stroke-linejoin:round;stroke-miterlimit:4;stroke-dasharray:none;stroke-opacity:1" />
      <path
         sodipodi:nodetypes="cc"
         inkscape:connector-curvature="0"
         id="path888-3-3"
         d="M 73.897647,350.93094 V -88.435056"
         style="display:inline;fill:none;fill-opacity:1;stroke:#ebebeb;stroke-width:1;stroke-linecap:round;stroke-linejoin:round;stroke-miterlimit:4;stroke-dasharray:none;stroke-opacity:1" />
      <path
         sodipodi:nodetypes="cc"
         inkscape:connector-curvature="0"
         id="path888-3-1-6"
         d="M 97.045157,350.37348 V -88.992524"
         style="display:inline;fill:none;fill-opacity:1;stroke:#ebebeb;stroke-width:1;stroke-linecap:round;stroke-linejoin:round;stroke-miterlimit:4;stroke-dasharray:none;stroke-opacity:1" />
      <path
         sodipodi:nodetypes="cc"
         inkscape:connector-curvature="0"
         id="path888-3-7-6"
         d="M 27.602637,352.04586 V -87.320135"
         style="display:inline;fill:none;fill-opacity:1;stroke:#ebebeb;stroke-width:1;stroke-linecap:round;stroke-linejoin:round;stroke-miterlimit:4;stroke-dasharray:none;stroke-opacity:1" />
      <path
         sodipodi:nodetypes="cc"
         inkscape:connector-curvature="0"
         id="path888-26"
         d="M 143.34017,349.25855 V -90.107425"
         style="display:inline;fill:none;fill-opacity:1;stroke:#ebebeb;stroke-width:1;stroke-linecap:round;stroke-linejoin:round;stroke-miterlimit:4;stroke-dasharray:none;stroke-opacity:1" />
      <path
         sodipodi:nodetypes="cc"
         inkscape:connector-curvature="0"
         id="path888-3-18"
         d="M 166.48768,348.70109 V -90.664911"
         style="display:inline;fill:none;fill-opacity:1;stroke:#ebebeb;stroke-width:1;stroke-linecap:round;stroke-linejoin:round;stroke-miterlimit:4;stroke-dasharray:none;stroke-opacity:1" />
      <path
         sodipodi:nodetypes="cc"
         inkscape:connector-curvature="0"
         id="path888-3-1-7"
         d="M 189.63517,348.14362 V -91.222378"
         style="display:inline;fill:none;fill-opacity:1;stroke:#ebebeb;stroke-width:1;stroke-linecap:round;stroke-linejoin:round;stroke-miterlimit:4;stroke-dasharray:none;stroke-opacity:1" />
      <path
         sodipodi:nodetypes="cc"
         inkscape:connector-curvature="0"
         id="path888-3-7-2"
         d="M 120.19266,349.81601 V -89.549989"
         style="display:inline;fill:none;fill-opacity:1;stroke:#ebebeb;stroke-width:1;stroke-linecap:round;stroke-linejoin:round;stroke-miterlimit:4;stroke-dasharray:none;stroke-opacity:1" />
      <path
         sodipodi:nodetypes="cc"
         inkscape:connector-curvature="0"
         id="path888-9-0"
         d="M 235.93019,347.0287 V -92.337284"
         style="display:inline;fill:none;fill-opacity:1;stroke:#ebebeb;stroke-width:1;stroke-linecap:round;stroke-linejoin:round;stroke-miterlimit:4;stroke-dasharray:none;stroke-opacity:1" />
      <path
         sodipodi:nodetypes="cc"
         inkscape:connector-curvature="0"
         id="path888-3-3-2"
         d="M 259.07772,346.47123 V -92.894769"
         style="display:inline;fill:none;fill-opacity:1;stroke:#ebebeb;stroke-width:1;stroke-linecap:round;stroke-linejoin:round;stroke-miterlimit:4;stroke-dasharray:none;stroke-opacity:1" />
      <path
         sodipodi:nodetypes="cc"
         inkscape:connector-curvature="0"
         id="path888-3-1-6-3"
         d="M 282.22521,345.91377 V -93.452236"
         style="display:inline;fill:none;fill-opacity:1;stroke:#ebebeb;stroke-width:1;stroke-linecap:round;stroke-linejoin:round;stroke-miterlimit:4;stroke-dasharray:none;stroke-opacity:1" />
      <path
         sodipodi:nodetypes="cc"
         inkscape:connector-curvature="0"
         id="path888-3-7-6-7"
         d="M 212.7827,347.58616 V -91.779848"
         style="display:inline;fill:none;fill-opacity:1;stroke:#ebebeb;stroke-width:1;stroke-linecap:round;stroke-linejoin:round;stroke-miterlimit:4;stroke-dasharray:none;stroke-opacity:1" />
      <path
         sodipodi:nodetypes="cc"
         inkscape:connector-curvature="0"
         id="path888-93"
         d="M 328.52022,344.79885 V -94.56712"
         style="display:inline;fill:none;fill-opacity:1;stroke:#ebebeb;stroke-width:1;stroke-linecap:round;stroke-linejoin:round;stroke-miterlimit:4;stroke-dasharray:none;stroke-opacity:1" />
      <path
         sodipodi:nodetypes="cc"
         inkscape:connector-curvature="0"
         id="path888-3-74"
         d="M 351.66772,344.24138 V -95.124605"
         style="display:inline;fill:none;fill-opacity:1;stroke:#ebebeb;stroke-width:1;stroke-linecap:round;stroke-linejoin:round;stroke-miterlimit:4;stroke-dasharray:none;stroke-opacity:1" />
      <path
         sodipodi:nodetypes="cc"
         inkscape:connector-curvature="0"
         id="path888-3-1-5"
         d="M 374.81523,343.68392 V -95.682072"
         style="display:inline;fill:none;fill-opacity:1;stroke:#ebebeb;stroke-width:1;stroke-linecap:round;stroke-linejoin:round;stroke-miterlimit:4;stroke-dasharray:none;stroke-opacity:1" />
      <path
         sodipodi:nodetypes="cc"
         inkscape:connector-curvature="0"
         id="path888-3-7-4"
         d="M 305.37271,345.35631 V -94.009684"
         style="display:inline;fill:none;fill-opacity:1;stroke:#ebebeb;stroke-width:1;stroke-linecap:round;stroke-linejoin:round;stroke-miterlimit:4;stroke-dasharray:none;stroke-opacity:1" />
      <path
         sodipodi:nodetypes="cc"
         inkscape:connector-curvature="0"
         id="path888-9-7"
         d="M 421.11024,342.56899 V -96.796978"
         style="display:inline;fill:none;fill-opacity:1;stroke:#ebebeb;stroke-width:1;stroke-linecap:round;stroke-linejoin:round;stroke-miterlimit:4;stroke-dasharray:none;stroke-opacity:1" />
      <path
         sodipodi:nodetypes="cc"
         inkscape:connector-curvature="0"
         id="path888-3-3-4"
         d="M 444.25775,342.01153 V -97.354463"
         style="display:inline;fill:none;fill-opacity:1;stroke:#ebebeb;stroke-width:1;stroke-linecap:round;stroke-linejoin:round;stroke-miterlimit:4;stroke-dasharray:none;stroke-opacity:1" />
      <path
         sodipodi:nodetypes="cc"
         inkscape:connector-curvature="0"
         id="path888-3-1-6-4"
         d="M 467.40526,341.45407 V -97.911931"
         style="display:inline;fill:none;fill-opacity:1;stroke:#ebebeb;stroke-width:1;stroke-linecap:round;stroke-linejoin:round;stroke-miterlimit:4;stroke-dasharray:none;stroke-opacity:1" />
      <path
         sodipodi:nodetypes="cc"
         inkscape:connector-curvature="0"
         id="path888-3-7-6-3"
         d="M 397.96274,343.12646 V -96.239542"
         style="display:inline;fill:none;fill-opacity:1;stroke:#ebebeb;stroke-width:1;stroke-linecap:round;stroke-linejoin:round;stroke-miterlimit:4;stroke-dasharray:none;stroke-opacity:1" />
      <path
         sodipodi:nodetypes="cc"
         inkscape:connector-curvature="0"
         id="path888-26-0"
         d="M 513.70027,340.33914 V -99.026832"
         style="display:inline;fill:none;fill-opacity:1;stroke:#ebebeb;stroke-width:1;stroke-linecap:round;stroke-linejoin:round;stroke-miterlimit:4;stroke-dasharray:none;stroke-opacity:1" />
      <path
         sodipodi:nodetypes="cc"
         inkscape:connector-curvature="0"
         id="path888-3-18-7"
         d="M 536.84778,339.78168 V -99.584318"
         style="display:inline;fill:none;fill-opacity:1;stroke:#ebebeb;stroke-width:1;stroke-linecap:round;stroke-linejoin:round;stroke-miterlimit:4;stroke-dasharray:none;stroke-opacity:1" />
      <path
         sodipodi:nodetypes="cc"
         inkscape:connector-curvature="0"
         id="path888-3-1-7-8"
         d="m 559.99527,339.22422 v -439.366"
         style="display:inline;fill:none;fill-opacity:1;stroke:#ebebeb;stroke-width:1;stroke-linecap:round;stroke-linejoin:round;stroke-miterlimit:4;stroke-dasharray:none;stroke-opacity:1" />
      <path
         sodipodi:nodetypes="cc"
         inkscape:connector-curvature="0"
         id="path888-3-7-2-6"
         d="M 490.55276,340.89661 V -98.469396"
         style="display:inline;fill:none;fill-opacity:1;stroke:#ebebeb;stroke-width:1;stroke-linecap:round;stroke-linejoin:round;stroke-miterlimit:4;stroke-dasharray:none;stroke-opacity:1" />
      <path
         sodipodi:nodetypes="cc"
         inkscape:connector-curvature="0"
         id="path888-9-0-8"
         d="M 606.29029,338.10929 V -101.25669"
         style="display:inline;fill:none;fill-opacity:1;stroke:#ebebeb;stroke-width:1;stroke-linecap:round;stroke-linejoin:round;stroke-miterlimit:4;stroke-dasharray:none;stroke-opacity:1" />
      <path
         sodipodi:nodetypes="cc"
         inkscape:connector-curvature="0"
         id="path888-3-3-2-8"
         d="M 629.43782,337.55183 V -101.81418"
         style="display:inline;fill:none;fill-opacity:1;stroke:#ebebeb;stroke-width:1;stroke-linecap:round;stroke-linejoin:round;stroke-miterlimit:4;stroke-dasharray:none;stroke-opacity:1" />
      <path
         sodipodi:nodetypes="cc"
         inkscape:connector-curvature="0"
         id="path888-3-1-6-3-4"
         d="m 652.58531,336.99436 v -439.366"
         style="display:inline;fill:none;fill-opacity:1;stroke:#ebebeb;stroke-width:1;stroke-linecap:round;stroke-linejoin:round;stroke-miterlimit:4;stroke-dasharray:none;stroke-opacity:1" />
      <path
         sodipodi:nodetypes="cc"
         inkscape:connector-curvature="0"
         id="path888-3-7-6-7-3"
         d="m 583.1428,338.66675 v -439.366"
         style="display:inline;fill:none;fill-opacity:1;stroke:#ebebeb;stroke-width:1;stroke-linecap:round;stroke-linejoin:round;stroke-miterlimit:4;stroke-dasharray:none;stroke-opacity:1" />
    </g>
  </g>
  <g
     inkscape:groupmode="layer"
     id="layer2"
     inkscape:label="Layer 2"
     transform="translate(-21.992691,-112.41908)">
    <path
       style="fill:none;stroke:#000000;stroke-width:1;stroke-linecap:butt;stroke-linejoin:miter;stroke-miterlimit:4;stroke-dasharray:none;stroke-opacity:1"
       d="m 50.046217,132.0947 c 10.49033,0.13363 12.428035,6.74856 12.628486,8.41899 0.200454,1.67043 -4.009043,7.88445 -11.49259,11.82668 -7.483546,3.94222 -14.699824,-1.80407 -16.503893,-8.08491 -1.804069,-6.28083 -3.80859,-14.90027 8.68626,-19.91158 12.49485,-5.0113 26.927405,2.2718 28.664657,12.42804 1.737251,10.15624 -1.469983,18.10751 -7.884451,17.90705 -6.414469,-0.20045 -16.704345,-6.08038 -20.913842,-9.28761 -4.209494,-3.20724 -3.340867,-12.36122 6.815373,-13.29666 z"
       id="path838"
       inkscape:connector-curvature="0" />
    <path
       style="fill:none;stroke:#8c00ff;stroke-width:1;stroke-linecap:butt;stroke-linejoin:miter;stroke-miterlimit:4;stroke-dasharray:none;stroke-opacity:1"
       d="m 27.662396,142.98593 c -1.403165,-14.29892 6.013564,-23.4529 17.372518,-24.92288 11.358956,-1.46998 20.579754,8.61944 20.379303,18.57523 -0.200453,9.95579 -1.937705,18.50842 -11.02487,19.10977 -9.087162,0.60136 -5.879928,-8.0849 -6.013563,-10.49033 -0.133636,-2.40542 -3.674957,-6.28083 0,-7.95126 3.674956,-1.67044 8.352173,1.13589 7.550364,8.68626 -0.801809,7.55036 -7.015824,12.96257 -15.167546,11.29213 -8.15172,-1.67043 -12.49485,-7.61718 -13.096206,-14.29892 z"
       id="path840"
       inkscape:connector-curvature="0" />
    <path
       style="fill:none;stroke:#000000;stroke-width:0.80000001;stroke-linecap:round;stroke-linejoin:miter;stroke-miterlimit:4;stroke-dasharray:none;stroke-opacity:1"
       d="m 48.375784,139.61165 c 0.23386,0.13364 2.3052,1.20272 2.3052,1.20272"
       id="path842"
       inkscape:connector-curvature="0" />
    <path
       style="fill:none;stroke:#000000;stroke-width:0.80000001;stroke-linecap:round;stroke-linejoin:miter;stroke-miterlimit:4;stroke-dasharray:none;stroke-opacity:1"
       d="m 48.810097,141.54936 1.403165,-2.7061"
       id="path844"
       inkscape:connector-curvature="0" />
    <path
       style="fill:none;stroke:#000000;stroke-width:0.60000002;stroke-linecap:round;stroke-linejoin:round;stroke-miterlimit:4;stroke-dasharray:none;stroke-opacity:1"
       d="m 52.444197,140.6596 c -0.826823,0 -1.086684,1.34654 -0.992188,2.07887 0.09449,0.73232 0.496094,1.29929 0.897692,1.27567 0.4016,-0.0236 1.157552,-1.01582 1.063059,-1.72452 -0.09449,-0.70871 -0.354354,-1.96075 -1.110306,-1.55915 -0.755951,0.4016 1.535528,-0.33073 1.41741,-0.8032"
       id="path846"
       inkscape:connector-curvature="0" />
  </g>
</svg>
